post_id,post_type,post_status,post_title,post_content,tax_shop_area,meta_fields,post_thumbnail,tax_shop_genre,tax_shop_icon
32838,shop,publish,.RAW,,"東京,関東,赤坂・六本木・麻布","{""name"":"".RAW \uff08\u30c9\u30c3\u30c8\u30ed\u30fc\uff09"",""title"":"""",""zip"":""106-0032"",""addr"":""\u6771\u4eac\u90fd\u6e2f\u533a\u516d\u672c\u6728\uff15\u4e01\u76ee\uff11\uff10\u2212\uff13\uff12 1F"",""acc"":""\u516d\u672c\u6728\u99c5\u304b\u3089\u5f92\u6b69\uff15\u5206"",""tel"":""03-3403-6664\uff08\u4e88\u7d04\u53ef\uff09"",""hp"":""https:\/\/www.facebook.com\/dotraw.asia\/"",""price"":"""",""price_d"":""1,000\u5186\uff5e2,000\u5186"",""price_n"":""2,000\u5186\uff5e3,000\u5186"",""business_h"":""\u5e73\u65e511:00\uff5e20:00 \u571f\u65e511:00\uff5e14:00"",""business_hd"":"""",""business_hn"":"""",""holiday"":""\u4e0d\u5b9a\u4f11"",""seats"":""45\u5e2d"",""credit"":""\u73fe\u91d1\u30fb\u30ab\u30fc\u30c9\u30fb\u96fb\u5b50\u30de\u30cd\u30fc"",""parking"":""\u8fd1\u96a3\u306b\u30b3\u30a4\u30f3\u30d1\u30fc\u30ad\u30f3\u30b0\u6709"",""swipe_num"":""3"",""swipe_imgs"":[""32839"",""32840"",""32841"",""28181""],""desc"":"""",""img_url"":[""https:\/\/vegeness.com\/wp-content\/uploads\/2020\/07\/dell00002305.jpg"",""https:\/\/vegeness.com\/wp-content\/uploads\/2020\/07\/dell00002303.jpg"",""https:\/\/vegeness.com\/wp-content\/uploads\/2020\/07\/dell00002304.jpg"",""https:\/\/vegeness.com\/wp-content\/uploads\/2020\/06\/1560031.jpg""]}",https://vegeness.com/wp-content/uploads/2020/07/dell00002305.jpg,"洋食,カフェ・スイーツ","テイクアウトあり,宅配サービス"
32842,shop,publish,"お招き屋 ディデアン",,"東京,関東,門前仲町・東陽町・木場・葛西","{""name"":""\u304a\u62db\u304d\u5c4b \u30c7\u30a3\u30c7\u30a2\u30f3\uff08Didean\uff09"",""title"":"""",""zip"":""135-0047"",""addr"":""\u6771\u4eac\u90fd\u6c5f\u6771\u533a\u5bcc\u5ca1\uff11\u4e01\u76ee\uff11\uff15\u2212\uff13"",""acc"":""\u6771\u4eac\u30e1\u30c8\u30ed\u6771\u897f\u7dda\u9580\u524d\u4ef2\u753a\u99c5\u4e0b\u8eca\u5f92\u6b692\u5206"",""tel"":""03-3643-7883"",""hp"":""http:\/\/www.omanekiya.com\/"",""price"":"""",""price_d"":""1,000\u5186\uff5e2,000\u5186"",""price_n"":""2,000\u5186\uff5e3,000\u5186"",""business_h"":""(\u5e73\u65e5)11:00\uff5e22:00 (\u571f\u30fb\u65e5\u30fb\u795d)11\uff1a00\uff5e2\uff11\uff1a00 \u4f46\u3057\u6708\u66dc17\u6642\u4ee5\u964d\u304a\u4f11\u307f"",""business_hd"":"""",""business_hn"":"""",""holiday"":""\u306a\u3057"",""seats"":""40\u5e2d"",""credit"":""\u73fe\u91d1"",""parking"":""\u7121\u3057"",""swipe_num"":1,""swipe_imgs"":[""32843""],""desc"":"""",""img_url"":[""https:\/\/vegeness.com\/wp-content\/uploads\/2020\/07\/dell00002306.jpg""]}",https://vegeness.com/wp-content/uploads/2020/07/dell00002306.jpg,アジア・エスニック料理,"veganメニューあり,テイクアウトあり,宅配サービス,オンライン ストアあり"
32844,shop,publish,宗胡,,"東京,関東,赤坂・六本木・麻布","{""name"":""shojin \u5b97\u80e1\uff08\u30b7\u30e7\u30a6\u30b8\u30f3\u30bd\u30a6\u30b4\uff09"",""title"":"""",""zip"":""106-0032"",""addr"":""\u6771\u4eac\u90fd\u6e2f\u533a\u516d\u672c\u6728\uff16\u4e01\u76ee\uff11\u2212\uff18 \u516d\u672c\u6728\u30b0\u30ea\u30fc\u30f3\u30d3\u30eb 3F"",""acc"":""\u5730\u4e0b\u9244\u65e5\u6bd4\u8c37\u7dda \u516d\u672c\u6728\u99c5 3\u756a\u51fa\u53e3 \u5f92\u6b691\u5206"",""tel"":""050-3476-6583\uff08\u4e88\u7d04\u53ef\uff09"",""hp"":""https:\/\/shojinsougo.gorp.jp\/"",""price"":"""",""price_d"":""1,000\u5186\uff5e2,000\u5186"",""price_n"":""8,000\u5186\uff5e9,000\u5186"",""business_h"":""11:30\uff5e23:30"",""business_hd"":""11:30\uff5e17:00 \uff08L.O.15:00\uff09"",""business_hn"":""18:00\uff5e23:30 \uff08L.O.22:00\uff09"",""holiday"":""\u65e5\u66dc\u65e5 \u795d\u65e5"",""seats"":""42\u5e2d"",""credit"":""\u73fe\u91d1\u30fb\u30ab\u30fc\u30c9"",""parking"":""\u8fd1\u96a3\u306b\u30b3\u30a4\u30f3\u30d1\u30fc\u30ad\u30f3\u30b0\u6709"",""swipe_num"":""7"",""swipe_imgs"":[""32846"",""32847"",""32848"",""32845"",""32849"",""32898"",""32899""],""desc"":"""",""img_url"":[""https:\/\/vegeness.com\/wp-content\/uploads\/2020\/07\/dell00002307.jpg"",""https:\/\/vegeness.com\/wp-content\/uploads\/2020\/07\/dell00002308.jpg"",""https:\/\/vegeness.com\/wp-content\/uploads\/2020\/07\/dell00002309.jpg"",""https:\/\/vegeness.com\/wp-content\/uploads\/2020\/07\/dell00002311.jpg"",""https:\/\/vegeness.com\/wp-content\/uploads\/2020\/07\/dell00002310.jpg"",""https:\/\/vegeness.com\/wp-content\/uploads\/2020\/07\/\u5199\u771f-2020-07-03-12-29-05.jpg"",""https:\/\/vegeness.com\/wp-content\/uploads\/2020\/07\/\u5199\u771f-2020-07-03-12-28-43.jpg""]}",https://vegeness.com/wp-content/uploads/2020/07/dell00002307.jpg,和食,"veganメニューあり,テイクアウトあり,宅配サービス"
32850,shop,publish,"Down Town B's",,"東京,関東,赤坂・六本木・麻布","{""name"":""Down Town B's\uff08\u30c0\u30a6\u30f3\u30bf\u30a6\u30f3 \u30d3\u30fc\u30ba\uff09"",""title"":"""",""zip"":""106-0032"",""addr"":""\u6771\u4eac\u90fd\u6e2f\u533a\u516d\u672c\u67283-4-2 \u30b3\u30fc\u30d7\u91ce\u6751\u516d\u672c\u6728 1F"",""acc"":""\u6771\u4eac\u30e1\u30c8\u30ed\u516d\u672c\u6728\u4e00\u4e01\u76ee\u99c5\u304b\u3089\u5f92\u6b69\uff13\u5206"",""tel"":""03-3586-2645\uff08\u4e88\u7d04\u53ef\uff09"",""hp"":""http:\/\/www.downtownbsindiankitchen.com\/"",""price"":"""",""price_d"":""1,000\u5186\uff5e2,000\u5186"",""price_n"":""2,000\u5186\uff5e3,000\u5186"",""business_h"":"""",""business_hd"":""11:00\uff5e15:00"",""business_hn"":""17:00\uff5e23:30\uff08L.O.\uff09"",""holiday"":""\u306a\u3057"",""seats"":""18\u5e2d"",""credit"":""\u73fe\u91d1"",""parking"":""\u8fd1\u96a3\u306b\u30b3\u30a4\u30f3\u30d1\u30fc\u30ad\u30f3\u30b0\u6709"",""swipe_num"":""1"",""swipe_imgs"":[""32851""],""desc"":"""",""img_url"":[""https:\/\/vegeness.com\/wp-content\/uploads\/2020\/07\/dell00002312.jpg""]}",https://vegeness.com/wp-content/uploads/2020/07/dell00002312.jpg,アジア・エスニック料理,"veganメニューあり,ベジタリアンメニューあり,英語メニューあり,テイクアウトあり,宅配サービス"
32852,shop,publish,なぎ食堂,,"東京,関東,渋谷・恵比寿・代官山・中目黒","{""name"":""\u306a\u304e\u98df\u5802"",""title"":"""",""zip"":""150-0032"",""addr"":""\u6771\u4eac\u90fd\u6e0b\u8c37\u533a\u9daf\u8c37\u753a15-10\u3000\u30ed\u30a4\u30e4\u30eb\u30d1\u30ec\u30b9\u6e0b\u8c37103\u53f7"",""acc"":""\u6e0b\u8c37\u99c5\u304b\u3089\u5f92\u6b69\uff16\u5206"",""tel"":""03-3461-3280"",""hp"":""https:\/\/twitter.com\/nagishokudo"",""price"":"""",""price_d"":""1,000\u5186\uff5e2,000\u5186"",""price_n"":""1,000\u5186\uff5e2,000\u5186"",""business_h"":"""",""business_hd"":""12:00\uff5e16:00(L.O.15:00)"",""business_hn"":""18:00\uff5e23:00(L.O.22:00)\u203b\u65e5\u66dc\u306f\u304a\u4f11\u307f"",""holiday"":""\u4e0d\u5b9a\u4f11"",""seats"":""20\u5e2d"",""credit"":""\u73fe\u91d1"",""parking"":""\u7121\u3057"",""swipe_num"":""3"",""swipe_imgs"":[""32854"",""32855"",""32853""],""desc"":"""",""img_url"":[""https:\/\/vegeness.com\/wp-content\/uploads\/2020\/07\/dell00002313.jpg"",""https:\/\/vegeness.com\/wp-content\/uploads\/2020\/07\/dell00002314.jpg"",""https:\/\/vegeness.com\/wp-content\/uploads\/2020\/07\/dell00002315.jpg""]}",https://vegeness.com/wp-content/uploads/2020/07/dell00002313.jpg,和食,"100%Veganのお店,英語メニューあり,テイクアウトあり,宅配サービス"
32856,shop,publish,"なぎ食堂 試聴室前",,"東京,関東,神田・秋葉原・御茶ノ水","{""name"":""\u306a\u304e\u98df\u5802 \u8a66\u8074\u5ba4\u524d"",""title"":"""",""zip"":""101-0065"",""addr"":""\u6771\u4eac\u90fd\u5343\u4ee3\u7530\u533a\u897f\u795e\u75303-8-5 \u8a66\u8074\u5ba4\u5e97\u524d"",""acc"":""\u4e5d\u6bb5\u4e0b\u99c5\u304b\u3089\u5f92\u6b695\u5206"",""tel"":""03-6412-8319"",""hp"":""https:\/\/twitter.com\/nagishokudo"",""price"":""\uff5e1,000\u5186"",""price_d"":"""",""price_n"":"""",""business_h"":""11:30\uff5e14:00(\u58f2\u308a\u5207\u308c\u6b21\u7b2c\u7d42\u4e86)"",""business_hd"":"""",""business_hn"":"""",""holiday"":""\u571f\u66dc\u3001\u65e5\u66dc"",""seats"":""\u30c6\u30a4\u30af\u30a2\u30a6\u30c8\u5c02\u9580"",""credit"":""\u73fe\u91d1"",""parking"":""\u7121\u3057"",""swipe_num"":""1"",""swipe_imgs"":[""32857""],""desc"":"""",""img_url"":[""https:\/\/vegeness.com\/wp-content\/uploads\/2020\/07\/dell00002316.jpg""]}",https://vegeness.com/wp-content/uploads/2020/07/dell00002316.jpg,和食,"100%Veganのお店,英語メニューあり,テイクアウトあり"
32858,shop,publish,"Great Lakes Tokyo",,"東京,関東,池袋・高田馬場・早稲田","{""name"":""Great Lakes Tokyo\uff08\u30b0\u30ec\u30fc\u30c8 \u30ec\u30a4\u30af\u30b9\u30c8\u30fc\u30ad\u30e7\u30fc\uff09"",""title"":"""",""zip"":""169-0051"",""addr"":""\u6771\u4eac\u90fd\u65b0\u5bbf\u533a\u897f\u65e9\u7a32\u75303-27-4 \u7b2c\u4e00\u30ad\u30e3\u30e9\u30c3\u30c8\u6cb3\u8135\u30d3\u30eb 1F"",""acc"":""\u9762\u5f71\u6a4b\u99c5\u304b\u3089\u5f92\u6b694\u5206"",""tel"":""03-6278-9286"",""hp"":""https:\/\/www.facebook.com\/greatlakestokyo"",""price"":""1,000\u5186\uff5e2,000\u5186"",""price_d"":"""",""price_n"":"""",""business_h"":""11:00\uff5e23:00"",""business_hd"":"""",""business_hn"":"""",""holiday"":""\u6708\u66dc\u65e5"",""seats"":""15\u5e2d"",""credit"":""\u73fe\u91d1\u30fb\u30ab\u30fc\u30c9"",""parking"":""\u8fd1\u96a3\u306b\u30b3\u30a4\u30f3\u30d1\u30fc\u30ad\u30f3\u30b0\u6709"",""swipe_num"":""4"",""swipe_imgs"":[""32859"",""32860"",""32861"",""32862""],""desc"":"""",""img_url"":[""https:\/\/vegeness.com\/wp-content\/uploads\/2020\/07\/dell00002319.jpg"",""https:\/\/vegeness.com\/wp-content\/uploads\/2020\/07\/dell00002317.jpg"",""https:\/\/vegeness.com\/wp-content\/uploads\/2020\/07\/dell00002318.jpg"",""https:\/\/vegeness.com\/wp-content\/uploads\/2020\/07\/dell00002320.jpg""]}",https://vegeness.com/wp-content/uploads/2020/07/dell00002319.jpg,洋食,"veganメニューあり,英語メニューあり,テイクアウトあり"
32863,shop,publish,"CORI. （コリ）",,"東京,関東,駒沢大学・三軒茶屋・池尻大橋","{""name"":""CORI. \uff08\u30b3\u30ea\uff09"",""title"":"""",""zip"":""154-0011"",""addr"":""\u6771\u4eac\u90fd\u4e16\u7530\u8c37\u533a\u4e0a\u99ac\uff14\u4e01\u76ee\uff12\u2212\uff12\uff10 \u53f0\u5357\u62c5\u4ed4\u9eba\u30d3\u30eb"",""acc"":""\u6771\u6025\u7530\u5712\u90fd\u5e02\u7dda\u99d2\u6ca2\u5927\u5b66\u99c5\u304b\u3089\u5f92\u6b692\u5206"",""tel"":""03-6450-7556"",""hp"":""https:\/\/www.cori-vege.com\/"",""price"":""1,000\u5186\uff5e2,000\u5186"",""price_d"":"""",""price_n"":"""",""business_h"":""\u706b\u66dc\u65e5 18:00\uff5e22:00\u3001\u6c34\u301c\u91d1\u66dc\u65e5 12:00\uff5e15:00\uff0f18:00\uff5e22:00\u3001\u571f\u66dc\u65e512:00\uff5e22:00"",""business_hd"":""12:00-15:00"",""business_hn"":""17:00-22:00"",""holiday"":""\u6708\u66dc"",""seats"":""20\u5e2d"",""credit"":""\u73fe\u91d1\u30fb\u30ab\u30fc\u30c9"",""parking"":""\u8fd1\u96a3\u306b\u30b3\u30a4\u30f3\u30d1\u30fc\u30ad\u30f3\u30b0\u6709"",""swipe_num"":""5"",""swipe_imgs"":[""32865"",""32866"",""32867"",""32868"",""32864""],""desc"":"""",""img_url"":[""https:\/\/vegeness.com\/wp-content\/uploads\/2020\/07\/dell00002321.jpg"",""https:\/\/vegeness.com\/wp-content\/uploads\/2020\/07\/dell00002322.jpg"",""https:\/\/vegeness.com\/wp-content\/uploads\/2020\/07\/dell00002323.jpg"",""https:\/\/vegeness.com\/wp-content\/uploads\/2020\/07\/dell00002324.jpg"",""https:\/\/vegeness.com\/wp-content\/uploads\/2020\/07\/dell00002325.jpg""]}",https://vegeness.com/wp-content/uploads/2020/07/dell00002321.jpg,"洋食,カフェ・スイーツ","100%Veganのお店,テイクアウトあり,宅配サービス"
32869,shop,publish,"薬膳食堂ちゃぶ膳 下北沢店",,"東京,関東,下北沢・代々木上原","{""name"":""\u85ac\u81b3\u98df\u5802\u3061\u3083\u3076\u81b3 \u4e0b\u5317\u6ca2\u5e97 \uff08\u30e4\u30af\u30bc\u30f3\u30b7\u30e7\u30af\u30c9\u30a6\u30c1\u30e3\u30d6\u30bc\u30f3\uff09"",""title"":"""",""zip"":""155-0033"",""addr"":""\u6771\u4eac\u90fd\u4e16\u7530\u8c37\u533a\u4ee3\u75306-16-20"",""acc"":""\u4eac\u738b\u4e95\u306e\u982d\u7dda\u30fb\u5c0f\u7530\u6025\u7dda\u4e0b\u5317\u6ca2\u99c5\u897f\u53e3 \u5f92\u6b698\u5206"",""tel"":""080-6603-8587(\u4e88\u7d04\u4e0d\u53ef)"",""hp"":""https:\/\/food-therapy-diner-chabuzen.business.site\/"",""price"":"""",""price_d"":""1,000\u5186\uff5e2,000\u5186"",""price_n"":""1,000\u5186\uff5e2,000\u5186"",""business_h"":"""",""business_hd"":""12:00\uff5e15:00"",""business_hn"":""17:00\uff5e23:00"",""holiday"":""\u706b\u66dc\u65e5"",""seats"":""8\u5e2d"",""credit"":""\u73fe\u91d1"",""parking"":""\u8fd1\u96a3\u306b\u30b3\u30a4\u30f3\u30d1\u30fc\u30ad\u30f3\u30b0\u6709"",""swipe_num"":""1"",""swipe_imgs"":[""32870""],""desc"":"""",""img_url"":[""https:\/\/vegeness.com\/wp-content\/uploads\/2020\/07\/dell00002326.jpg""]}",https://vegeness.com/wp-content/uploads/2020/07/dell00002326.jpg,"アジア・エスニック料理,ラーメン","veganメニューあり,ベジタリアンメニューあり,グルテンフリーメニューあり,英語メニューあり,テイクアウトあり"
32871,shop,publish,"Spize kitchen Moona","ランチにveg.定食あり　1,100円","東京,関東,下北沢・代々木上原","{""name"":""Spize kitchen Moona \uff08\u30b9\u30d1\u30a4\u30b9\u30ad\u30c3\u30c1\u30f3\u30e0\u30fc\u30ca\uff09"",""title"":"""",""zip"":""155-0031"",""addr"":""\u6771\u4eac\u90fd\u4e16\u7530\u8c37\u533a\u5317\u6ca2\uff12\u4e01\u76ee\uff11\uff12\u2212\uff11\uff13"",""acc"":""\u4e0b\u5317\u6ca2\u99c5\u5357\u53e3\u3088\u308a\u5f92\u6b691\u5206"",""tel"":""03-3411-0607\uff08\u4e88\u7d04\u53ef\uff09"",""hp"":""http:\/\/www.moona.jp\/"",""price"":"""",""price_d"":""1,000\u5186\uff5e2,000\u5186"",""price_n"":""2,000\u5186\uff5e3,000\u5186"",""business_h"":"""",""business_hd"":""[\u706b\uff5e\u91d1] 11:30\uff5e15:00(L.O.14:30) [\u571f\u30fb\u65e5\u30fb\u795d] 12:00\uff5e16:00(L.O.15:30)"",""business_hn"":""18:00\uff5e23:00(L.O.22:00)"",""holiday"":""\u6708\u66dc"",""seats"":""21\u5e2d"",""credit"":""\u73fe\u91d1"",""parking"":""\u8fd1\u96a3\u306b\u30b3\u30a4\u30f3\u30d1\u30fc\u30ad\u30f3\u30b0\u6709"",""swipe_num"":1,""swipe_imgs"":[""28181""],""desc"":"""",""img_url"":[""https:\/\/vegeness.com\/wp-content\/uploads\/2020\/06\/1560031.jpg""]}",,アジア・エスニック料理,"veganメニューあり,ベジタリアンメニューあり"
32872,shop,publish,"菜食健美 東京大久保店",,"東京,関東,新宿・代々木・大久保","{""name"":""\u7cbe\u9032\u6599\u7406 \u83dc\u98df\u5065\u7f8e\u3000\u6771\u4eac\u5e97\uff08\u3055\u3044\u3057\u3087\u304f\u3051\u3093\u3073\uff09"",""title"":"""",""zip"":""169-0073"",""addr"":""\u6771\u4eac\u90fd\u65b0\u5bbf\u533a\u767e\u4eba\u753a\uff12\u4e01\u76ee\uff12\uff11\u2212\uff12\uff16"",""acc"":""JR\u7dcf\u6b66\u7dda \u5927\u4e45\u4fdd\u99c5\u5317\u53e3\u3088\u308a\u5f92\u6b693\u5206"",""tel"":""03-5332-3627"",""hp"":""http:\/\/daisho-kikaku.com\/"",""price"":"""",""price_d"":""\uff5e1,000\u5186"",""price_n"":""3,000\u5186\uff5e4,000\u5186"",""business_h"":"""",""business_hd"":""11:00\u301c15:00(L.O.14:30)"",""business_hn"":""18:00\u301c21:00\uff08\u4e88\u7d04\u5236\uff09"",""holiday"":""\u706b\u66dc\u65e5"",""seats"":"""",""credit"":"""",""parking"":""\u6709(3\u53f0)"",""swipe_num"":""2"",""swipe_imgs"":[""32873"",""32874""],""desc"":"""",""img_url"":[""https:\/\/vegeness.com\/wp-content\/uploads\/2020\/07\/dell00002329.jpg"",""https:\/\/vegeness.com\/wp-content\/uploads\/2020\/07\/dell00002328.jpg""]}",https://vegeness.com/wp-content/uploads/2020/07/dell00002329.jpg,和食,"veganメニューあり,ベジタリアンメニューあり,テイクアウトあり,オンライン ストアあり"
32875,shop,publish,"Fluunt KOFU（フルウント甲府）",,"山梨,甲府市,甲信越・北陸","{""name"":""Fluunt KOFU\uff08\u30d5\u30eb\u30a6\u30f3\u30c8\u7532\u5e9c\uff09"",""title"":"""",""zip"":""400-0032"",""addr"":""\u5c71\u68a8\u770c\u7532\u5e9c\u5e02\u4e2d\u592e\uff11\u4e01\u76ee\uff11\u2212\uff17"",""acc"":""\u7532\u5e9c\u99c5\u3088\u308a\u5f92\u6b6915\u5206"",""tel"":""055-232-7789\uff08\u4e88\u7d04\u53ef\uff09"",""hp"":""https:\/\/www.fluunt.net\/"",""price"":"""",""price_d"":""1,000\u5186\uff5e2,000\u5186"",""price_n"":""2,000\u5186\uff5e3,000\u5186"",""business_h"":""11:00\uff5e21:00\u3000\u65e5\u66dc\u306f16:00\u307e\u3067"",""business_hd"":"""",""business_hn"":""17:00\uff5e21:00(L.O20:15)"",""holiday"":""\u6708\u66dc\u30fb\u706b\u66dc"",""seats"":""30\u5e2d"",""credit"":""\u73fe\u91d1\u30fb\u30ab\u30fc\u30c9\u30fb\u96fb\u5b50\u30de\u30cd\u30fc"",""parking"":""\u7121\u3057"",""swipe_num"":""3"",""swipe_imgs"":[""32877"",""32878"",""32876""],""desc"":"""",""img_url"":[""https:\/\/vegeness.com\/wp-content\/uploads\/2020\/07\/dell00002330.jpg"",""https:\/\/vegeness.com\/wp-content\/uploads\/2020\/07\/dell00002331.jpg"",""https:\/\/vegeness.com\/wp-content\/uploads\/2020\/07\/dell00002332.jpg""]}",https://vegeness.com/wp-content/uploads/2020/07/dell00002330.jpg,カフェ・スイーツ,"100%Veganのお店,英語メニューあり,テイクアウトあり,宅配サービス,料理教室あり"
32879,shop,publish,ビーガンマサラ食堂べじ屋,,"山梨,甲信越・北陸","{""name"":""\u30d3\u30fc\u30ac\u30f3\u30de\u30b5\u30e9\u98df\u5802\u3079\u3058\u5c4b\uff08vegan masala restaurant\u30d9\u30b8\u30e4\uff09"",""title"":"""",""zip"":""406-0022"",""addr"":""\u5c71\u68a8\u770c\u5357\u5de8\u6469\u90e1\u5bcc\u58eb\u5ddd\u753a\u9752\u67f3\u753a1276-1"",""acc"":""\u77f3\u548c\u6e29\u6cc9\u99c5\u304b\u3089\u5f92\u6b698\u5206"",""tel"":""055-263-4888\uff08\u4e88\u7d04\u53ef\uff09"",""hp"":""https:\/\/veggieyaknot.wordpress.com\/"",""price"":""1,000\u5186\uff5e2,000\u5186"",""price_d"":"""",""price_n"":"""",""business_h"":""12:00\uff5e17:00"",""business_hd"":"""",""business_hn"":"""",""holiday"":""\u6708\u66dc\u65e5\u3001\u706b\u66dc\u65e5\u3001\u6c34\u66dc\u65e5+\u4e0d\u5b9a\u4f11"",""seats"":"""",""credit"":""\u73fe\u91d1"",""parking"":""\u6709"",""swipe_num"":1,""swipe_imgs"":[""28181""],""desc"":"""",""img_url"":[""https:\/\/vegeness.com\/wp-content\/uploads\/2020\/06\/1560031.jpg""]}",,"アジア・エスニック料理,カフェ・スイーツ","100%Veganのお店,英語メニューあり,テイクアウトあり"
32880,shop,publish,おちゃのじかん,,,"{""name"":""\u304a\u3061\u3083\u306e\u3058\u304b\u3093"",""title"":"""",""zip"":""407-0263"",""addr"":""\u5c71\u68a8\u770c\u97ee\u5d0e\u5e02\u7a74\u5c71\u753a\uff17\uff10\uff16\uff13\u2212\uff11"",""acc"":""\u7a74\u5c71\u99c5\u304b\u3089\u5f92\u6b69\uff12\u5206"",""tel"":""0551-25-2321"",""hp"":""https:\/\/www.facebook.com\/ocyanojikan\/"",""price"":"""",""price_d"":""1,000\u5186\uff5e2,000\u5186"",""price_n"":"""",""business_h"":""[\u6708\u30fb\u706b\u30fb\u91d1] 11:00\uff5e18:00 [\u571f\u30fb\u65e5] 9:30\uff5e18:00"",""business_hd"":"""",""business_hn"":"""",""holiday"":""\u6c34\u66dc\u30fb\u6728\u66dc"",""seats"":"""",""credit"":""\u73fe\u91d1"",""parking"":""\u6709"",""swipe_num"":""2"",""swipe_imgs"":[""32882"",""32881""],""desc"":"""",""img_url"":[""https:\/\/vegeness.com\/wp-content\/uploads\/2020\/07\/dell00002333.jpg"",""https:\/\/vegeness.com\/wp-content\/uploads\/2020\/07\/dell00002335.jpg""]}",https://vegeness.com/wp-content/uploads/2020/07/dell00002333.jpg,"カフェ・スイーツ,ベーカリー","veganメニューあり,テイクアウトあり"
32883,shop,publish,"cafe くじらぐも",,"山梨,甲信越・北陸,北杜市","{""name"":""cafe \u304f\u3058\u3089\u3050\u3082"",""title"":"""",""zip"":""408-0204"",""addr"":""\u5c71\u68a8\u770c\u5317\u675c\u5e02\u660e\u91ce\u753a\u4e0a\u624b\uff13\uff11\uff14\uff14"",""acc"":""\u7a74\u5c71\u99c5\u304b\u3089\u8eca\u30676\u5206"",""tel"":""0551-25-4053"",""hp"":""https:\/\/ameblo.jp\/yasurinpime\/"",""price"":"""",""price_d"":""1,000\u5186\uff5e2,000\u5186"",""price_n"":"""",""business_h"":""11:00\uff5e18:00"",""business_hd"":"""",""business_hn"":"""",""holiday"":""[4\u6708\uff5e11\u6708] \u6c34\u30fb\u6728\u66dc\u65e5\u3000[12\uff5e3\u6708] \u706b\u30fb\u6c34\u30fb\u6728\u66dc\u65e5"",""seats"":""20\u5e2d"",""credit"":""\u73fe\u91d1"",""parking"":""\u6709"",""swipe_num"":1,""swipe_imgs"":[""28181""],""desc"":"""",""img_url"":[""https:\/\/vegeness.com\/wp-content\/uploads\/2020\/06\/1560031.jpg""]}",,カフェ・スイーツ,vegan対応可
32884,shop,publish,キッチンオハナ,,"山梨,甲信越・北陸,北杜市","{""name"":""Kitchen Ohana\uff08\u30ad\u30c3\u30c1\u30f3\u30aa\u30cf\u30ca\uff09"",""title"":"""",""zip"":""408-0018"",""addr"":""\u5c71\u68a8\u770c\u5317\u675c\u5e02\u9ad8\u6839\u753a\u6751\u5c71\u897f\u5272 1140"",""acc"":""\u9577\u5742\u99c5\u304b\u3089\u8eca\u306710\u5206"",""tel"":""0551-46-2177\uff08\u4e88\u7d04\u53ef\uff09"",""hp"":""http:\/\/www.k-ohana.biz\/"",""price"":""1,000\u5186\uff5e2,000\u5186"",""price_d"":"""",""price_n"":"""",""business_h"":""11:30-17:00"",""business_hd"":"""",""business_hn"":"""",""holiday"":""\u65e5\u66dc\u65e5\u30fb\u6708\u66dc\u65e5\u30fb\u4ed6 \u4e0d\u5b9a\u4f11"",""seats"":""33\u5e2d"",""credit"":""\u73fe\u91d1"",""parking"":""\u6709(7\u53f0)"",""swipe_num"":""3"",""swipe_imgs"":[""32886"",""32887"",""32885""],""desc"":"""",""img_url"":[""https:\/\/vegeness.com\/wp-content\/uploads\/2020\/07\/dell00002337.jpg"",""https:\/\/vegeness.com\/wp-content\/uploads\/2020\/07\/dell00002338.jpg"",""https:\/\/vegeness.com\/wp-content\/uploads\/2020\/07\/dell00002339.jpg""]}",https://vegeness.com/wp-content/uploads/2020/07/dell00002337.jpg,"和食,カフェ・スイーツ",100%Veganのお店
32888,shop,publish,"奏樹 Cafe & Dining",,"山梨,甲信越・北陸,北杜市","{""name"":""\u594f\u6a39 Cafe & Dining\uff08\u30bd\u30a6\u30b8\u30e5\uff09"",""title"":"""",""zip"":""408-0044"",""addr"":""\u5c71\u68a8\u770c\u5317\u675c\u5e02\u5c0f\u6df5\u6ca2\u753a\uff11\uff15\uff17\uff18 \u30bb\u30f3\u30c8\u30e9\u30eb\u30ac\u30fc\u30c7\u30f3\u5185 \u5973\u795e\u306e\u68ee"",""acc"":""\u5c0f\u6df5\u6ca2\u99c5\u304b\u3089\u8eca\u30675\u5206"",""tel"":""0551-36-5002"",""hp"":"""",""price"":"""",""price_d"":""2,000\u5186\uff5e3,000\u5186"",""price_n"":"""",""business_h"":""11:30\uff5e16:00\uff08\u30e9\u30f3\u30c1L.O. 14:00 \uff0f\u30ab\u30d5\u30a7L.O. 15:00\uff09"",""business_hd"":"""",""business_hn"":"""",""holiday"":""\u6c34\u66dc\u65e5"",""seats"":"""",""credit"":""\u73fe\u91d1\u30fb\u30ab\u30fc\u30c9"",""parking"":""\u6709"",""swipe_num"":1,""swipe_imgs"":[""32889""],""desc"":"""",""img_url"":[""https:\/\/vegeness.com\/wp-content\/uploads\/2020\/07\/dell00002340.jpg""]}",https://vegeness.com/wp-content/uploads/2020/07/dell00002340.jpg,"洋食,カフェ・スイーツ","veganメニューあり,ベジタリアンメニューあり"
32890,shop,publish,"山のパン屋 桑の実",,"山梨,甲信越・北陸,北杜市","{""name"":""\u5c71\u306e\u30d1\u30f3\u5c4b \u6851\u306e\u5b9f"",""title"":"""",""zip"":""408-0044"",""addr"":""\u5c71\u68a8\u770c\u5317\u675c\u5e02\u5c0f\u6df5\u6ca2\u753a\uff12\uff19\uff16\uff18\u2212\uff11"",""acc"":""\u5c0f\u6df5\u6ca2\uff29\uff23\u3088\u308a\u8eca\u3067\uff12\u5206"",""tel"":""0551-36-5227"",""hp"":""https:\/\/kuwa.ocnk.net\/"",""price"":""\uff5e1,000\u5186"",""price_d"":"""",""price_n"":"""",""business_h"":""[5\u6708\uff5e9\u6708] 7:00\uff5e18:00 [10\u6708\uff5e4\u6708] 8:00\uff5e17:00"",""business_hd"":"""",""business_hn"":"""",""holiday"":""\u306a\u3057"",""seats"":""2\u5e2d"",""credit"":""\u73fe\u91d1\u30fb\u30ab\u30fc\u30c9"",""parking"":""\u6709"",""swipe_num"":1,""swipe_imgs"":[""32892"",""32893"",""32891""],""desc"":"""",""img_url"":[""https:\/\/vegeness.com\/wp-content\/uploads\/2020\/07\/dell00002341.jpg"",""https:\/\/vegeness.com\/wp-content\/uploads\/2020\/07\/dell00002342.jpg"",""https:\/\/vegeness.com\/wp-content\/uploads\/2020\/07\/dell00002343.jpg""]}",https://vegeness.com/wp-content/uploads/2020/07/dell00002342.jpg,ベーカリー,"veganメニューあり,ベジタリアンメニューあり,テイクアウトあり"
32894,shop,publish,"cafe pianissimo",,"山梨,甲信越・北陸,北杜市","{""name"":""cafe pianissimo\uff08\u30ab\u30d5\u30a7\u30d4\u30a2\u30cb\u30c3\u30b7\u30e2\uff09"",""title"":"""",""zip"":""408-0033"",""addr"":""\u5c71\u68a8\u770c\u5317\u675c\u5e02\u9577\u5742\u753a\u767d\u4e95\u6ca24050-2"",""acc"":""\u9577\u5742IC\u304b\u3089\u8eca\u3067\u7d0410\u5206"",""tel"":""0551-32-7762"",""hp"":""http:\/\/kokopelli.pya.jp\/"",""price"":""1,000\u5186\uff5e2,000\u5186"",""price_d"":"""",""price_n"":"""",""business_h"":""10:00\uff5e16:30"",""business_hd"":""11:30\uff5e14:00"",""business_hn"":"""",""holiday"":""\u706b\u66dc\u30fb\u6c34\u66dc"",""seats"":""20\u5e2d"",""credit"":"""",""parking"":""\u6709"",""swipe_num"":""3"",""swipe_imgs"":[""32896"",""32897"",""32895""],""desc"":"""",""img_url"":[""https:\/\/vegeness.com\/wp-content\/uploads\/2020\/07\/dell00002344.jpg"",""https:\/\/vegeness.com\/wp-content\/uploads\/2020\/07\/dell00002346.jpg"",""https:\/\/vegeness.com\/wp-content\/uploads\/2020\/07\/dell00002347.jpg""]}",https://vegeness.com/wp-content/uploads/2020/07/dell00002344.jpg,"和食,カフェ・スイーツ","veganメニューあり,テイクアウトあり"
32912,shop,publish,"Modernark pharm cafe",,"三宮・元町・ハーバーランド,兵庫,関西","{""name"":""Modernark pharm cafe\uff08\u30e2\u30c0\u30ca\u30fc\u30af\u30d5\u30a1\u30fc\u30e0\u30ab\u30d5\u30a7 \uff09"",""title"":"""",""zip"":""650-0012"",""addr"":""\u5175\u5eab\u770c\u795e\u6238\u5e02\u4e2d\u592e\u533a\u5317\u9577\u72ed\u901a3-11-15"",""acc"":""JR,\u962a\u795e\u5143\u753a\u99c5\u3088\u308a\u5f92\u6b69\uff17\u5206"",""tel"":""078-391-3060"",""hp"":""http:\/\/modernark-cafe.chronicle.co.jp\/"",""price"":"""",""price_d"":""1,000\u5186\uff5e2,000\u5186"",""price_n"":""1,000\u5186\uff5e2,000\u5186"",""business_h"":""11:30\uff5e22:00(L.O. 21:00) \u4f46\u3057\u571f\u65e5\u795d\u306f11:30\uff5e16:00(L.O. 15:00)"",""business_hd"":"""",""business_hn"":"""",""holiday"":""\u306a\u3057"",""seats"":""30\u5e2d"",""credit"":""\u73fe\u91d1"",""parking"":""\u7121\u3057"",""swipe_num"":""4"",""swipe_imgs"":[""32920"",""32923"",""32922"",""32921""],""desc"":"""",""img_url"":[""https:\/\/vegeness.com\/wp-content\/uploads\/2020\/07\/dell00002357.jpg"",""https:\/\/vegeness.com\/wp-content\/uploads\/2020\/07\/dell00002356.jpg"",""https:\/\/vegeness.com\/wp-content\/uploads\/2020\/07\/dell00002355.jpg"",""https:\/\/vegeness.com\/wp-content\/uploads\/2020\/07\/dell00002354.jpg""]}",https://vegeness.com/wp-content/uploads/2020/07/dell00002357.jpg,カフェ・スイーツ,"veganメニューあり,ベジタリアンメニューあり,テイクアウトあり"
32913,shop,publish,"Vegan cafe Thallo",,"三宮・元町・ハーバーランド,兵庫,関西","{""name"":""Vegan cafe Thallo\uff08\u30d3\u30fc\u30ac\u30f3\u30ab\u30d5\u30a7 \u30bf\u30ed\uff09"",""title"":"""",""zip"":""650-0012"",""addr"":""\u5175\u5eab\u770c\u795e\u6238\u5e02\u4e2d\u592e\u533a\u5317\u9577\u72ed\u901a\uff14\u4e01\u76ee\uff17\u2212\uff11\uff12 \u30aa\u30fc\u30b7\u30e3\u30f3\u30ba\u30b3\u30fc\u30c8 1F"",""acc"":""\uff2a\uff32\u5143\u753a\u99c5\u304b\u3089\u5f92\u6b69\uff11\u5206"",""tel"":""078-599-9652"",""hp"":""http:\/\/thallo.jp\/"",""price"":"""",""price_d"":""1,000\u5186\uff5e2,000\u5186"",""price_n"":"""",""business_h"":""11:30\uff5e18:00"",""business_hd"":"""",""business_hn"":"""",""holiday"":""\u6c34\u66dc\u65e5"",""seats"":""22\u5e2d"",""credit"":""\u73fe\u91d1\u30fb\u30ab\u30fc\u30c9"",""parking"":""\u7121\u3057"",""swipe_num"":""3"",""swipe_imgs"":[""32919"",""32917"",""32918""],""desc"":"""",""img_url"":[""https:\/\/vegeness.com\/wp-content\/uploads\/2020\/07\/dell00002352.jpg"",""https:\/\/vegeness.com\/wp-content\/uploads\/2020\/07\/dell00002353.jpg"",""https:\/\/vegeness.com\/wp-content\/uploads\/2020\/07\/dell00002351.jpg""]}",https://vegeness.com/wp-content/uploads/2020/07/dell00002352.jpg,カフェ・スイーツ,"100%Veganのお店,グルテンフリーメニューあり,テイクアウトあり"
32914,shop,publish,インダスレイ,,"三宮・元町・ハーバーランド,兵庫,関西","{""name"":""\u5357\u30a4\u30f3\u30c9\u5bb6\u5ead\u6599\u7406 IndusRay\uff08\u30a4\u30f3\u30c0\u30b9\u30ec\u30a4\uff09"",""title"":"""",""zip"":""650-0022"",""addr"":""\u5175\u5eab\u770c\u795e\u6238\u5e02\u4e2d\u592e\u533a\u5143\u753a\u901a3\u4e01\u76ee11-10 \u30e1\u30ea\u30c3\u30c8\u30d3\u30eb 1F"",""acc"":""\u795e\u6238\u5e02\u55b6\u5730\u4e0b\u9244\u300c\u307f\u306a\u3068\u5143\u753a\u300d\u99c5\u304b\u3089\u5f92\u6b693\u5206"",""tel"":""078-332-1660\uff08\u4e88\u7d04\u53ef\uff09"",""hp"":""https:\/\/www.indus-ray.net\/"",""price"":"""",""price_d"":""1,000\u5186\uff5e2,000\u5186"",""price_n"":""1,000\u5186\uff5e2,000\u5186"",""business_h"":""11:00\uff5e21:00 \u4f46\u3057\u6c34\u66dc\u30fb\u65e5\u66dc\u306f11:00\uff5e17:00"",""business_hd"":""11:00\uff5e15:00"",""business_hn"":""17:00\uff5e21:00"",""holiday"":""\u7121\u3057"",""seats"":""15\u5e2d"",""credit"":""\u73fe\u91d1"",""parking"":""\u7121\u3057"",""swipe_num"":""2"",""swipe_imgs"":[""32915"",""32916""],""desc"":"""",""img_url"":[""https:\/\/vegeness.com\/wp-content\/uploads\/2020\/07\/dell00002350.jpg"",""https:\/\/vegeness.com\/wp-content\/uploads\/2020\/07\/dell00002348.jpg""]}",https://vegeness.com/wp-content/uploads/2020/07/dell00002350.jpg,,
32925,shop,publish,インドレストランShama,,"大阪,関西,心斎橋・なんば・堀江","{""name"":""\u30a4\u30f3\u30c9\u30ec\u30b9\u30c8\u30e9\u30f3Shama\uff08\u30b7\u30e3\u30fc\u30de\uff09"",""title"":"""",""zip"":""550-0014"",""addr"":""\u5927\u962a\u5e9c\u5927\u962a\u5e02\u897f\u533a\u5317\u5800\u6c5f\uff11\u4e01\u76ee\uff13\u2212\uff17 \u5009\u5546\u30d3\u30eb"",""acc"":""\u56db\u30c4\u6a4b\u99c5\u304b\u3089\u5f92\u6b69\uff12\u5206"",""tel"":""06-6536-6669"",""hp"":""https:\/\/indoshama.jimdofree.com\/"",""price"":"""",""price_d"":""1,000\u5186\uff5e2,000\u5186"",""price_n"":""2,000\u5186\uff5e3,000\u5186"",""business_h"":"""",""business_hd"":""11:00\uff5e15:00"",""business_hn"":""17:00\uff5e21:30"",""holiday"":""\u795d\u65e5\u3092\u9664\u304f\u6708\u66dc\u65e5"",""seats"":""24\u5e2d"",""credit"":""\u73fe\u91d1\u30fb\u30ab\u30fc\u30c9"",""parking"":""\u7121\u3057"",""swipe_num"":""3"",""swipe_imgs"":[""32927"",""32928"",""32926""],""desc"":"""",""img_url"":[""https:\/\/vegeness.com\/wp-content\/uploads\/2020\/07\/dell00002360.jpg"",""https:\/\/vegeness.com\/wp-content\/uploads\/2020\/07\/dell00002361.jpg"",""https:\/\/vegeness.com\/wp-content\/uploads\/2020\/07\/dell00002362.jpg""]}",https://vegeness.com/wp-content/uploads/2020/07/dell00002360.jpg,アジア・エスニック料理,"veganメニューあり,ベジタリアンメニューあり,英語メニューあり,テイクアウトあり"
32929,shop,publish,"Base Island kitchen",,"大阪,関西,心斎橋・なんば・堀江","{""name"":""Base Island kitchen\uff08\u30d9\u30fc\u30b9\u30a2\u30a4\u30e9\u30f3\u30c9\u30ad\u30c3\u30c1\u30f3\uff09 & \u713c\u304d\u83d3\u5b50\u5de5\u623f \u30b8\u30e3\u30de\u30a4\u30ab\u98df\u5802"",""title"":"""",""zip"":""550-0014"",""addr"":""\u5927\u962a\u5e9c\u5927\u962a\u5e02\u897f\u533a\u5317\u5800\u6c5f\uff11\u4e01\u76ee\uff11\uff16\u2212\uff12\uff17"",""acc"":""\u5730\u4e0b\u9244\u56db\u3064\u6a4b\u7dda \u56db\u30c4\u6a4b\u99c5 3\u756a\u51fa\u53e3 \u5f92\u6b69 4\u5206"",""tel"":""080-7013-5231"",""hp"":""https:\/\/www.facebook.com\/baseislandkitchen\/?ref=page_internal"",""price"":"""",""price_d"":""1,000\u5186\uff5e2,000\u5186"",""price_n"":"""",""business_h"":""11\u664200\u5206\uff5e17\u664200\u5206\u3000\u203b\u30b3\u30ed\u30ca\u30a6\u30a4\u30eb\u30b9\u306e\u5f71\u97ff\u3067\u77ed\u7e2e\u55b6\u696d\u306e\u53ef\u80fd\u6027\u3042\u308a"",""business_hd"":"""",""business_hn"":"""",""holiday"":""\u706b\u66dc\u65e5"",""seats"":"""",""credit"":""\u73fe\u91d1"",""parking"":""\u7121\u3057"",""swipe_num"":1,""swipe_imgs"":[""28181""],""desc"":"""",""img_url"":[""https:\/\/vegeness.com\/wp-content\/uploads\/2020\/06\/1560031.jpg""]}",,カフェ・スイーツ,"veganメニューあり,グルテンフリーメニューあり,テイクアウトあり"
32930,shop,publish,"FALAFEL SABABA",,,"{""name"":""FALAFEL SABABA\uff08\u30d5\u30a1\u30e9\u30d5\u30a7\u30eb \u30b5\u30d0\u30d0\uff09"",""title"":"""",""zip"":""542-0086"",""addr"":""\u5927\u962a\u5e9c\u5927\u962a\u5e02\u4e2d\u592e\u533a\u897f\u5fc3\u658e\u6a4b2-17-13 \u65b0\u3059\u307f\u3084\u30d3\u30eb 1F"",""acc"":""\u306a\u3093\u3070\u99c5\u304b\u3089\u5f92\u6b694\u5206"",""tel"":""080-7941-7138"",""hp"":""https:\/\/falafelsababaosaka-mediterranean.business.site\/?utm_source=gmb&utm_medium=referral"",""price"":"""",""price_d"":""1,000\u5186\uff5e2,000\u5186"",""price_n"":""1,000\u5186\uff5e2,000\u5186"",""business_h"":""11:30\uff5e23:00"",""business_hd"":"""",""business_hn"":"""",""holiday"":""\u706b\u66dc\u65e5"",""seats"":""10\u5e2d"",""credit"":""\u73fe\u91d1"",""parking"":""\u7121\u3057"",""swipe_num"":""3"",""swipe_imgs"":[""32933"",""32932"",""32931""],""desc"":"""",""img_url"":[""https:\/\/vegeness.com\/wp-content\/uploads\/2020\/07\/dell00002365.jpg"",""https:\/\/vegeness.com\/wp-content\/uploads\/2020\/07\/dell00002363.jpg"",""https:\/\/vegeness.com\/wp-content\/uploads\/2020\/07\/dell00002366.jpg""]}",https://vegeness.com/wp-content/uploads/2020/07/dell00002365.jpg,洋食,"veganメニューあり,ベジタリアンメニューあり,英語メニューあり,テイクアウトあり,宅配サービス"
32934,shop,publish,"法華素食Oriental Sho-jin Kitchen",,"大阪,関西,心斎橋・なんば・堀江","{""name"":""\u6cd5\u83ef\u7d20\u98df\u5927\u962a Oriental Sho-jin Kitchen"",""title"":"""",""zip"":""540-0071"",""addr"":""\u5927\u962a\u5e02\u4e2d\u592e\u533a\u9053\u9813\u58001-1-6\u3000Y's\u30d4\u30a2\u9053\u9813\u5800\u4e26\u6728\u5ea7\u30d3\u30eb4F"",""acc"":""\u65e5\u672c\u6a4b\u99c5\u3088\u308a\u5f92\u6b693\u5206"",""tel"":""072-349-7800"",""hp"":""https:\/\/fahua-osaka.com\/"",""price"":"""",""price_d"":"""",""price_n"":""1,000\u5186\uff5e2,000\u5186"",""business_h"":"""",""business_hd"":"""",""business_hn"":""17:00\uff5e21:00"",""holiday"":""\u6708\u66dc\u65e5\u30fb\u706b\u66dc\u65e5"",""seats"":"""",""credit"":""\u73fe\u91d1"",""parking"":""\u7121\u3057"",""swipe_num"":""3"",""swipe_imgs"":[""32936"",""32935"",""32937""],""desc"":"""",""img_url"":[""https:\/\/vegeness.com\/wp-content\/uploads\/2020\/07\/dell00002367.jpg"",""https:\/\/vegeness.com\/wp-content\/uploads\/2020\/07\/dell00002370.jpg"",""https:\/\/vegeness.com\/wp-content\/uploads\/2020\/07\/dell00002369.jpg""]}",https://vegeness.com/wp-content/uploads/2020/07/dell00002367.jpg,"和食,アジア・エスニック料理","100%Veganのお店,英語メニューあり,料理教室あり"
33000,shop,publish,"ポタジェ （potager）",,"東京,関東,東京駅・大手町・日本橋","{""name"":""\u30dd\u30bf\u30b8\u30a7 \uff08potager\uff09"",""title"":"""",""zip"":""104-0033"",""addr"":""\u6771\u4eac\u90fd\u4e2d\u592e\u533a\u65b0\u5ddd2-7-1 \u30aa\u30ea\u30a8\u30f3\u30bf\u30eb\u30d3\u30eb 1F"",""acc"":""\u516b\u4e01\u5800\u99c5\u304b\u3089\u5f92\u6b694\u5206"",""tel"":""080-2105-0440"",""hp"":""https:\/\/www.instagram.com\/potager_deli\/"",""price"":""\uff5e1,000\u5186"",""price_d"":"""",""price_n"":"""",""business_h"":""11:30\uff5e14:00"",""business_hd"":"""",""business_hn"":"""",""holiday"":""\u571f\u66dc\u65e5\u3001\u65e5\u66dc\u65e5\u3001\u795d\u65e5"",""seats"":"""",""credit"":""\u73fe\u91d1"",""parking"":""\u7121\u3057"",""swipe_num"":""3"",""swipe_imgs"":[""33016"",""33017"",""33018""],""desc"":"""",""img_url"":[""https:\/\/vegeness.com\/wp-content\/uploads\/2020\/07\/dell00002375.jpg"",""https:\/\/vegeness.com\/wp-content\/uploads\/2020\/07\/dell00002373.jpg"",""https:\/\/vegeness.com\/wp-content\/uploads\/2020\/07\/dell00002374.jpg""]}",https://vegeness.com/wp-content/uploads/2020/07/dell00002373.jpg,弁当、デリカテッセン,"veganメニューあり,テイクアウトあり,宅配サービス"
33032,shop,publish,ボルベール,,"高知市,高知,四国","{""name"":""\u30dc\u30eb\u30d9\u30fc\u30eb \uff08volver\uff09"",""title"":"""",""zip"":""780-0088"",""addr"":""\u9ad8\u77e5\u770c\u9ad8\u77e5\u5e02 \u5317\u4e45\u4fdd\uff19\u2212\uff13\uff12 \u30f4\u30a3\u30e9\u30d6\u30ea\u30c3\u30af 1F"",""acc"":""\u858a\u91ce\u99c5\u304b\u3089\u5f92\u6b6911\u5206"",""tel"":""088-861-2228"",""hp"":""https:\/\/restaurant-22255.business.site\/"",""price"":"""",""price_d"":""1,000\u5186\uff5e2,000\u5186"",""price_n"":""2,000\u5186\uff5e3,000\u5186"",""business_h"":"""",""business_hd"":""11:30\uff5e15:00"",""business_hn"":""18:00\uff5e22:00"",""holiday"":""\u6c34\u66dc\u65e5"",""seats"":""35\u5e2d"",""credit"":""\u73fe\u91d1"",""parking"":""\u6709(7\u53f0)"",""swipe_num"":""2"",""swipe_imgs"":[""33033"",""33034""],""desc"":"""",""img_url"":[""https:\/\/vegeness.com\/wp-content\/uploads\/2020\/07\/dell00002377.jpg"",""https:\/\/vegeness.com\/wp-content\/uploads\/2020\/07\/dell00002376.jpg""]}",https://vegeness.com/wp-content/uploads/2020/07/dell00002377.jpg,イタリアン・フレンチ,"vegan対応可,グルテンフリーメニューあり"
33035,shop,publish,静かな喫茶店,,"高知市,高知,四国","{""name"":""\u9759\u304b\u306a\u55ab\u8336\u5e97"",""title"":"""",""zip"":""780-0946"",""addr"":""\u9ad8\u77e5\u770c\u9ad8\u77e5\u5e02\u4e0a\u672c\u5bae\u753a210"",""acc"":""\u571f\u4f50\u96fb\u9244\u300c\u93e1\u5ddd\u6a4b\u300d\u3088\u308a\u5f92\u6b69\uff15\u5206"",""tel"":""088-840-2877"",""hp"":""https:\/\/www.sizukana-kissatenn.com\/"",""price"":"""",""price_d"":""1,000\u5186\uff5e2,000\u5186"",""price_n"":"""",""business_h"":""12:00\uff5e19:00"",""business_hd"":"""",""business_hn"":"""",""holiday"":""\u65e5\u66dc\u65e5\u30fb\u6708\u66dc\u65e5"",""seats"":"""",""credit"":""\u73fe\u91d1"",""parking"":"""",""swipe_num"":""3"",""swipe_imgs"":[""33036"",""33037"",""33038""],""desc"":"""",""img_url"":[""https:\/\/vegeness.com\/wp-content\/uploads\/2020\/07\/dell00002380.jpg"",""https:\/\/vegeness.com\/wp-content\/uploads\/2020\/07\/dell00002378.jpg"",""https:\/\/vegeness.com\/wp-content\/uploads\/2020\/07\/dell00002379.jpg""]}",https://vegeness.com/wp-content/uploads/2020/07/dell00002380.jpg,,"veganメニューあり,ベジタリアンメニューあり,テイクアウトあり"
33048,shop,publish,"ベジタリアンカフェ モニークプラス",,"大阪,関西,堺・和泉","{""name"":""vegetarian cafe monique +\uff08\u30d9\u30b8\u30bf\u30ea\u30a2\u30f3\u30ab\u30d5\u30a7 \u30e2\u30cb\u30fc\u30af\u30d7\u30e9\u30b9\uff09"",""title"":"""",""zip"":""592-8349"",""addr"":""\u5927\u962a\u5e9c\u583a\u5e02\u897f\u533a\u6d5c\u5bfa\u8acf\u8a2a\u30ce\u68ee\u753a\u67713\u4e01319-2 \u304a\u5c4b\u6577\u518d\u751f\u8907\u5408\u30b7\u30e7\u30c3\u30d7 \u904a\u5185"",""acc"":""\u8239\u5c3e\u99c5\u304b\u3089\u5f92\u6b692\u5206"",""tel"":""0722-06-2723"",""hp"":""https:\/\/www.monique-cafe.com\/"",""price"":""1,000\u5186\uff5e2,000\u5186"",""price_d"":"""",""price_n"":"""",""business_h"":""11:00\uff5e18:00"",""business_hd"":"""",""business_hn"":"""",""holiday"":""\u6708\u66dc\u65e5\u3001\u706b\u66dc\u65e5"",""seats"":"""",""credit"":""\u73fe\u91d1"",""parking"":"""",""swipe_num"":""4"",""swipe_imgs"":[""33050"",""33051"",""33049"",""33052""],""desc"":"""",""img_url"":[""https:\/\/vegeness.com\/wp-content\/uploads\/2020\/07\/dell00002382.jpg"",""https:\/\/vegeness.com\/wp-content\/uploads\/2020\/07\/dell00002384.jpg"",""https:\/\/vegeness.com\/wp-content\/uploads\/2020\/07\/dell00002386.jpg"",""https:\/\/vegeness.com\/wp-content\/uploads\/2020\/07\/dell00002385.jpg""]}",https://vegeness.com/wp-content/uploads/2020/07/dell00002382.jpg,カフェ・スイーツ,"veganメニューあり,ベジタリアンメニューあり,テイクアウトあり"
33053,shop,publish,羊の家Jr.,,"大阪,関西,堺・和泉","{""name"":""\u7f8a\u306e\u5bb6Jr.\uff08\u3072\u3064\u3058\u306e\u3044\u3048\u3058\u3085\u306b\u3042\uff09"",""title"":"""",""zip"":""590-0076"",""addr"":""\u5927\u962a\u5e9c\u583a\u5e02\u583a\u533a\u5317\u74e6\u753a\uff12\u4e01\uff11\u2212\uff13\uff13"",""acc"":""\u583a\u6771\u99c5\u3088\u308a\u5f92\u6b692\u5206"",""tel"":""072-242-6739"",""hp"":"""",""price"":"""",""price_d"":""1,000\u5186\uff5e2,000\u5186"",""price_n"":"""",""business_h"":""11:30\uff5e15:30"",""business_hd"":"""",""business_hn"":"""",""holiday"":""\u571f\u66dc\u3001\u65e5\u66dc"",""seats"":"""",""credit"":""\u73fe\u91d1"",""parking"":""\u7121\u3057"",""swipe_num"":""5"",""swipe_imgs"":[""33058"",""33056"",""33055"",""33057"",""33054""],""desc"":"""",""img_url"":[""https:\/\/vegeness.com\/wp-content\/uploads\/2020\/07\/dell00002392.jpg"",""https:\/\/vegeness.com\/wp-content\/uploads\/2020\/07\/dell00002390.jpg"",""https:\/\/vegeness.com\/wp-content\/uploads\/2020\/07\/dell00002388.jpg"",""https:\/\/vegeness.com\/wp-content\/uploads\/2020\/07\/dell00002391.jpg"",""https:\/\/vegeness.com\/wp-content\/uploads\/2020\/07\/dell00002393.jpg""]}",https://vegeness.com/wp-content/uploads/2020/07/dell00002392.jpg,和食,veganメニューあり
33059,shop,publish,めぐりめし恵,,"大阪,京橋・天満・天六・南森町,関西","{""name"":""\u3081\u3050\u308a\u3081\u3057\u6075\uff08\u30e1\u30b0\u30df\uff09"",""title"":"""",""zip"":""530-0036"",""addr"":""\u5927\u962a\u5e9c\u5927\u962a\u5e02\u5317\u533a\u4e0e\u529b\u753a2-8"",""acc"":""\u5357\u68ee\u753a\u99c5\u304b\u3089\u5f92\u6b69\uff15\u5206"",""tel"":""06-6357-0038"",""hp"":""https:\/\/www.megumi168.com\/"",""price"":"""",""price_d"":""1,000\u5186\uff5e2,000\u5186"",""price_n"":""4,000\u5186\uff5e5,000\u5186"",""business_h"":"""",""business_hd"":""12:00\uff5e14:00\uff08\u5b8c\u5168\u4e88\u7d04\u5236\uff09"",""business_hn"":""17:00\uff5e22:00\uff08\u4e88\u7d04\u512a\u5148\uff09"",""holiday"":""\u65e5\u66dc\u65e5\u30fb\u6708\u66dc\u65e5"",""seats"":""21\u5e2d"",""credit"":""\u73fe\u91d1\u30fb\u30ab\u30fc\u30c9"",""parking"":""\u6709"",""swipe_num"":""4"",""swipe_imgs"":[""33061"",""33062"",""33060"",""33063""],""desc"":"""",""img_url"":[""https:\/\/vegeness.com\/wp-content\/uploads\/2020\/07\/dell00002394.jpg"",""https:\/\/vegeness.com\/wp-content\/uploads\/2020\/07\/dell00002395.jpg"",""https:\/\/vegeness.com\/wp-content\/uploads\/2020\/07\/dell00002398.jpg"",""https:\/\/vegeness.com\/wp-content\/uploads\/2020\/07\/dell00002397.jpg""]}",https://vegeness.com/wp-content/uploads/2020/07/dell00002394.jpg,和食,"100%Veganのお店,グルテンフリーメニューあり,英語メニューあり,テイクアウトあり"
33064,shop,publish,"Babel Cafe",,"大阪,京橋・天満・天六・南森町,関西","{""name"":""Babel Cafe\uff08\u30d0\u30d9\u30eb \u30ab\u30d5\u30a7\uff09"",""title"":"""",""zip"":""530-0022"",""addr"":""\u5927\u962a\u5e9c\u5927\u962a\u5e02\u5317\u533a\u6d6a\u82b1\u753a5-2 passage\u4e2d\u5d0e\u753a 2F"",""acc"":""\u5929\u795e\u6a4b\u7b4b\u516d\u4e01\u76ee\u99c5\u304b\u3089\u5f92\u6b693\u5206"",""tel"":""\u975e\u516c\u958b"",""hp"":""https:\/\/www.facebook.com\/babelcafe.organic\/"",""price"":""1,000\u5186\uff5e2,000\u5186"",""price_d"":"""",""price_n"":"""",""business_h"":""[\u6708] 13:00\u301c20:00(LO19:30) [\u706b\u301c\u571f] 11:00\uff5e20:00(LO19:30)"",""business_hd"":"""",""business_hn"":"""",""holiday"":""\u65e5\u66dc"",""seats"":"""",""credit"":""\u73fe\u91d1"",""parking"":""\u7121\u3057"",""swipe_num"":""4"",""swipe_imgs"":[""33074"",""33075"",""33076"",""33073""],""desc"":"""",""img_url"":[""https:\/\/vegeness.com\/wp-content\/uploads\/2020\/07\/dell00002399.jpg"",""https:\/\/vegeness.com\/wp-content\/uploads\/2020\/07\/dell00002400.jpg"",""https:\/\/vegeness.com\/wp-content\/uploads\/2020\/07\/dell00002401.jpg"",""https:\/\/vegeness.com\/wp-content\/uploads\/2020\/07\/dell00002402.jpg""]}",https://vegeness.com/wp-content/uploads/2020/07/dell00002399.jpg,カフェ・スイーツ,"veganメニューあり,テイクアウトあり"
33077,shop,publish,"Sushi Roll Double quotation Iki",,"大阪,京橋・天満・天六・南森町,関西","{""name"":""Double quotation Iki\uff08\u3060\u3076\u308b\u304f\u3049\u3066\u30fc\u3057\u3087\u3093\u7c8b\uff09"",""title"":"""",""zip"":""530-0022"",""addr"":""\u5927\u962a\u5e9c\u5927\u962a\u5e02\u5317\u533a\u6d6a\u82b1\u753a\uff11\uff13\u2212\uff14\uff10"",""acc"":""\u5929\u795e\u6a4b\u7b4b\u516d\u4e01\u76ee 13\u756a\u51fa\u53e3 \u3088\u308a \u5f92\u6b691\u5206"",""tel"":""090-3054-3525"",""hp"":""https:\/\/doublequotationiki.wixsite.com\/homepage"",""price"":"""",""price_d"":"""",""price_n"":""3,000\u5186\uff5e4,000\u5186"",""business_h"":"""",""business_hd"":"""",""business_hn"":""17:00\u301c26:00"",""holiday"":""\u706b\u66dc\u65e5"",""seats"":""8\u5e2d"",""credit"":""\u73fe\u91d1\u30fb\u30ab\u30fc\u30c9\u30fbPayPay"",""parking"":""\u8fd1\u96a3\u306b\u30b3\u30a4\u30f3\u30d1\u30fc\u30ad\u30f3\u30b0\u6709"",""swipe_num"":""4"",""swipe_imgs"":[""33080"",""33078"",""33079"",""33081""],""desc"":"""",""img_url"":[""https:\/\/vegeness.com\/wp-content\/uploads\/2020\/07\/dell00002404.jpg"",""https:\/\/vegeness.com\/wp-content\/uploads\/2020\/07\/dell00002406.jpg"",""https:\/\/vegeness.com\/wp-content\/uploads\/2020\/07\/dell00002403.jpg"",""https:\/\/vegeness.com\/wp-content\/uploads\/2020\/07\/dell00002405.jpg""]}",https://vegeness.com/wp-content/uploads/2020/07/dell00002404.jpg,和食,"veganメニューあり,ベジタリアンメニューあり,グルテンフリーメニューあり,英語メニューあり,テイクアウトあり,宅配サービス"
33082,shop,publish,"雑貨と野菜のカフェ＆バル あじゅ",,"大阪,京橋・天満・天六・南森町,関西","{""name"":""\u96d1\u8ca8\u3068\u91ce\u83dc\u306e\u30ab\u30d5\u30a7\uff06\u30d0\u30eb \u3042\u3058\u3085"",""title"":"""",""zip"":""530-0016"",""addr"":""\u5927\u962a\u5e9c\u5927\u962a\u5e02\u5317\u533a\u4e2d\u5d0e\uff11\u4e01\u76ee\uff11\uff10\u2212\uff11\uff14"",""acc"":""\u5927\u962a\u5e02\u55b6\u5730\u4e0b\u9244\u8c37\u753a\u7dda\u300c\u4e2d\u5d0e\u753a\u300d\u99c5\uff11\u756a\u51fa\u53e3\u5f92\u6b69\uff13\u5206"",""tel"":""06-6375-7791"",""hp"":""https:\/\/www.facebook.com\/ajucafebar\/?modal=admin_todo_tour"",""price"":"""",""price_d"":""1,000\u5186\uff5e2,000\u5186"",""price_n"":""2,000\u5186\uff5e3,000\u5186"",""business_h"":"""",""business_hd"":""11:45\uff5e16:00"",""business_hn"":""17:30\u301c20:00 (\u706b\u30fb\u6728)\uff5e21:00(\u65e5\u30fb\u795d)\uff5e22:00(\u6c34\u30fb\u91d1\u30fb\u571f\u30fb\u795d\u524d\u65e5)"",""holiday"":""\u6708\u66dc\u3001\u4e0d\u5b9a\u4f11"",""seats"":""16\u5e2d"",""credit"":""\u73fe\u91d1"",""parking"":""\u8fd1\u96a3\u306b\u30b3\u30a4\u30f3\u30d1\u30fc\u30ad\u30f3\u30b0\u6709"",""swipe_num"":""4"",""swipe_imgs"":[""33083"",""33085"",""33086"",""33084""],""desc"":"""",""img_url"":[""https:\/\/vegeness.com\/wp-content\/uploads\/2020\/07\/dell00002411.jpg"",""https:\/\/vegeness.com\/wp-content\/uploads\/2020\/07\/dell00002409.jpg"",""https:\/\/vegeness.com\/wp-content\/uploads\/2020\/07\/dell00002410.jpg"",""https:\/\/vegeness.com\/wp-content\/uploads\/2020\/07\/dell00002408.jpg""]}",https://vegeness.com/wp-content/uploads/2020/07/dell00002410.jpg,"洋食,ダイニング・居酒屋","veganメニューあり,テイクアウトあり"
33087,shop,publish,"mumokuteki cafe",,"大阪,梅田・北新地,関西","{""name"":""mumokuteki cafe\uff08\u30e0\u30e2\u30af\u30c6\u30ad \u30ab\u30d5\u30a7\uff09\u5927\u962a\u5e97"",""title"":"""",""zip"":"""",""addr"":""\u5927\u962a\u5e9c\u5927\u962a\u5e02\u5317\u533a\u4e2d\u5d0e\u897f3-1-14 \u5c71\u7530\u4e0d\u52d5\u7523\u30de\u30f3\u30b7\u30e7\u30f3 1F"",""acc"":""\u4e2d\u5d0e\u753a\u99c5\u304b\u3089\u5f92\u6b693\u5206"",""tel"":""06-6131-5996"",""hp"":""https:\/\/mumokuteki.com\/cafe"",""price"":"""",""price_d"":""1,000\u5186\uff5e2,000\u5186"",""price_n"":""1,000\u5186\uff5e2,000\u5186"",""business_h"":""11:00\uff5e20:00"",""business_hd"":"""",""business_hn"":"""",""holiday"":""\u306a\u3057"",""seats"":"""",""credit"":""\u73fe\u91d1\u30fb\u30ab\u30fc\u30c9\u30fb\u96fb\u5b50\u30de\u30cd\u30fc"",""parking"":""\u7121\u3057"",""swipe_num"":""7"",""swipe_imgs"":[""33089"",""33090"",""33093"",""33092"",""33091"",""33088"",""33094""],""desc"":"""",""img_url"":[""https:\/\/vegeness.com\/wp-content\/uploads\/2020\/07\/dell00002418.jpg"",""https:\/\/vegeness.com\/wp-content\/uploads\/2020\/07\/dell00002419.jpg"",""https:\/\/vegeness.com\/wp-content\/uploads\/2020\/07\/dell00002415.jpg"",""https:\/\/vegeness.com\/wp-content\/uploads\/2020\/07\/dell00002414.jpg"",""https:\/\/vegeness.com\/wp-content\/uploads\/2020\/07\/dell00002413.jpg"",""https:\/\/vegeness.com\/wp-content\/uploads\/2020\/07\/dell00002417.jpg"",""https:\/\/vegeness.com\/wp-content\/uploads\/2020\/07\/dell00002416.jpg""]}",https://vegeness.com/wp-content/uploads/2020/07/dell00002418.jpg,カフェ・スイーツ,"100%Veganのお店,グルテンフリーメニューあり,テイクアウトあり"
33095,shop,publish,"mumokuteki cafe",,"河原町・木屋町,京都,関西","{""name"":""mumokuteki cafe\uff08\u30e0\u30e2\u30af\u30c6\u30ad \u30ab\u30d5\u30a7\uff09\u4eac\u90fd\u5e97"",""title"":"""",""zip"":""604-8061"",""addr"":""\u4eac\u90fd\u5e9c\u4eac\u90fd\u5e02\u4e2d\u4eac\u533a\u5fa1\u5e78\u753a\u901a\u516d\u89d2\u4e0b\u30eb\u4f0a\u52e2\u5c4b\u753a351 \u30d2\u30e5\u30fc\u30de\u30f3\u30d5\u30a9\u30fc\u30e9\u30e0\u30d3\u30eb\u3000\uff12\uff26"",""acc"":""\u962a\u6025\u300c\u6cb3\u539f\u753a\u300d\u99c5\u30fb\u5730\u4e0b\u9244\u300c\u4eac\u90fd\u5e02\u5f79\u6240\u524d\u300d\u99c5\u304b\u3089\u5f92\u6b6910\u5206"",""tel"":""075-213-7733"",""hp"":""https:\/\/mumokuteki.com\/cafe"",""price"":"""",""price_d"":""1,000\u5186\uff5e2,000\u5186"",""price_n"":""1,000\u5186\uff5e2,000\u5186"",""business_h"":""11:30\u301c21:00(20:00 L.O.)"",""business_hd"":""11:30\u301c15:00"",""business_hn"":"""",""holiday"":""\u6c34\u66dc"",""seats"":"""",""credit"":""\u73fe\u91d1\u30fb\u30ab\u30fc\u30c9"",""parking"":""\u7121\u3057"",""swipe_num"":""7"",""swipe_imgs"":[""33100"",""33101"",""33099"",""33102"",""33097"",""33098"",""33096""],""desc"":"""",""img_url"":[""https:\/\/vegeness.com\/wp-content\/uploads\/2020\/07\/dell00002421.jpg"",""https:\/\/vegeness.com\/wp-content\/uploads\/2020\/07\/dell00002422.jpg"",""https:\/\/vegeness.com\/wp-content\/uploads\/2020\/07\/dell00002420.jpg"",""https:\/\/vegeness.com\/wp-content\/uploads\/2020\/07\/dell00002423.jpg"",""https:\/\/vegeness.com\/wp-content\/uploads\/2020\/07\/dell00002425.jpg"",""https:\/\/vegeness.com\/wp-content\/uploads\/2020\/07\/dell00002426.jpg"",""https:\/\/vegeness.com\/wp-content\/uploads\/2020\/07\/dell00002424.jpg""]}",https://vegeness.com/wp-content/uploads/2020/07/dell00002421.jpg,カフェ・スイーツ,"100%Veganのお店,グルテンフリーメニューあり,テイクアウトあり"
33103,shop,publish,"natural kitchen めだか 2号店",,"大阪,梅田・北新地,関西","{""name"":""natural kitchen \u3081\u3060\u304b 2\u53f7\u5e97"",""title"":"""",""zip"":""530-0056"",""addr"":""\u5927\u962a\u5e9c\u5927\u962a\u5e02\u5317\u533a\u514e\u6211\u91ce\u753a3-20 \u96c1\u6728\u30d3\u30eb 1F"",""acc"":""\u6771\u6885\u7530\u99c5\u304b\u3089\u5f92\u6b691\u5206"",""tel"":""06-6364-7108"",""hp"":""https:\/\/shin-medaka.com\/"",""price"":"""",""price_d"":""1,000\u5186\uff5e2,000\u5186"",""price_n"":""1,000\u5186\uff5e2,000\u5186"",""business_h"":""[\u6708\uff5e\u571f] 11:00\uff5e21:30 [\u65e5] 11:00\uff5e20:30"",""business_hd"":"""",""business_hn"":"""",""holiday"":""\u306a\u3057"",""seats"":""30\u5e2d"",""credit"":""\u73fe\u91d1\u30fb\u30ab\u30fc\u30c9"",""parking"":""\u7121\u3057"",""swipe_num"":""6"",""swipe_imgs"":[""33109"",""33105"",""33106"",""33107"",""33108"",""33104""],""desc"":"""",""img_url"":[""https:\/\/vegeness.com\/wp-content\/uploads\/2020\/07\/dell00002431.jpg"",""https:\/\/vegeness.com\/wp-content\/uploads\/2020\/07\/dell00002433.jpg"",""https:\/\/vegeness.com\/wp-content\/uploads\/2020\/07\/dell00002427.jpg"",""https:\/\/vegeness.com\/wp-content\/uploads\/2020\/07\/dell00002429.jpg"",""https:\/\/vegeness.com\/wp-content\/uploads\/2020\/07\/dell00002430.jpg"",""https:\/\/vegeness.com\/wp-content\/uploads\/2020\/07\/dell00002432.jpg""]}",https://vegeness.com/wp-content/uploads/2020/07/dell00002431.jpg,カフェ・スイーツ,"veganメニューあり,英語メニューあり,テイクアウトあり"
33110,shop,publish,菜食ごはんＲｏｃｃａ,,"大阪,中之島・肥後橋,関西","{""name"":""\u83dc\u98df\u3054\u306f\u3093Rocca\uff08\u30ed\u30c3\u30ab\uff09"",""title"":"""",""zip"":""550-0001"",""addr"":""\u5927\u962a\u5e9c\u5927\u962a\u5e02\u897f\u533a\u571f\u4f50\u58001-6-6 \uff2c\uff29\uff2e\uff2b\u3000\uff28\uff2f\uff35\uff33\uff25\u3000\uff34\uff4f\uff53\uff41\uff42\uff4f\uff52\uff49\u30001F"",""acc"":""\u5730\u4e0b\u9244\u56db\u30c4\u6a4b\u7dda\u80a5\u5f8c\u6a4b\u99c53\u756a\u51fa\u53e3\u3088\u308a\u5f92\u6b69\uff17\u5206"",""tel"":""06-6444-5765"",""hp"":""http:\/\/www.rocca-cafe.com\/"",""price"":"""",""price_d"":""1,000\u5186\uff5e2,000\u5186"",""price_n"":""1,000\u5186\uff5e2,000\u5186"",""business_h"":"""",""business_hd"":""11:30\uff5e14:45(L.O.14:30)"",""business_hn"":""18:00\uff5e22:00(L.O.21:45)\u91d1\u66dc\u306f\uff5e22:30"",""holiday"":""\u65e5\u66dc\u65e5\u3001\u795d\u65e5\u3001\u7b2c\u4e8c\u571f\u66dc\u65e5"",""seats"":""22\u5e2d"",""credit"":""\u73fe\u91d1"",""parking"":""\u7121\u3057"",""swipe_num"":""3"",""swipe_imgs"":[""33113"",""33112"",""33111""],""desc"":"""",""img_url"":[""https:\/\/vegeness.com\/wp-content\/uploads\/2020\/07\/dell00002436.jpg"",""https:\/\/vegeness.com\/wp-content\/uploads\/2020\/07\/dell00002435.jpg"",""https:\/\/vegeness.com\/wp-content\/uploads\/2020\/07\/dell00002437.jpg""]}",https://vegeness.com/wp-content/uploads/2020/07/dell00002436.jpg,和食,veganメニューあり
33135,shop,publish,CAFEIZM,"JR山陽本線、可部線、広島電鉄横川線の３線が乗り入れており、広島駅からも２駅と利便性の高い横川駅。

こちらの駅を北口側に歩いて５分程の所に素敵なカフェがオープンしました。

&nbsp;

その名も「CAFEIZM」さん。

<img class=""aligncenter size-full wp-image-33145"" src=""https://vegeness.com/wp-content/uploads/2020/07/exterior.jpeg"" alt="""" width=""450"" height=""600"" />

&nbsp;

2020年6月にオープンされたこちらのカフェは、爽やかなブルーと木製の扉が目印の外観で、とってもおしゃれ☆

入り口の扉を開けて店内に入ると・・・

&nbsp;

<img class=""aligncenter size-full wp-image-33150"" src=""https://vegeness.com/wp-content/uploads/2020/07/interior.jpeg"" alt="""" width=""600"" height=""450"" />

&nbsp;

とてもスタイリッシュな店内が広がっています。

&nbsp;

テーブルと椅子は木を貴重としていて、温かみのある雰囲気がホッと一息つきたい時、女子会、など色んなシーンに利用しやすそうです。

&nbsp;

大通りから１本入った所にあるので、街の喧騒から離れた落ち着いた雰囲気の中、店主が淹れる香り高い美味しいコーヒーが楽しめますよ。

&nbsp;

また、ドリンクメニューの他にベジタリアンフードメニューが充実しているのも魅力のひとつ。

&nbsp;
<h2>おすすめメニュー紹介</h2>
気になるメニューの一例をご紹介します。

&nbsp;
<h3>ドリップコーヒー　480円（税込）</h3>
<img class=""aligncenter size-full wp-image-33146"" src=""https://vegeness.com/wp-content/uploads/2020/07/dripcoffee.jpeg"" alt="""" width=""600"" height=""450"" />

お客様のテーブルにて、目の前でドリップしてくれるので、その芳醇な香りを余すことなく楽しめます。

またコーヒー豆は、自家焙煎から１週間以内の新鮮な豆のみを使用するというこだわりぶり。

コーヒー好きをも唸らせる事間違いなしです！

&nbsp;

&nbsp;
<h3>Veg.　チョコチップクッキー 250円（税込）</h3>
<img class=""aligncenter size-full wp-image-33147"" src=""https://vegeness.com/wp-content/uploads/2020/07/cookies.jpeg"" alt="""" width=""600"" height=""450"" />

オートミールをふんだんに使用し、しっとりと焼き上げられた卵不使用の自家製クッキー。ティータイムのお供におすすめです。

&nbsp;

&nbsp;
<h3>Veg.　スパイスカレー 780円（税込）</h3>
<img class=""aligncenter size-full wp-image-33149"" src=""https://vegeness.com/wp-content/uploads/2020/07/curry.jpeg"" alt="""" width=""600"" height=""450"" />

基本ソースは野菜のみ(Vegan対応)。唐辛子を使用しておらず、辛くないのにスパイシーな一皿です。

ノンベジさんはキチンやスペアリブをトッピング可能です。

&nbsp;

&nbsp;
<h3>Veg.　ポテトサラダ 420円（税込）</h3>
<img class=""aligncenter size-full wp-image-33151"" src=""https://vegeness.com/wp-content/uploads/2020/07/potato.jpeg"" alt="""" width=""600"" height=""450"" />

卵不使用のマヨネーズを加え、ブラックとピンクのWペッパーで大人の味わい。(Vegan対応)

ドリンクメニューの中にアルコール類もあるので、お酒のおつまみにもおすすめです。

&nbsp;

&nbsp;

ご紹介したメニューは一例です。

メニューの詳細は公式ホームページをチェックして下さい。

&nbsp;

<a href=""https://www.cafeizm.jp"" target=""_blank"" rel=""noopener noreferrer"">＞＞公式ホームページはこちら</a>

&nbsp;

&nbsp;
<h2>新型コロナウイルス感染防止対応中</h2>
2020年7月現在、新型コロナウイルスが全国的に影響を及ぼしています。

こちらのCAFEIZMさんでは新型コロナウイルスの感染防止対応として以下の事を実施されています。

・スタッフ全員のマスク着用
・店内は、勝手口ドアを開放することで換気を行う
・隣のお席とは、しっかりと距離を保って座席を配置
・店舗入口では、お手拭きとアルコール消毒液を設置
・定期的にテーブルと椅子、ドアノブなどをアルコールで消毒

&nbsp;

しっかりと対策されているので利用する方も安心して利用できますよね。

&nbsp;

また、テイクアウトも提供されています。

お店のメニューをご自宅でもお楽しみ頂けるので、”今日はお店でゆっくりする時間はないけど、お店の味を楽しみたい”という方にはこちらもおすすめです。

&nbsp;

&nbsp;
<h2>最新情報はInstagramをチェック</h2>
お店の最新情報は公式アカウントをチェックしてみて下さい。

ホームページには出ていない最新情報がGET出来るかも？！

&nbsp;

<a href=""https://www.instagram.com/cafeizm.jp/"" target=""_blank"" rel=""noopener noreferrer"">＞＞公式Instagramはこちら</a>

&nbsp;

フードメニューは、ベジメニューの他にノンベジさんでも楽しめるメニューも用意されているので、色んな食スタイルの方が一緒に楽しめるお店です。

ランチに、女子会に、お仕事帰りの1杯に、CAFEIZMさんにぜひ立ち寄ってみて下さい。","その他広島市,広島,中国","{""name"":""CAFEIZM"",""title"":""\u30c6\u30fc\u30d6\u30eb\u30c9\u30ea\u30c3\u30d7\u3067\u7119\u714e\u8c46\u306e\u9999\u308a\u3092\u697d\u3057\u3081\u308b\u73c8\u7432\u3068\u30d9\u30b8\u30bf\u30ea\u30a2\u30f3\u30e1\u30cb\u30e5\u30fc\u304c\u5145\u5b9f\u3057\u305f\u30ab\u30d5\u30a7"",""zip"":""733-0003"",""addr"":""\u5e83\u5cf6\u5e02\u897f\u533a\u4e09\u7be0\u753a1-8-2\u9152\u4e95\u30d3\u30eb1F"",""acc"":""JR\u6a2a\u5ddd\u99c5\uff08\u5e83\u5cf6\u770c\uff09\u5317\u53e3\u304b\u3089\u5f92\u6b69\uff15\u5206"",""tel"":""082-237-1912"",""hp"":""https:\/\/www.cafeizm.jp"",""price"":""\u301c999\u5186"",""price_d"":""\u301c999\u5186"",""price_n"":""1,000\u301c1,999\u5186"",""business_h"":""10:00\uff5e21:00"",""business_hd"":"""",""business_hn"":"""",""holiday"":""\u6708\u66dc\u65e5\uff08\uff0b\u4e0d\u5b9a\u4f11\uff09"",""seats"":""14\u5e2d\uff08\u30ab\u30a6\u30f3\u30bf\u30fc\uff14\u5e2d\u3001\u30c6\u30fc\u30d6\u30eb10\u5e2d\uff09"",""credit"":""\u73fe\u91d1\u30fb\u96fb\u5b50\u30de\u30cd\u30fc"",""parking"":""\u8fd1\u96a3\u306b\u30b3\u30a4\u30f3\u30d1\u30fc\u30ad\u30f3\u30b0\u6709"",""swipe_num"":""9"",""swipe_imgs"":[""33146"",""33147"",""33152"",""33148"",""33153"",""33151"",""33149"",""33145"",""33150""],""desc"":"""",""img_url"":[""https:\/\/vegeness.com\/wp-content\/uploads\/2020\/07\/dripcoffee.jpeg"",""https:\/\/vegeness.com\/wp-content\/uploads\/2020\/07\/cookies.jpeg"",""https:\/\/vegeness.com\/wp-content\/uploads\/2020\/07\/pasta.jpeg"",""https:\/\/vegeness.com\/wp-content\/uploads\/2020\/07\/annbutterbread.jpeg"",""https:\/\/vegeness.com\/wp-content\/uploads\/2020\/07\/carrot.jpeg"",""https:\/\/vegeness.com\/wp-content\/uploads\/2020\/07\/potato.jpeg"",""https:\/\/vegeness.com\/wp-content\/uploads\/2020\/07\/curry.jpeg"",""https:\/\/vegeness.com\/wp-content\/uploads\/2020\/07\/exterior.jpeg"",""https:\/\/vegeness.com\/wp-content\/uploads\/2020\/07\/interior.jpeg""]}",https://vegeness.com/wp-content/uploads/2020/07/curry.jpeg,カフェ・スイーツ,"veganメニューあり,ベジタリアンメニューあり,テイクアウトあり"
