post_id,post_type,post_status,post_title,post_content,tax_shop_area,meta_fields,post_thumbnail,tax_shop_genre,tax_shop_icon
33166,shop,publish,"チャヤマクロビ 伊勢丹新宿店",,"東京,関東,新宿・代々木・大久保","{""name"":""\u30c1\u30e3\u30e4\u30de\u30af\u30ed\u30d3 \u4f0a\u52e2\u4e39\u65b0\u5bbf\u5e97"",""title"":"""",""zip"":""160-0022"",""addr"":""\u6771\u4eac\u90fd\u65b0\u5bbf\u533a\u65b0\u5bbf\uff13\u4e01\u76ee\uff11\uff14\u2212\uff11 \u65b0\u5bbf\u4f0a\u52e2\u4e39\u672c\u99287\u968e\u30ec\u30b9\u30c8\u30e9\u30f3\u8857"",""acc"":""JR\u65b0\u5bbf\u99c5\u3088\u308a\u5f92\u6b695\u5206\u3001\u5730\u4e0b\u9244\u4e38\u306e\u5185\u7dda\u3088\u308a\u5f92\u6b69\uff11\u5206"",""tel"":""03-3357-0014\uff08\u30c7\u30a3\u30ca\u30fc\u306e\u307f\u4e88\u7d04\u53ef\uff09"",""hp"":""http:\/\/www.chayam.co.jp\/restaurant\/isetan.html"",""price"":"""",""price_d"":""2,000\u5186\uff5e3,000\u5186"",""price_n"":""4,000\u5186\uff5e5,000\u5186"",""business_h"":""11:00 \u301c 22:00"",""business_hd"":""11:00\uff5e16:30L.O"",""business_hn"":""17:00\uff5e22:00\uff0821:15L.O\uff09"",""holiday"":""\u4f0a\u52e2\u4e39\u4f11\u9928\u65e5\u306b\u6e96\u305a\u308b"",""seats"":""\u5e97\u518556\u5e2d\u30fb\u30c6\u30e9\u30b9\u5e2d28\u5e2d"",""credit"":""\u73fe\u91d1\u30fb\u30ab\u30fc\u30c9"",""parking"":""\u65bd\u8a2d\u5185\u99d0\u8eca\u5834\u6709\u308a"",""swipe_num"":""5"",""swipe_imgs"":[""33167"",""33169"",""33170"",""33168"",""33171""],""desc"":"""",""img_url"":[""https:\/\/vegeness.com\/wp-content\/uploads\/2020\/07\/dell00002451.jpg"",""https:\/\/vegeness.com\/wp-content\/uploads\/2020\/07\/dell00002449.jpg"",""https:\/\/vegeness.com\/wp-content\/uploads\/2020\/07\/dell00002450.jpg"",""https:\/\/vegeness.com\/wp-content\/uploads\/2020\/07\/dell00002452.jpg"",""https:\/\/vegeness.com\/wp-content\/uploads\/2020\/07\/12.jpg""]}",https://vegeness.com/wp-content/uploads/2020/07/dell00002451.jpg,"イタリアン・フレンチ,カフェ・スイーツ","veganメニューあり,グルテンフリーメニューあり,英語メニューあり,テイクアウトあり,オンライン ストアあり"
33172,shop,publish,"チャヤマクロビ ロイヤルパークホテル ザ 汐留店",,"東京,関東,銀座・有楽町・新橋","{""name"":""\u30c1\u30e3\u30e4\u30de\u30af\u30ed\u30d3 \u30ed\u30a4\u30e4\u30eb\u30d1\u30fc\u30af\u30db\u30c6\u30eb \u30b6 \u6c50\u7559\u5e97"",""title"":"""",""zip"":""105-8333"",""addr"":""\u6771\u4eac\u90fd\u6e2f\u533a\u6771\u65b0\u6a4b1-6-3 \u30ed\u30a4\u30e4\u30eb\u30d1\u30fc\u30af\u30db\u30c6\u30eb \u30b6 \u6c50\u7559 1F"",""acc"":""JR\u30fb\u5730\u4e0b\u9244 \u65b0\u6a4b\u99c5\u3088\u308a\u5f92\u6b693\u5206"",""tel"":""03-3573-3616"",""hp"":""http:\/\/www.chayam.co.jp\/restaurant\/shiodome.html"",""price"":"""",""price_d"":""1,000\u5186\uff5e2,000\u5186"",""price_n"":""3,000\u5186\uff5e4,000\u5186"",""business_h"":""\u30e2\u30fc\u30cb\u30f3\u30b0\u30bf\u30a4\u30e0\u30007:00\u301c10:00 (\u30e9\u30b9\u30c8\u30aa\u30fc\u30c0\u30fc9:30) \u30e9\u30f3\u30c1\uff06\u30c7\u30a3\u30ca\u30fc\u30bf\u30a4\u30e0\u300011:00\u301c21:00 (\u30e9\u30b9\u30c8\u30aa\u30fc\u30c0\u30fc20:30)"",""business_hd"":"""",""business_hn"":"""",""holiday"":""\u306a\u3057"",""seats"":""72\u5e2d"",""credit"":""\u73fe\u91d1\u30fb\u30ab\u30fc\u30c9\u30fb\u96fb\u5b50\u30de\u30cd\u30fc"",""parking"":""\u7121\u3057"",""swipe_num"":""6"",""swipe_imgs"":[""33174"",""33175"",""33178"",""33176"",""33177"",""33173""],""desc"":"""",""img_url"":[""https:\/\/vegeness.com\/wp-content\/uploads\/2020\/07\/dell00002459.jpg"",""https:\/\/vegeness.com\/wp-content\/uploads\/2020\/07\/dell00002453.jpg"",""https:\/\/vegeness.com\/wp-content\/uploads\/2020\/07\/dell00002457.jpg"",""https:\/\/vegeness.com\/wp-content\/uploads\/2020\/07\/dell00002454.jpg"",""https:\/\/vegeness.com\/wp-content\/uploads\/2020\/07\/dell00002456.jpg"",""https:\/\/vegeness.com\/wp-content\/uploads\/2020\/07\/dell00002458.jpg""]}",https://vegeness.com/wp-content/uploads/2020/07/dell00002453.jpg,"イタリアン・フレンチ,カフェ・スイーツ","veganメニューあり,グルテンフリーメニューあり,英語メニューあり,テイクアウトあり,宅配サービス,オンライン ストアあり"
33179,shop,publish,喫茶Capela,,"東京,関東,池袋・高田馬場・早稲田","{""name"":""\u55ab\u8336Capela(\u30ab\u30da\u30e9)"",""title"":"""",""zip"":""171-0033"",""addr"":""\u6771\u4eac\u90fd\u8c4a\u5cf6\u533a\u9ad8\u7530\uff13\u4e01\u76ee\uff12\uff12\u2212\uff11\uff12"",""acc"":""\u5b66\u7fd2\u9662\u4e0b\u99c5\u304b\u3089\u5f92\u6b693\u5206"",""tel"":""090-8286-7724\uff08\u4e88\u7d04\u53ef\uff09"",""hp"":""https:\/\/www.facebook.com\/ecocafecapela\/"",""price"":""1,000\u5186\uff5e2,000\u5186"",""price_d"":"""",""price_n"":"""",""business_h"":""11:00\uff5e17:30"",""business_hd"":"""",""business_hn"":"""",""holiday"":""\u65e5\u66dc\u65e5\u3001\u6708\u66dc\u65e5\u3001\u706b\u66dc\u65e5"",""seats"":""5\u5e2d"",""credit"":""\u73fe\u91d1"",""parking"":""\u7121\u3057"",""swipe_num"":""3"",""swipe_imgs"":[""33180"",""33181"",""33182""],""desc"":"""",""img_url"":[""https:\/\/vegeness.com\/wp-content\/uploads\/2020\/07\/13-2.jpg"",""https:\/\/vegeness.com\/wp-content\/uploads\/2020\/07\/13.jpg"",""https:\/\/vegeness.com\/wp-content\/uploads\/2020\/07\/13-1.jpg""]}",https://vegeness.com/wp-content/uploads/2020/07/13-2.jpg,"アジア・エスニック料理,カフェ・スイーツ","veganメニューあり,テイクアウトあり"
33184,shop,publish,"VEGETARIAN  BEAST",,"東京,関東,池袋・高田馬場・早稲田","{""name"":""VEGETARIAN BEAST\uff08\u30d9\u30b8\u30bf\u30ea\u30a2\u30f3 \u30d3\u30fc\u30b9\u30c8\uff09"",""title"":"""",""zip"":""171-0031"",""addr"":""\u6771\u4eac\u90fd\u8c4a\u5cf6\u533a\u76ee\u767d3-14-18"",""acc"":""\u76ee\u767d\u99c5\u304b\u3089\u5f92\u6b692\u5206"",""tel"":""03-5988-7160"",""hp"":""https:\/\/www.facebook.com\/veganwinebar\/?ref=page_internal"",""price"":"""",""price_d"":""1,000\u5186\uff5e2,000\u5186"",""price_n"":""1,000\u5186\uff5e2,000\u5186"",""business_h"":"""",""business_hd"":""11:00\u301c14:30"",""business_hn"":""17:30\uff5e21:30"",""holiday"":""\u6708\u66dc"",""seats"":""15\u5e2d"",""credit"":""\u73fe\u91d1\u30fb\u30ab\u30fc\u30c9"",""parking"":""\u7121\u3057"",""swipe_num"":""6"",""swipe_imgs"":[""33187"",""33186"",""33185"",""33188"",""33189"",""33190""],""desc"":"""",""img_url"":[""https:\/\/vegeness.com\/wp-content\/uploads\/2020\/07\/dell00002461.jpg"",""https:\/\/vegeness.com\/wp-content\/uploads\/2020\/07\/dell00002460.jpg"",""https:\/\/vegeness.com\/wp-content\/uploads\/2020\/07\/dell00002462.jpg"",""https:\/\/vegeness.com\/wp-content\/uploads\/2020\/07\/15-1.jpg"",""https:\/\/vegeness.com\/wp-content\/uploads\/2020\/07\/15-2.jpg"",""https:\/\/vegeness.com\/wp-content\/uploads\/2020\/07\/15.jpg""]}",https://vegeness.com/wp-content/uploads/2020/07/dell00002461.jpg,カフェ・スイーツ,"100%Veganのお店,英語メニューあり,テイクアウトあり"
33191,shop,publish,みかわや,,"東京,関東,池袋・高田馬場・早稲田","{""name"":""\u307f\u304b\u308f\u3084"",""title"":"""",""zip"":""161-0033"",""addr"":""\u6771\u4eac\u90fd\u65b0\u5bbf\u533a\u4e0b\u843d\u5408\uff13\u4e01\u76ee\uff12\uff12\u2212\uff11\uff16"",""acc"":""JR\u5c71\u624b\u7dda\u30fb\u76ee\u767d\u99c5\u3088\u308a\u5f92\u6b69\uff18\u5206"",""tel"":""03-3951-5656"",""hp"":""https:\/\/www.facebook.com\/mikawayakomiya\/"",""price"":"""",""price_d"":""1,000\u5186\uff5e2,000\u5186"",""price_n"":""4,000\u5186\uff5e5,000\u5186"",""business_h"":"""",""business_hd"":""11:30\uff5e14:30(L.O.14:00)"",""business_hn"":""18:00\uff5e23:00(L.O.22:00)"",""holiday"":""\u6728\u66dc\u65e5\u3001\u65e5\u66dc\u65e5"",""seats"":""18\u5e2d"",""credit"":""\u73fe\u91d1\u30fb\u30ab\u30fc\u30c9\u30fb\u96fb\u5b50\u30de\u30cd\u30fc"",""parking"":""\u7121\u3057"",""swipe_num"":""4"",""swipe_imgs"":[""33193"",""33194"",""33195"",""33192""],""desc"":"""",""img_url"":[""https:\/\/vegeness.com\/wp-content\/uploads\/2020\/07\/dell00002463.jpg"",""https:\/\/vegeness.com\/wp-content\/uploads\/2020\/07\/16-1.jpg"",""https:\/\/vegeness.com\/wp-content\/uploads\/2020\/07\/16.jpg"",""https:\/\/vegeness.com\/wp-content\/uploads\/2020\/07\/dell00002464.jpg""]}",https://vegeness.com/wp-content/uploads/2020/07/16-1.jpg,"和食,ダイニング・居酒屋","veganメニューあり,ベジタリアンメニューあり,グルテンフリーメニューあり,英語メニューあり,テイクアウトあり"
33197,shop,publish,"Vegan cafe and Bar Karons",,"東京,関東,自由が丘・学芸大学・都立大学・祐天寺","{""name"":""Vegan cafe and Bar Karons\uff08\u30ab\u30ed\u30f3\u30ba\uff09"",""title"":"""",""zip"":""152-0004"",""addr"":""\u6771\u4eac\u90fd\u76ee\u9ed2\u533a\u9df9\u756a\uff13\u4e01\u76ee\uff11\uff18\u2212\uff13"",""acc"":""\u6771\u6025\u6771\u6a2a\u7dda\u5b66\u82b8\u5927\u5b66\u99c5 \u897f\u53e3\u3000\u5f92\u6b695\u5206"",""tel"":""03-6303-1807"",""hp"":""https:\/\/karons.favy.jp\/"",""price"":"""",""price_d"":""1,000\u5186\uff5e2,000\u5186"",""price_n"":""2,000\u5186\uff5e3,000\u5186"",""business_h"":""(\u706b)9:00\u301c18:00(\u6c34\u30fb\u6728)9:00\u301c21:00 (\u91d1\u30fb\u571f)10:00\u301c21:00 (\u65e5\u30fb\u795d\u65e5)10:00\u301c17:00"",""business_hd"":"""",""business_hn"":"""",""holiday"":""\u6708\u66dc\u65e5"",""seats"":""14\u5e2d"",""credit"":""\u73fe\u91d1\u30fb\u30ab\u30fc\u30c9\u30fb\u96fb\u5b50\u30de\u30cd\u30fc"",""parking"":""\u8fd1\u96a3\u306b\u30b3\u30a4\u30f3\u30d1\u30fc\u30ad\u30f3\u30b0\u6709"",""swipe_num"":""4"",""swipe_imgs"":[""33200"",""33198"",""33199"",""33201""],""desc"":"""",""img_url"":[""https:\/\/vegeness.com\/wp-content\/uploads\/2020\/07\/dell00002466.jpg"",""https:\/\/vegeness.com\/wp-content\/uploads\/2020\/07\/dell00002468.jpg"",""https:\/\/vegeness.com\/wp-content\/uploads\/2020\/07\/dell00002465.jpg"",""https:\/\/vegeness.com\/wp-content\/uploads\/2020\/07\/dell00002467.jpg""]}",https://vegeness.com/wp-content/uploads/2020/07/dell00002466.jpg,カフェ・スイーツ,"100%Veganのお店,グルテンフリーメニューあり,英語メニューあり,テイクアウトあり"
33202,shop,publish,"Plus Veganique JIYUGAOKA",,"関東,自由が丘・学芸大学・都立大学・祐天寺","{""name"":""Plus Veganique JIYUGAOKA\uff08\u30d7\u30e9\u30b9\u30f4\u30a3\u30fc\u30ac\u30cb\u30c3\u30af\u81ea\u7531\u30f6\u4e18\uff09"",""title"":"""",""zip"":""152-0035"",""addr"":""\u6771\u4eac\u90fd\u76ee\u9ed2\u533a\u81ea\u7531\u304c\u4e18\uff11\u4e01\u76ee\uff11\uff19\u2212\uff12\uff13"",""acc"":""\u6771\u6025\u6771\u6a2a\u7dda\u30fb\u6771\u6025\u5927\u4e95\u753a\u7dda\u300c\u81ea\u7531\u304c\u4e18\u99c5\u300d\u6b63\u9762\u53e3\u3088\u308a\u5f92\u6b698\u5206"",""tel"":""050-5596-3954"",""hp"":""https:\/\/www.plus-veganique.com\/"",""price"":"""",""price_d"":""2,000\u5186\uff5e3,000\u5186"",""price_n"":""4,000\u5186\uff5e5,000\u5186"",""business_h"":"""",""business_hd"":""11:30~15:30"",""business_hn"":""17:00~21:00(L.O 19:00)"",""holiday"":""\u6c34\u66dc\u65e5"",""seats"":""20\u5e2d"",""credit"":""\u73fe\u91d1\u30fb\u30ab\u30fc\u30c9"",""parking"":""\u7121\u3057"",""swipe_num"":""3"",""swipe_imgs"":[""33204"",""33205"",""33203""],""desc"":"""",""img_url"":[""https:\/\/vegeness.com\/wp-content\/uploads\/2020\/07\/dell00002469.jpg"",""https:\/\/vegeness.com\/wp-content\/uploads\/2020\/07\/dell00002471.jpg"",""https:\/\/vegeness.com\/wp-content\/uploads\/2020\/07\/dell00002472.jpg""]}",https://vegeness.com/wp-content/uploads/2020/07/dell00002471.jpg,"イタリアン・フレンチ,カフェ・スイーツ","100%Veganのお店,グルテンフリーメニューあり,テイクアウトあり"
33206,shop,publish,"hallelu peacefood",,"東京,関東,自由が丘・学芸大学・都立大学・祐天寺","{""name"":""\u83dc\u98df\u3054\u306f\u3093\u306e\u5e97 hallelu peacefood(\u30cf\u30ec\u30eb \u30d4\u30fc\u30b9\u30d5\u30fc\u30c9)"",""title"":"""",""zip"":""158-0081"",""addr"":""\u6771\u4eac\u90fd\u4e16\u7530\u8c37\u533a\u5965\u6ca24-15-13 1F"",""acc"":""\u5965\u6ca2\u99c5\u304b\u3089\u5f92\u6b694\u5206"",""tel"":""03-6883-6640"",""hp"":""https:\/\/www.facebook.com\/hallelupeacefood\/"",""price"":"""",""price_d"":""1,000\u5186\uff5e2,000\u5186"",""price_n"":"""",""business_h"":""11:00\u301c18:00\uff08L.O17:00\uff09\u571f\u66dc\u306f16:00\u307e\u3067"",""business_hd"":"""",""business_hn"":"""",""holiday"":""\u65e5\u3001\u6708\uff08\u571f\u66dc\u4e0d\u5b9a\u4f11\uff09"",""seats"":"""",""credit"":""\u73fe\u91d1"",""parking"":""\u7121\u3057"",""swipe_num"":""4"",""swipe_imgs"":[""33208"",""33209"",""33210"",""33207""],""desc"":"""",""img_url"":[""https:\/\/vegeness.com\/wp-content\/uploads\/2020\/07\/dell00002473.jpg"",""https:\/\/vegeness.com\/wp-content\/uploads\/2020\/07\/dell00002474.jpg"",""https:\/\/vegeness.com\/wp-content\/uploads\/2020\/07\/dell00002475.jpg"",""https:\/\/vegeness.com\/wp-content\/uploads\/2020\/07\/dell00002476.jpg""]}",https://vegeness.com/wp-content/uploads/2020/07/dell00002473.jpg,"アジア・エスニック料理,カフェ・スイーツ","veganメニューあり,テイクアウトあり"
33211,shop,publish,"VEGAN BURGER NOURISH",,"関東,神奈川,武蔵小杉・元住吉・日吉","{""name"":""VEGAN BURGER NOURISH\uff08\u30d3\u30fc\u30ac\u30f3\u30d0\u30fc\u30ac\u30fc \u30ca\u30fc\u30ea\u30c3\u30b7\u30e5\uff09"",""title"":"""",""zip"":""211-0063"",""addr"":""\u795e\u5948\u5ddd\u770c\u5ddd\u5d0e\u5e02\u4e2d\u539f\u533a\u5c0f\u6749\u753a1-526-21 \u7b1b\u6728\u30d3\u30eb 1F"",""acc"":""\u6771\u6025\u6771\u6a2a\u7dda\u3000\u65b0\u4e38\u5b50\u99c5\u3000\u897f\u53e3\u3088\u308a\u5f92\u6b692\u5206"",""tel"":""044-543-8603"",""hp"":""https:\/\/www.facebook.com\/Vegan-Burger-Nourish-308923533193074\/?modal=admin_todo_tour"",""price"":"""",""price_d"":""1,000\u5186\uff5e2,000\u5186"",""price_n"":""1,000\u5186\uff5e2,000\u5186"",""business_h"":""11:30\uff5e21:00\uff08L.O 20:30\uff09"",""business_hd"":"""",""business_hn"":"""",""holiday"":""\u4e0d\u5b9a\u4f11"",""seats"":""10\u5e2d"",""credit"":""\u73fe\u91d1"",""parking"":""\u8fd1\u96a3\u306b\u30b3\u30a4\u30f3\u30d1\u30fc\u30ad\u30f3\u30b0\u6709"",""swipe_num"":""5"",""swipe_imgs"":[""33212"",""33214"",""33216"",""33215"",""33213""],""desc"":"""",""img_url"":[""https:\/\/vegeness.com\/wp-content\/uploads\/2020\/07\/dell00002481.jpg"",""https:\/\/vegeness.com\/wp-content\/uploads\/2020\/07\/dell00002478.jpg"",""https:\/\/vegeness.com\/wp-content\/uploads\/2020\/07\/dell00002480.jpg"",""https:\/\/vegeness.com\/wp-content\/uploads\/2020\/07\/dell00002479.jpg"",""https:\/\/vegeness.com\/wp-content\/uploads\/2020\/07\/dell00002477.jpg""]}",https://vegeness.com/wp-content/uploads/2020/07/dell00002481.jpg,洋食,"100%Veganのお店,グルテンフリーメニューあり,英語メニューあり,テイクアウトあり,宅配サービス"
33217,shop,publish,"Gavy Setagaya（ギャビーセタガヤ）",,"東京,関東,駒沢大学・三軒茶屋・池尻大橋","{""name"":""Gavy Setagaya\uff08\u30ae\u30e3\u30d3\u30fc\u30bb\u30bf\u30ac\u30e4\uff09"",""title"":"""",""zip"":""154-0017"",""addr"":""\u6771\u4eac\u90fd\u4e16\u7530\u8c37\u533a\u4e16\u7530\u8c37\uff12\u4e01\u76ee\uff16\u2212\uff15 \u30b0\u30ea\u30fc\u30f3\u30a2\u30cd\u30c3\u30af\u30b9II 102"",""acc"":""\u6771\u6025\u4e16\u7530\u8c37\u7dda\u4e0a\u753a\u99c5\u5f92\u6b691\u5206"",""tel"":""03-5799-6870"",""hp"":""https:\/\/yakuzen-ramen.favy.jp\/"",""price"":"""",""price_d"":""1,000\u5186\uff5e2,000\u5186"",""price_n"":""1,000\u5186\uff5e2,000\u5186"",""business_h"":"""",""business_hd"":""11:30\uff5e14:00 (L.O\uff09"",""business_hn"":""18:00\u301c20:30\uff08L.O\uff09"",""holiday"":""\u4e0d\u5b9a\u4f11"",""seats"":""8\u5e2d"",""credit"":""\u73fe\u91d1"",""parking"":""\u8fd1\u96a3\u306b\u30b3\u30a4\u30f3\u30d1\u30fc\u30ad\u30f3\u30b0\u6709"",""swipe_num"":""3"",""swipe_imgs"":[""33220"",""33219"",""33218""],""desc"":"""",""img_url"":[""https:\/\/vegeness.com\/wp-content\/uploads\/2020\/07\/dell00002483.jpg"",""https:\/\/vegeness.com\/wp-content\/uploads\/2020\/07\/dell00002482.jpg"",""https:\/\/vegeness.com\/wp-content\/uploads\/2020\/07\/dell00002484.jpg""]}",https://vegeness.com/wp-content/uploads/2020/07/dell00002483.jpg,"イタリアン・フレンチ,ラーメン","veganメニューあり,vegan対応可,グルテンフリーメニューあり,テイクアウトあり,宅配サービス"
33221,shop,publish,KLASINA,,"東京,関東,下北沢・代々木上原","{""name"":""KLASINA"",""title"":"""",""zip"":""155-0031"",""addr"":""\u6771\u4eac\u90fd\u4e16\u7530\u8c37\u533a\u5317\u6ca23-26-6 \u672c\u58021 1F"",""acc"":""\u5c0f\u7530\u6025\u7dda\u30fb\u4e95\u306e\u982d\u7dda\uff08\u3068\u3082\u306b\u6025\u884c\u505c\u8eca\uff09\u4e0b\u5317\u6ca2\u6771\u53e3\u3088\u308a\u5f92\u6b694 \u5206"",""tel"":""03-3466-3596\uff08\u5b8c\u5168\u4e88\u7d04\u5236\uff09"",""hp"":""https:\/\/klasina.tokyo\/"",""price"":"""",""price_d"":""2,000\u5186\uff5e3,000\u5186"",""price_n"":""4,000\u5186\uff5e5,000\u5186"",""business_h"":""\u30a2\u30c8\u30ea\u30a8\u5e97\u982d\u306b\u3066\u304a\u60e3\u83dc\u306e\u30b2\u30ea\u30e9\u8ca9\u58f2\u958b\u50ac\u4e2d\uff01"",""business_hd"":"""",""business_hn"":"""",""holiday"":""\u4e0d\u5b9a\u4f11"",""seats"":""12\u5e2d"",""credit"":""\u73fe\u91d1"",""parking"":""\u7121\u3057"",""swipe_num"":""1"",""swipe_imgs"":[""33222""],""desc"":"""",""img_url"":[""https:\/\/vegeness.com\/wp-content\/uploads\/2020\/07\/dell00002485.jpg""]}",https://vegeness.com/wp-content/uploads/2020/07/dell00002485-2.jpg,"和食,弁当、デリカテッセン","100%Veganのお店,テイクアウトあり"
33223,shop,publish,"KO-SO CAFE",,"東京,関東,渋谷・恵比寿・代官山・中目黒","{""name"":""KO-SO CAFE BIORISE\uff08\u30b3\u30a6\u30bd\u30ab\u30d5\u30a7 \u30d3\u30aa\u30e9\u30a4\u30ba\uff09"",""title"":"""",""zip"":""150-0011"",""addr"":""\u6771\u4eac\u90fd\u6e0b\u8c37\u533a\u6771\uff13\u4e01\u76ee\uff12\uff15\u2212\uff13 \u30e9\u30a4\u30aa\u30f3\u30ba\u30d7\u30e9\u30b6\u6075\u6bd4\u5bff 1F"",""acc"":""JR\u5c71\u624b\u7dda\u30fb\u57fc\u4eac\u7dda\u3000\u6075\u6bd4\u5bff\u99c5\u897f\u53e3 \u5f92\u6b694\u5206"",""tel"":""03-3409-3405"",""hp"":""https:\/\/www.ko-so-cafe.jp\/"",""price"":"""",""price_d"":""1,000\u5186\uff5e2,000\u5186"",""price_n"":""2,000\u5186\uff5e3,000\u5186"",""business_h"":""11\uff1a00\uff5e21\uff1a00\uff08L.O 20:30)"",""business_hd"":"""",""business_hn"":"""",""holiday"":""\u6c34\u66dc\u65e5"",""seats"":""23\u5e2d"",""credit"":""\u73fe\u91d1\u30fb\u30ab\u30fc\u30c9"",""parking"":""\u8fd1\u96a3\u306b\u30b3\u30a4\u30f3\u30d1\u30fc\u30ad\u30f3\u30b0\u6709"",""swipe_num"":""7"",""swipe_imgs"":[""33226"",""33229"",""33230"",""33228"",""33227"",""33225"",""33224""],""desc"":"""",""img_url"":[""https:\/\/vegeness.com\/wp-content\/uploads\/2020\/07\/dell00002489.jpg"",""https:\/\/vegeness.com\/wp-content\/uploads\/2020\/07\/dell00002492.jpg"",""https:\/\/vegeness.com\/wp-content\/uploads\/2020\/07\/dell00002493.jpg"",""https:\/\/vegeness.com\/wp-content\/uploads\/2020\/07\/dell00002491.jpg"",""https:\/\/vegeness.com\/wp-content\/uploads\/2020\/07\/dell00002490.jpg"",""https:\/\/vegeness.com\/wp-content\/uploads\/2020\/07\/dell00002488.jpg"",""https:\/\/vegeness.com\/wp-content\/uploads\/2020\/07\/dell00002487.jpg""]}",https://vegeness.com/wp-content/uploads/2020/07/dell00002493.jpg,"和食,カフェ・スイーツ","veganメニューあり,テイクアウトあり,オンライン ストアあり"
33231,shop,publish,"WE ARE THE FARM EBISU",,"東京,関東,渋谷・恵比寿・代官山・中目黒","{""name"":""WE ARE THE FARM EBISU\uff08\u30a6\u30a3\u30fc\u30a2\u30fc\u30b6\u30d5\u30a1\u30fc\u30e0\u6075\u6bd4\u5bff\uff09"",""title"":"""",""zip"":""150-0021"",""addr"":""\u6771\u4eac\u90fd\u6e0b\u8c37\u533a\u6075\u6bd4\u5bff\u897f\uff18\u2212\uff18 2 Chome\u22128\u221210 ORIX\u6075\u6bd4\u5bff\u897f\u30d3\u30eb 1F"",""acc"":""JR\u6075\u6bd4\u5bff\u99c5 \u5f92\u6b69\uff15\u5206"",""tel"":""03-5784-3877"",""hp"":""https:\/\/wearethefarm-ebisu.com\/?utm_source=google&utm_medium=maps"",""price"":"""",""price_d"":""1,000\u5186\uff5e2,000\u5186"",""price_n"":""4,000\u5186\uff5e5,000\u5186"",""business_h"":"""",""business_hd"":""11:30\u301c14:30\uff08LO14:00\uff09"",""business_hn"":""17:00\u301c23:30\uff08LO22:45\uff09\u65e5\u30fb\u795d\u65e5\u6700\u7d42\u65e5\u306f\u301c22:30"",""holiday"":""\u306a\u3057"",""seats"":""50\u5e2d"",""credit"":""\u73fe\u91d1\u30fb\u30ab\u30fc\u30c9"",""parking"":""\u8fd1\u96a3\u306b\u30b3\u30a4\u30f3\u30d1\u30fc\u30ad\u30f3\u30b0\u6709"",""swipe_num"":""1"",""swipe_imgs"":[""33232""],""desc"":"""",""img_url"":[""https:\/\/vegeness.com\/wp-content\/uploads\/2020\/07\/dell00002494.jpg""]}",https://vegeness.com/wp-content/uploads/2020/07/dell00002494.jpg,イタリアン・フレンチ,"vegan対応可,ベジタリアンメニューあり,英語メニューあり,テイクアウトあり"
33233,shop,publish,"WE ARE THE FARM 渋谷",,"東京,関東,渋谷・恵比寿・代官山・中目黒","{""name"":""WE ARE THE FARM\uff08\u30a6\u30a3\u30fc\u30a2\u30fc\u30b6\u30d5\u30a1\u30fc\u30e0\uff09 \u6e0b\u8c37"",""title"":"""",""zip"":""150-0046"",""addr"":""\u6771\u4eac\u90fd\u6e0b\u8c37\u533a\u677e\u6fe41-28-11 Pigeon\u677e\u6fe4\u9ad9\u7530\u30d3\u30eb 1F"",""acc"":""JR\u3001\u79c1\u9244\u5404\u7dda \u6e0b\u8c37\u99c5\u3088\u308a\u5f92\u6b69 8\u5206"",""tel"":""03-6416-0724"",""hp"":""https:\/\/allfarm.co.jp\/restaurant\/watf\/"",""price"":"""",""price_d"":""1,000\u5186\uff5e2,000\u5186"",""price_n"":""4,000\u5186\uff5e5,000\u5186"",""business_h"":"""",""business_hd"":""11:30\uff5e15:30\uff08L.O.15:00\uff09"",""business_hn"":""17:00\uff5e24:00\uff08L.O.23:00\uff09"",""holiday"":""\u4e0d\u5b9a\u4f11"",""seats"":""55\u5e2d"",""credit"":""\u73fe\u91d1\u30fb\u30ab\u30fc\u30c9"",""parking"":""\u8fd1\u96a3\u306b\u30b3\u30a4\u30f3\u30d1\u30fc\u30ad\u30f3\u30b0\u6709"",""swipe_num"":""1"",""swipe_imgs"":[""33234""],""desc"":"""",""img_url"":[""https:\/\/vegeness.com\/wp-content\/uploads\/2020\/07\/dell00002495.jpg""]}",https://vegeness.com/wp-content/uploads/2020/07/dell00002495.jpg,"イタリアン・フレンチ,カフェ・スイーツ","vegan対応可,ベジタリアンメニューあり,グルテンフリーメニューあり,英語メニューあり"
33235,shop,publish,"WE ARE THE FARM 赤坂",,"東京,関東,赤坂・六本木・麻布","{""name"":""WE ARE THE FARM\uff08\u30a6\u30a3\u30fc\u30a2\u30fc\u30b6\u30d5\u30a1\u30fc\u30e0\uff09\u8d64\u5742"",""title"":"""",""zip"":""107-0052"",""addr"":""\u6771\u4eac\u90fd\u6e2f\u533a\u8d64\u57422-17-69 1F"",""acc"":""\u6771\u4eac\u30e1\u30c8\u30ed\u5343\u4ee3\u7530\u7dda \uff0f \u8d64\u5742\u99c5(\u51fa\u5165\u53e32) \u5f92\u6b693\u5206"",""tel"":""03-6441-2745"",""hp"":""https:\/\/allfarm.co.jp\/restaurant\/watf\/"",""price"":"""",""price_d"":""1,000\u5186\uff5e2,000\u5186"",""price_n"":""5,000\u5186\uff5e6,000\u5186"",""business_h"":"""",""business_hd"":""11:30\uff5e14:30\uff08LO14:00\uff09"",""business_hn"":""18:00\uff5e24:00\uff08LO23:00\uff09"",""holiday"":""\u4e0d\u5b9a\u4f11"",""seats"":""82\u5e2d"",""credit"":""\u73fe\u91d1\u30fb\u30ab\u30fc\u30c9"",""parking"":""\u8fd1\u96a3\u306b\u30b3\u30a4\u30f3\u30d1\u30fc\u30ad\u30f3\u30b0\u6709"",""swipe_num"":""1"",""swipe_imgs"":[""33236""],""desc"":"""",""img_url"":[""https:\/\/vegeness.com\/wp-content\/uploads\/2020\/07\/dell00002496.jpg""]}",https://vegeness.com/wp-content/uploads/2020/07/dell00002496.jpg,"イタリアン・フレンチ,カフェ・スイーツ","vegan対応可,ベジタリアンメニューあり,グルテンフリーメニューあり,英語メニューあり"
33237,shop,publish,"WE ARE THE FARM 麻布十番",,"東京,関東,赤坂・六本木・麻布","{""name"":""WE ARE THE FARM\uff08\u30a6\u30a3\u30fc\u30a2\u30fc\u30b6\u30d5\u30a1\u30fc\u30e0\uff09\u9ebb\u5e03\u5341\u756a"",""title"":"""",""zip"":""106-0046"",""addr"":""\u6771\u4eac\u90fd\u6e2f\u533a\u5143\u9ebb\u5e033-10-4 Re-Flat 1F"",""acc"":""\u5357\u5317\u7dda\u9ebb\u5e03\u5341\u756a4\u756a\u51fa\u53e3\u304b\u3089\u5f92\u6b697\u5206"",""tel"":""03-6447-5510"",""hp"":""https:\/\/wearethefarm-azabu.com\/"",""price"":"""",""price_d"":""1,000\u5186\uff5e2,000\u5186"",""price_n"":""5,000\u5186\uff5e6,000\u5186"",""business_h"":"""",""business_hd"":""11:30\u301c15:00(LO14:30)"",""business_hn"":""17:00\u301c23:30 (LO. 22:45)\u3000\u65e5\u66dc\u306f 17:00\u301c23:00 (LO. 22:00)"",""holiday"":""\u4e0d\u5b9a\u4f11"",""seats"":""50\u5e2d"",""credit"":""\u73fe\u91d1\u30fb\u30ab\u30fc\u30c9"",""parking"":""\u8fd1\u96a3\u306b\u30b3\u30a4\u30f3\u30d1\u30fc\u30ad\u30f3\u30b0\u6709"",""swipe_num"":""1"",""swipe_imgs"":[""33238""],""desc"":"""",""img_url"":[""https:\/\/vegeness.com\/wp-content\/uploads\/2020\/07\/dell00002497.jpg""]}",https://vegeness.com/wp-content/uploads/2020/07/dell00002497.jpg,"イタリアン・フレンチ,カフェ・スイーツ","vegan対応可,ベジタリアンメニューあり,英語メニューあり,テイクアウトあり,宅配サービス"
33239,shop,publish,"WE ARE THE FARM 目黒",,"東京,関東,品川・目黒・五反田","{""name"":""WE ARE THE FARM(\u30a6\u30a3\u30fc\u30a2\u30fc\u30b6\u30d5\u30a1\u30fc\u30e0)\u76ee\u9ed2"",""title"":"""",""zip"":""153-0063"",""addr"":""\u6771\u4eac\u90fd\u76ee\u9ed2\u533a\u76ee\u9ed21-5-16 \u7d4c\u7814\u7b2c2\u30d3\u30eb B1F"",""acc"":""JR\u5c71\u624b\u7dda\u76ee\u9ed2\u99c5\u304b\u3089\u5f92\u6b69\uff13\u5206"",""tel"":""03-5747-9607"",""hp"":""https:\/\/allfarm.co.jp\/restaurant\/watf\/"",""price"":"""",""price_d"":""1,000\u5186\uff5e2,000\u5186"",""price_n"":""5,000\u5186\uff5e6,000\u5186"",""business_h"":"""",""business_hd"":""11:30\u301c15:00 (LO. 14:30) \u6708\u66dc\u306f\u304a\u4f11\u307f"",""business_hn"":""17:00\u301c24:00 (LO. 23:00)"",""holiday"":""\u4e0d\u5b9a\u4f11"",""seats"":""50\u5e2d"",""credit"":""\u73fe\u91d1\u30fb\u30ab\u30fc\u30c9"",""parking"":""\u8fd1\u96a3\u306b\u30b3\u30a4\u30f3\u30d1\u30fc\u30ad\u30f3\u30b0\u6709"",""swipe_num"":""1"",""swipe_imgs"":[""33240""],""desc"":"""",""img_url"":[""https:\/\/vegeness.com\/wp-content\/uploads\/2020\/07\/dell00002498.jpg""]}",https://vegeness.com/wp-content/uploads/2020/07/dell00002498.jpg,"イタリアン・フレンチ,カフェ・スイーツ","vegan対応可,ベジタリアンメニューあり,英語メニューあり"
33242,shop,publish,"Alaska zwei",,"東京,関東,駒沢大学・三軒茶屋・池尻大橋","{""name"":""Alaska zwei\uff08\u30a2\u30e9\u30b9\u30ab \u30c4\u30f4\u30a1\u30a4\uff09"",""title"":"""",""zip"":""153-0043"",""addr"":""\u6771\u4eac\u90fd\u76ee\u9ed2\u533a\u6771\u5c71\uff12\u4e01\u76ee\uff15\u2212\uff17"",""acc"":""\u6c60\u5c3b\u5927\u6a4b\u99c5\u3088\u308a\u5f92\u6b699\u5206"",""tel"":""03-6425-7399"",""hp"":""https:\/\/www.facebook.com\/alaskazwei\/"",""price"":"""",""price_d"":""1,000\u5186\uff5e2,000\u5186"",""price_n"":""1,000\u5186\uff5e2,000\u5186"",""business_h"":""[\u6708\u30fb\u706b\u30fb\u6728\u30fb\u571f\u30fb\u65e5] 11:30\uff5e21:00(L.O.20:30) [\u6c34] 11:30\u301c16:00(L.O.15:30) [\u91d1] 11:30\uff5e22:30(L.O.21:30)"",""business_hd"":""11:30\uff5e15:00"",""business_hn"":""18:00\uff5e"",""holiday"":""\u4e0d\u5b9a\u4f11"",""seats"":""22\u5e2d"",""credit"":""\u73fe\u91d1\u30fb\u30ab\u30fc\u30c9"",""parking"":""\u8fd1\u96a3\u306b\u30b3\u30a4\u30f3\u30d1\u30fc\u30ad\u30f3\u30b0\u6709"",""swipe_num"":""4"",""swipe_imgs"":[""33243"",""33245"",""33246"",""33244""],""desc"":"""",""img_url"":[""https:\/\/vegeness.com\/wp-content\/uploads\/2020\/07\/dell00002502.jpg"",""https:\/\/vegeness.com\/wp-content\/uploads\/2020\/07\/dell00002500.jpg"",""https:\/\/vegeness.com\/wp-content\/uploads\/2020\/07\/dell00002501.jpg"",""https:\/\/vegeness.com\/wp-content\/uploads\/2020\/07\/dell00002499.jpg""]}",https://vegeness.com/wp-content/uploads/2020/07/dell00002500.jpg,"カフェ・スイーツ,ダイニング・居酒屋","英語メニューあり,テイクアウトあり,オンライン ストアあり,料理教室あり"
33247,shop,publish,ヴェジハーブサーガ,,"東京,関東,上野・御徒町・浅草","{""name"":""VEGE HERB SAGA\uff08\u30f4\u30a7\u30b8\u30cf\u30fc\u30d6\u30b5\u30fc\u30ac\uff09"",""title"":"""",""zip"":""110-0005"",""addr"":""\u6771\u4eac\u90fd\u53f0\u6771\u533a\u4e0a\u91ce\uff15\u4e01\u76ee\uff12\uff12\u2212\uff11 \u6771\u9234\u30d3\u30eb B1"",""acc"":""JR\u5fa1\u5f92\u753a\u99c5\u3001\u6771\u4eac\u30e1\u30c8\u30ed\u65e5\u6bd4\u8c37\u7dda\u4ef2\u5fa1\u5f92\u753a\u99c5\u304b\u3089\u5f92\u6b69\uff12\u5206"",""tel"":""03-5818-4154"",""hp"":""http:\/\/www.vegeherbsaga.com\/"",""price"":"""",""price_d"":""1,000\u5186\uff5e2,000\u5186"",""price_n"":""2,000\u5186\uff5e3,000\u5186"",""business_h"":"""",""business_hd"":""11:15\uff5e15:00\uff08L.O.14:30\uff09"",""business_hn"":""17:15\uff5e23:00\uff08L.O.22:30"",""holiday"":""\u306a\u3057"",""seats"":""32\u5e2d"",""credit"":""\u73fe\u91d1"",""parking"":""\u8fd1\u96a3\u306b\u30b3\u30a4\u30f3\u30d1\u30fc\u30ad\u30f3\u30b0\u6709"",""swipe_num"":""4"",""swipe_imgs"":[""33249"",""33250"",""33248"",""33251""],""desc"":"""",""img_url"":[""https:\/\/vegeness.com\/wp-content\/uploads\/2020\/07\/dell00002503.jpg"",""https:\/\/vegeness.com\/wp-content\/uploads\/2020\/07\/dell00002504.jpg"",""https:\/\/vegeness.com\/wp-content\/uploads\/2020\/07\/dell00002506.jpg"",""https:\/\/vegeness.com\/wp-content\/uploads\/2020\/07\/dell00002505.jpg""]}",https://vegeness.com/wp-content/uploads/2020/07/dell00002503.jpg,アジア・エスニック料理,"veganメニューあり,ベジタリアンメニューあり,グルテンフリーメニューあり,英語メニューあり,料理教室あり"
33252,shop,publish,"Two Dogs Taproom",,"東京,関東,赤坂・六本木・麻布","{""name"":""Two Dogs Taproom\uff08\u30c8\u30a5\u30fc\u00b7\u30c9\u30c3\u30b0\u30b9\u00b7\u30bf\u30c3\u30d7\u30eb\u30fc\u30e0\uff09"",""title"":"""",""zip"":""106-0032"",""addr"":""\u6771\u4eac\u90fd\u6e2f\u533a\u516d\u672c\u6728\uff13\u4e01\u76ee\uff11\uff15\u2212\uff12\uff14 \u30a2\u30ea\u30a8\u30b9\u30d3\u30eb 2F"",""acc"":""\u6771\u4eac\u30e1\u30c8\u30ed\u65e5\u6bd4\u8c37\u7dda\u3001\u90fd\u55b6\u5730\u4e0b\u9244\u5927\u6c5f\u6238\u7dda\u3000\u516d\u672c\u6728\u99c5\u3000\u5f92\u6b69\uff14\u5206"",""tel"":""03-5413-0333"",""hp"":""https:\/\/www.twodogs-tokyo.com\/"",""price"":"""",""price_d"":""\uff5e1,000\u5186"",""price_n"":""3,000\u5186\uff5e4,000\u5186"",""business_h"":"""",""business_hd"":""12:00\uff5e14:30\uff08L.O)\u571f\u65e5\u795d\u306f\u304a\u4f11\u307f"",""business_hn"":""17:00\uff5e23:30"",""holiday"":""\u306a\u3057"",""seats"":""72\u5e2d"",""credit"":""\u73fe\u91d1\u30fb\u30ab\u30fc\u30c9\u30fb\u96fb\u5b50\u30de\u30cd\u30fc"",""parking"":""\u8fd1\u96a3\u306b\u30b3\u30a4\u30f3\u30d1\u30fc\u30ad\u30f3\u30b0\u6709"",""swipe_num"":""5"",""swipe_imgs"":[""33254"",""33256"",""33257"",""33255"",""33253""],""desc"":"""",""img_url"":[""https:\/\/vegeness.com\/wp-content\/uploads\/2020\/07\/dell00002511.jpg"",""https:\/\/vegeness.com\/wp-content\/uploads\/2020\/07\/dell00002508.jpg"",""https:\/\/vegeness.com\/wp-content\/uploads\/2020\/07\/dell00002509.jpg"",""https:\/\/vegeness.com\/wp-content\/uploads\/2020\/07\/dell00002507.jpg"",""https:\/\/vegeness.com\/wp-content\/uploads\/2020\/07\/dell00002510.jpg""]}",https://vegeness.com/wp-content/uploads/2020/07/dell00002511.jpg,"洋食,カフェ・スイーツ,ダイニング・居酒屋","veganメニューあり,ベジタリアンメニューあり,英語メニューあり,テイクアウトあり,宅配サービス"
33270,shop,publish,"SINCERE GARDEN CAFE",,"東京,原宿・青山・表参道,関東","{""name"":""SINCERE GARDEN CAFE(\u30b7\u30f3\u30b7\u30a2\u30ac\u30fc\u30c7\u30f3\u30ab\u30d5\u30a7)"",""title"":"""",""zip"":""107-0061"",""addr"":""\u6771\u4eac\u90fd\u6e2f\u533a\u5317\u9752\u5c713-5-4 \u9752\u5c71\u9ad8\u91ce\u30d3\u30eb2F"",""acc"":""\u8868\u53c2\u9053\u99c5\u304b\u3089\u5f92\u6b694\u5206"",""tel"":""03-5775-7375"",""hp"":""https:\/\/www.sincere-garden.com\/"",""price"":"""",""price_d"":""1,000\u5186\uff5e2,000\u5186"",""price_n"":""1,000\u5186\uff5e2,000\u5186"",""business_h"":""11:30\uff5e20:00\uff08L.O.19:00\uff09"",""business_hd"":"""",""business_hn"":"""",""holiday"":""\u5e74\u672b\u5e74\u59cb"",""seats"":""7\u5e2d"",""credit"":""\u73fe\u91d1"",""parking"":""\u8fd1\u96a3\u306b\u30b3\u30a4\u30f3\u30d1\u30fc\u30ad\u30f3\u30b0\u6709"",""swipe_num"":""4"",""swipe_imgs"":[""33274"",""33272"",""33273"",""33271""],""desc"":"""",""img_url"":[""https:\/\/vegeness.com\/wp-content\/uploads\/2020\/07\/dell00002514.jpg"",""https:\/\/vegeness.com\/wp-content\/uploads\/2020\/07\/dell00002512.jpg"",""https:\/\/vegeness.com\/wp-content\/uploads\/2020\/07\/dell00002513.jpg"",""https:\/\/vegeness.com\/wp-content\/uploads\/2020\/07\/dell00002516.jpg""]}",https://vegeness.com/wp-content/uploads/2020/07/dell00002514.jpg,カフェ・スイーツ,"veganメニューあり,ベジタリアンメニューあり,グルテンフリーメニューあり,英語メニューあり,テイクアウトあり"
33276,shop,publish,ワインワークス南青山,,"東京,原宿・青山・表参道,関東","{""name"":""WINEWORKS(\u30ef\u30a4\u30f3\u30ef\u30fc\u30af\u30b9)\u5357\u9752\u5c71"",""title"":"""",""zip"":""107-0062"",""addr"":""\u6771\u4eac\u90fd\u6e2f\u533a\u5357\u9752\u5c71\uff13\u4e01\u76ee\uff12\u2212\uff13 \u30ab\u30c8\u30ec\u30a2\u30d3\u30eb \uff12\u968e"",""acc"":""\u6771\u4eac\u30e1\u30c8\u30ed\u9280\u5ea7\u7dda \u5916\u82d1\u524d\u99c51a\u51fa\u53e3\u304b\u3089\u3001\u5f92\u6b694\u5206"",""tel"":""03-6721-1400"",""hp"":""https:\/\/wineworks.jp\/"",""price"":"""",""price_d"":"""",""price_n"":""5,000\u5186\uff5e6,000\u5186"",""business_h"":"""",""business_hd"":"""",""business_hn"":""17:00\u301c22:00(L.O.21:00)"",""holiday"":""\u6708\u65e5\u795d\uff08\u571f\u66dc\u65e5\u306f\u4e0d\u5b9a\u671f\u55b6\u696d\uff09"",""seats"":""35\u5e2d"",""credit"":""\u73fe\u91d1\u30fb\u30ab\u30fc\u30c9\u30fb\u96fb\u5b50\u30de\u30cd\u30fc"",""parking"":""\u8fd1\u96a3\u306b\u30b3\u30a4\u30f3\u30d1\u30fc\u30ad\u30f3\u30b0\u6709"",""swipe_num"":""7"",""swipe_imgs"":[""33279"",""33280"",""33283"",""33281"",""33277"",""33278"",""33282""],""desc"":"""",""img_url"":[""https:\/\/vegeness.com\/wp-content\/uploads\/2020\/07\/dell00002520.jpg"",""https:\/\/vegeness.com\/wp-content\/uploads\/2020\/07\/dell00002521.jpg"",""https:\/\/vegeness.com\/wp-content\/uploads\/2020\/07\/dell00002524.jpg"",""https:\/\/vegeness.com\/wp-content\/uploads\/2020\/07\/dell00002522.jpg"",""https:\/\/vegeness.com\/wp-content\/uploads\/2020\/07\/dell00002517.jpg"",""https:\/\/vegeness.com\/wp-content\/uploads\/2020\/07\/dell00002519.jpg"",""https:\/\/vegeness.com\/wp-content\/uploads\/2020\/07\/dell00002523.jpg""]}",https://vegeness.com/wp-content/uploads/2020/07/dell00002521.jpg,ダイニング・居酒屋,"veganメニューあり,テイクアウトあり"
33284,shop,publish,真さか,,"東京,関東,渋谷・恵比寿・代官山・中目黒","{""name"":""\u5c45\u9152\u5c4b \u771f\u3055\u304b\uff08\u307e\u3055\u304b\uff09"",""title"":"""",""zip"":"""",""addr"":""\u6771\u4eac\u90fd\u6e0b\u8c37\u533a\u5b87\u7530\u5ddd\u753a15-1 \u6e0b\u8c37\u30d1\u30eb\u30b3\u3000PART1"",""acc"":""\u6e0b\u8c37\u99c5\u304b\u3089\u5f92\u6b69\uff16\u5206"",""tel"":""03-5422-3020"",""hp"":""https:\/\/www.masaka.ninja\/"",""price"":"""",""price_d"":""1,000\u5186\uff5e2,000\u5186"",""price_n"":""1,000\u5186\uff5e2,000\u5186"",""business_h"":""11:00\uff5e22:00"",""business_hd"":"""",""business_hn"":"""",""holiday"":""\u4e0d\u5b9a\u4f11"",""seats"":""20\u5e2d"",""credit"":""\u73fe\u91d1\u30fb\u30ab\u30fc\u30c9"",""parking"":""\u7121\u3057"",""swipe_num"":""1"",""swipe_imgs"":[""33285""],""desc"":"""",""img_url"":[""https:\/\/vegeness.com\/wp-content\/uploads\/2020\/07\/dell00002525.jpg""]}",https://vegeness.com/wp-content/uploads/2020/07/dell00002525.jpg,ダイニング・居酒屋,100%Veganのお店
33286,shop,publish,"炙り味噌らーめん　麺匠真武咲弥 渋谷店",,"東京,関東,渋谷・恵比寿・代官山・中目黒","{""name"":""\u7099\u308a\u5473\u564c\u3089\u30fc\u3081\u3093 \u9eba\u5320\u771f\u6b66\u54b2\u5f25\uff08\u3057\u3093\u3076\u3055\u304d\u3084\uff09\u6e0b\u8c37\u5e97"",""title"":"""",""zip"":""150-0043"",""addr"":""\u6771\u4eac\u90fd\u6e0b\u8c37\u533a\u9053\u7384\u57422-10-3"",""acc"":""JR\u5c71\u624b\u7dda\u4ed6\u3001\u6e0b\u8c37\u99c5\u304b\u3089\u5f92\u6b693\u5206"",""tel"":""03-6416-3778"",""hp"":""https:\/\/samurai-noodle.jp\/"",""price"":"""",""price_d"":""1,000\u5186\uff5e2,000\u5186"",""price_n"":""1,000\u5186\uff5e2,000\u5186"",""business_h"":""(\u706b\u66dc\u65e5\uff5e\u6728\u66dc\u65e5)11:00\uff5e\u7fcc\u671d5:00 (\u91d1\u66dc\u65e5\uff5e\u571f\u66dc\u65e5)11:00\uff5e\u7fcc\u671d7:00 (\u65e5\u66dc\u65e5)11:00\uff5e\u7fcc\u671d2:00"",""business_hd"":"""",""business_hn"":"""",""holiday"":""\u4e0d\u5b9a\u4f11"",""seats"":""28\u5e2d"",""credit"":""\u73fe\u91d1"",""parking"":""\u8fd1\u96a3\u306b\u30b3\u30a4\u30f3\u30d1\u30fc\u30ad\u30f3\u30b0\u6709"",""swipe_num"":""2"",""swipe_imgs"":[""33287"",""33288""],""desc"":"""",""img_url"":[""https:\/\/vegeness.com\/wp-content\/uploads\/2020\/07\/dell00002527.jpg"",""https:\/\/vegeness.com\/wp-content\/uploads\/2020\/07\/dell00002526.jpg""]}",https://vegeness.com/wp-content/uploads/2020/07/dell00002527.jpg,ラーメン,"veganメニューあり,ベジタリアンメニューあり,グルテンフリーメニューあり"
33290,shop,publish,ラビングハット,,"東京,関東,神田・秋葉原・御茶ノ水","{""name"":""\u30e9\u30d3\u30f3\u30b0\u30cf\u30c3\u30c8"",""title"":"""",""zip"":""101-0051"",""addr"":""\u6771\u4eac\u90fd\u5343\u4ee3\u7530\u533a \u795e\u7530\u795e\u4fdd\u753a\uff11\u4e01\u76ee54 \u5ca1\u7530\u30d3\u30eb 2F"",""acc"":""\u795e\u4fdd\u753a\u304b\u3089\u5f92\u6b697\u5206"",""tel"":""03-5577-6880"",""hp"":""http:\/\/lovinghut.jp\/"",""price"":"""",""price_d"":""\uff5e1,000\u5186"",""price_n"":"""",""business_h"":"""",""business_hd"":""(\u6c34\uff5e\u91d1)11:30-14:30(\u571f)\u30e9\u30f3\u30c1\u30d3\u30e5\u30c3\u30d5\u30a711:00-15:00"",""business_hn"":""17:00-20:30"",""holiday"":""\u65e5\uff5e\u706b\u66dc\u65e5\u3001\u795d\u65e5"",""seats"":""23\u5e2d"",""credit"":""\u73fe\u91d1"",""parking"":""\u8fd1\u96a3\u306b\u30b3\u30a4\u30f3\u30d1\u30fc\u30ad\u30f3\u30b0\u6709"",""swipe_num"":""4"",""swipe_imgs"":[""33291"",""33292"",""33293"",""33294""],""desc"":"""",""img_url"":[""https:\/\/vegeness.com\/wp-content\/uploads\/2020\/07\/dell00002529.jpg"",""https:\/\/vegeness.com\/wp-content\/uploads\/2020\/07\/dell00002530.jpg"",""https:\/\/vegeness.com\/wp-content\/uploads\/2020\/07\/dell00002531.jpg"",""https:\/\/vegeness.com\/wp-content\/uploads\/2020\/07\/dell00002528.jpg""]}",https://vegeness.com/wp-content/uploads/2020/07/dell00002530.jpg,中華,"100%Veganのお店,英語メニューあり,テイクアウトあり"
33295,shop,publish,"小料理バル 藤福 FUJIFUKU",,"東京,関東,上野・御徒町・浅草","{""name"":""\u5c0f\u6599\u7406\u30d0\u30eb \u85e4\u798f FUJIFUKU\uff08\u3075\u3058\u3075\u304f\uff09"",""title"":"""",""zip"":""111-0035"",""addr"":""\u6771\u4eac\u90fd\u53f0\u6771\u533a\u897f\u6d45\u83492-2-1 NAT\u30d3\u30eb 1F"",""acc"":""\u6d45\u8349\u96f7\u9580\u3088\u308a\u5f92\u6b695\u5206"",""tel"":""080-7305-2229"",""hp"":""https:\/\/fujifuku.business.site\/"",""price"":"""",""price_d"":"""",""price_n"":""3,000\u5186\uff5e4,000\u5186"",""business_h"":"""",""business_hd"":"""",""business_hn"":""18:00\uff5e22:00"",""holiday"":""\u6708\u66dc\u65e5"",""seats"":""10\u5e2d"",""credit"":""\u73fe\u91d1\u30fb\u30ab\u30fc\u30c9\u30fb\u96fb\u5b50\u30de\u30cd\u30fc"",""parking"":""\u8fd1\u96a3\u306b\u30b3\u30a4\u30f3\u30d1\u30fc\u30ad\u30f3\u30b0\u6709"",""swipe_num"":""2"",""swipe_imgs"":[""33296"",""33297""],""desc"":"""",""img_url"":[""https:\/\/vegeness.com\/wp-content\/uploads\/2020\/07\/dell00002533.jpg"",""https:\/\/vegeness.com\/wp-content\/uploads\/2020\/07\/dell00002532.jpg""]}",https://vegeness.com/wp-content/uploads/2020/07/dell00002532.jpg,和食,veganメニューあり
33541,shop,publish,野菜日和,,"愛知,東海,安城・刈谷・岡崎・知立・蒲郡","{""name"":""\u91ce\u83dc\u65e5\u548c"",""title"":"""",""zip"":""444-0044"",""addr"":""\u611b\u77e5\u770c\u5ca1\u5d0e\u5e02\u5eb7\u751f\u901a\u53573\u2212\uff14\uff12"",""acc"":""\u6771\u5ca1\u5d0e\u99c5\u304b\u3089\u5f92\u6b698\u5206"",""tel"":""0564-20-8567"",""hp"":""https:\/\/www.instagram.com\/831.biyori\/"",""price"":"""",""price_d"":""\uff5e1,000\u5186"",""price_n"":"""",""business_h"":"""",""business_hd"":""8:00\uff5e15:00"",""business_hn"":""17:00\uff5e21:00"",""holiday"":""\u6708\u66dc"",""seats"":"""",""credit"":""\u73fe\u91d1"",""parking"":"""",""swipe_num"":""2"",""swipe_imgs"":[""33543"",""33542""],""desc"":"""",""img_url"":[""https:\/\/vegeness.com\/wp-content\/uploads\/2020\/07\/dell00002538.jpg"",""https:\/\/vegeness.com\/wp-content\/uploads\/2020\/07\/dell00002539.jpg""]}",https://vegeness.com/wp-content/uploads/2020/07/dell00002538.jpg,カフェ・スイーツ,"vegan対応可,テイクアウトあり"
33544,shop,publish,精進cafeふぉい新通店,,"和歌山市,関西,和歌山","{""name"":""\u7cbe\u9032cafe\u3075\u3049\u3044\u65b0\u901a\u5e97"",""title"":"""",""zip"":""640-8111"",""addr"":""\u548c\u6b4c\u5c71\u770c\u548c\u6b4c\u5c71\u5e02\u65b0\u901a\uff13\u4e01\u76ee\uff13\u2212\uff11"",""acc"":""\u548c\u6b4c\u5c71\u99c5\u304b\u3089\u5f92\u6b6911\u5206"",""tel"":""073-426-5203"",""hp"":""https:\/\/shojincafe-foi.com\/"",""price"":""\uff5e1,000\u5186"",""price_d"":"""",""price_n"":"""",""business_h"":""11:00\uff5e18:30\uff08L.O.18:00\uff09"",""business_hd"":"""",""business_hn"":"""",""holiday"":""\u706b\u66dc\u65e5"",""seats"":"""",""credit"":""\u73fe\u91d1"",""parking"":""\u6709"",""swipe_num"":""5"",""swipe_imgs"":[""33546"",""33547"",""33548"",""33549"",""33545""],""desc"":"""",""img_url"":[""https:\/\/vegeness.com\/wp-content\/uploads\/2020\/07\/dell00002540.jpg"",""https:\/\/vegeness.com\/wp-content\/uploads\/2020\/07\/dell00002541.jpg"",""https:\/\/vegeness.com\/wp-content\/uploads\/2020\/07\/dell00002542.jpg"",""https:\/\/vegeness.com\/wp-content\/uploads\/2020\/07\/dell00002543.jpg"",""https:\/\/vegeness.com\/wp-content\/uploads\/2020\/07\/dell00002544.jpg""]}",https://vegeness.com/wp-content/uploads/2020/07/dell00002540.jpg,カフェ・スイーツ,"100%Veganのお店,テイクアウトあり,宅配サービス"
33550,shop,publish,"精進cafeふぉい 城北店",,"和歌山市,関西,和歌山","{""name"":""\u7cbe\u9032cafe\u3075\u3049\u3044 \u57ce\u5317\u5e97"",""title"":"""",""zip"":""640-8063"",""addr"":""\u548c\u6b4c\u5c71\u770c\u548c\u6b4c\u5c71\u5e02\u897f\u91d8\u8cab\u4e01\uff12\u4e01\u76ee\uff16\uff13"",""acc"":""\u548c\u6b4c\u5c71\u5e02\u99c5\u304b\u3089\u5f92\u6b697\u5206"",""tel"":""073-433-0355"",""hp"":""https:\/\/shojincafe-foi.com\/"",""price"":""1,000\u5186\uff5e2,000\u5186"",""price_d"":"""",""price_n"":"""",""business_h"":""11:00\uff5e21:00"",""business_hd"":"""",""business_hn"":"""",""holiday"":""\u6728\u66dc\u65e5"",""seats"":"""",""credit"":""\u73fe\u91d1"",""parking"":""\u6709(8\u53f0)"",""swipe_num"":""4"",""swipe_imgs"":[""33551"",""33548"",""33553"",""33552""],""desc"":"""",""img_url"":[""https:\/\/vegeness.com\/wp-content\/uploads\/2020\/07\/dell00002547.jpg"",""https:\/\/vegeness.com\/wp-content\/uploads\/2020\/07\/dell00002542.jpg"",""https:\/\/vegeness.com\/wp-content\/uploads\/2020\/07\/dell00002546.jpg"",""https:\/\/vegeness.com\/wp-content\/uploads\/2020\/07\/dell00002545.jpg""]}",https://vegeness.com/wp-content/uploads/2020/07/dell00002547.jpg,カフェ・スイーツ,"veganメニューあり,テイクアウトあり,宅配サービス"
33554,shop,publish,"Patisserie YoupiYoupi",,"大津市,滋賀,関西","{""name"":""Patisserie YoupiYoupi\uff08\u30d1\u30c6\u30a3\u30b9\u30ea\u30fc \u30e6\u30fc\u30d4\u30e6\u30fc\u30d4 \uff09"",""title"":"""",""zip"":""520-2143"",""addr"":""\u6ecb\u8cc0\u770c\u5927\u6d25\u5e02\u8431\u91ce\u6d6623-18"",""acc"":""JR\u702c\u7530\u99c5\u304b\u3089\u8eca\u3067\uff15\u5206"",""tel"":""077-544-1722"",""hp"":""http:\/\/youpiyoupi.setacai.com\/"",""price"":""\uff5e1,000\u5186"",""price_d"":"""",""price_n"":"""",""business_h"":""11:00\uff5e16:30\u203b\u30a4\u30fc\u30c8\u30a4\u30f3\u306f\u571f\u30fb\u65e5\u30fb\u795d\u306e\u307f\u53ef"",""business_hd"":"""",""business_hn"":"""",""holiday"":""\u4e0d\u5b9a\u4f11\uff08\u57fa\u672c\u3001\u6c34\u66dc\u65e5\u3092\u4f11\u307f\u3068\u3057\u3066\u3044\u307e\u3059\uff09"",""seats"":""16\u5e2d"",""credit"":""\u73fe\u91d1"",""parking"":""\u6709(5\u53f0)"",""swipe_num"":""3"",""swipe_imgs"":[""33555"",""33557"",""33556""],""desc"":"""",""img_url"":[""https:\/\/vegeness.com\/wp-content\/uploads\/2020\/07\/dell00002550.jpg"",""https:\/\/vegeness.com\/wp-content\/uploads\/2020\/07\/dell00002549.jpg"",""https:\/\/vegeness.com\/wp-content\/uploads\/2020\/07\/dell00002548.jpg""]}",https://vegeness.com/wp-content/uploads/2020/07/dell00002549.jpg,カフェ・スイーツ,"veganメニューあり,グルテンフリーメニューあり,テイクアウトあり,料理教室あり"
33558,shop,publish,"Nature Caf'e M's Nest",,"和歌山市,関西,和歌山","{""name"":""Nature Caf'e M's Nest\uff08\u30cd\u30a4\u30c1\u30e3\u30fc \u30ab\u30d5\u30a7 \u30a8\u30e0\u30ba \u30cd\u30b9\u30c8\uff09"",""title"":"""",""zip"":""640-0332"",""addr"":""\u548c\u6b4c\u5c71\u770c\u548c\u6b4c\u5c71\u5e02\u51ac\u91ce\uff15\uff13\uff16\u2212\uff11"",""acc"":""\u4ea4\u901a\u30bb\u30f3\u30bf\u30fc\u524d\u99c5\u304b\u3089\u8eca\u30675\u5206"",""tel"":""073-488-2805"",""hp"":""https:\/\/www.instagram.com\/explore\/locations\/618683471658590\/naturecafemsnest\/"",""price"":"""",""price_d"":""1,000\u5186\uff5e2,000\u5186"",""price_n"":"""",""business_h"":""11:00\uff5e17:00\u3000\u4f46\u3057\u571f\u65e5\u795d\u306f18:00\u307e\u3067"",""business_hd"":"""",""business_hn"":"""",""holiday"":""\u6c34\u66dc\u65e5"",""seats"":"""",""credit"":""\u73fe\u91d1"",""parking"":""\u6709"",""swipe_num"":""4"",""swipe_imgs"":[""33562"",""33561"",""33559"",""33560""],""desc"":"""",""img_url"":[""https:\/\/vegeness.com\/wp-content\/uploads\/2020\/07\/dell00002553.jpg"",""https:\/\/vegeness.com\/wp-content\/uploads\/2020\/07\/dell00002552.jpg"",""https:\/\/vegeness.com\/wp-content\/uploads\/2020\/07\/dell00002554.jpg"",""https:\/\/vegeness.com\/wp-content\/uploads\/2020\/07\/dell00002551.jpg""]}",https://vegeness.com/wp-content/uploads/2020/07/dell00002553.jpg,カフェ・スイーツ,"veganメニューあり,ベジタリアンメニューあり,テイクアウトあり"
33938,shop,publish,monologue（モノローグ）,,"愛知,東海,安城・刈谷・岡崎・知立・蒲郡","{""name"":""monologue\uff08\u30e2\u30ce\u30ed\u30fc\u30b0\uff09"",""title"":"""",""zip"":""444-0124"",""addr"":""\u611b\u77e5\u770c\u984d\u7530\u90e1\u5e78\u7530\u753a\u5927\u5b57\u6df1\u6e9d\u4e00\u30ce\u702c60"",""acc"":""\u4e09\u30f6\u6839\u99c5\u304b\u3089\u8eca\u3067\uff15\u5206"",""tel"":""0564-20-8187"",""hp"":""https:\/\/www.instagram.com\/monologue_official\/"",""price"":"""",""price_d"":"""",""price_n"":"""",""business_h"":""9:00\u301c18:00"",""business_hd"":""11:00\u301c15:00"",""business_hn"":"""",""holiday"":""\u91d1\u66dc\u65e5\u3001\u6bce\u67081\u65e5\u300115\u65e5"",""seats"":"""",""credit"":""\u73fe\u91d1"",""parking"":""\u6709"",""swipe_num"":1,""swipe_imgs"":[""28181""],""desc"":"""",""img_url"":[""https:\/\/vegeness.com\/wp-content\/uploads\/2020\/06\/1560031.jpg""]}",,カフェ・スイーツ,"veganメニューあり,ベジタリアンメニューあり"
33939,shop,publish,"Peace Cafe Hawaii",,"東京,関東,渋谷・恵比寿・代官山・中目黒","{""name"":""Peace Cafe Hawaii(\u30d4\u30fc\u30b9\u30ab\u30d5\u30a7\u30cf\u30ef\u30a4)"",""title"":"""",""zip"":""150-0002"",""addr"":""\u6771\u4eac\u90fd\u6e0b\u8c37\u533a\u6e0b\u8c372-24-12 \u6e0b\u8c37\u30b9\u30af\u30e9\u30f3\u30d6\u30eb\u30b9\u30af\u30a8\u30a2 \u30b7\u30e7\u30c3\u30d7\uff06\u30ec\u30b9\u30c8\u30e9\u30f3 \u5730\u4e0b2\u968e \u6771\u6025\u30d5\u30fc\u30c9\u30b7\u30e7\u30fc\u30a8\u30c3\u30b8\u5185\uff08\u6e0b\u8c37\u99c5\u76f4\u7d50\uff09"",""acc"":""\u6e0b\u8c37\u99c5\u76f4\u7d50"",""tel"":""03-6805-0826"",""hp"":""https:\/\/www.peacecafehawaii.jp\/index.html"",""price"":""1,000\u5186\uff5e2,000\u5186"",""price_d"":"""",""price_n"":"""",""business_h"":""10:00-21:00"",""business_hd"":"""",""business_hn"":"""",""holiday"":""\u4e0d\u5b9a\u4f11"",""seats"":"""",""credit"":""\u73fe\u91d1\u30fb\u30ab\u30fc\u30c9"",""parking"":"""",""swipe_num"":""2"",""swipe_imgs"":[""33940"",""33941""],""desc"":"""",""img_url"":[""https:\/\/vegeness.com\/wp-content\/uploads\/2020\/07\/dell00002558.jpg"",""https:\/\/vegeness.com\/wp-content\/uploads\/2020\/07\/dell00002557.jpg""]}",https://vegeness.com/wp-content/uploads/2020/07/dell00002558.jpg,弁当、デリカテッセン,"100%Veganのお店,テイクアウトあり,オンライン ストアあり"
33942,shop,publish,"九州じゃんがら 赤坂店",,"東京,関東,赤坂・六本木・麻布","{""name"":""\u4e5d\u5dde\u3058\u3083\u3093\u304c\u3089 \u8d64\u5742\u5e97"",""title"":"""",""zip"":""107-0052"",""addr"":""\u6771\u4eac\u90fd\u6e2f\u533a\u8d64\u5742\uff12\u4e01\u76ee\uff11\uff15\u2212\uff11\uff15 \u30cf\u30a4\u30c4\u30b5\u30c8\u8d64\u5742"",""acc"":""\u6771\u4eac\u30e1\u30c8\u30ed\u5343\u4ee3\u7530\u7dda\u3010\u8d64\u5742\u99c5\u3011\u5f92\u6b69\uff13\u5206"",""tel"":""03-3505-7882"",""hp"":""http:\/\/kyushujangara.co.jp\/"",""price"":""1,000\u5186\uff5e2,000\u5186"",""price_d"":"""",""price_n"":"""",""business_h"":""11:30\uff5e22:00 (L.O.21:30)"",""business_hd"":"""",""business_hn"":"""",""holiday"":""\u571f\u66dc\u65e5\u3001\u65e5\u66dc\u65e5\u3001\u795d\u65e5"",""seats"":""14\u5e2d"",""credit"":""\u73fe\u91d1\u30fb\u30ab\u30fc\u30c9\u30fb\u96fb\u5b50\u30de\u30cd\u30fc"",""parking"":""\u8fd1\u96a3\u306b\u30b3\u30a4\u30f3\u30d1\u30fc\u30ad\u30f3\u30b0\u6709"",""swipe_num"":""3"",""swipe_imgs"":[""33943"",""33945"",""33944""],""desc"":""\u3053\u3061\u3089\u306e\u30d3\u30fc\u30ac\u30f3\u30e1\u30cb\u30e5\u30fc\u306f\u300c\u718a\u672c\u30de\u30fc\u6cb9\u306e\u30d3\u30fc\u30ac\u30f3\u3089\u3042\u3081\u3093\u300d\u3067\u3059\u3002"",""img_url"":[""https:\/\/vegeness.com\/wp-content\/uploads\/2020\/07\/dell00002561.jpg"",""https:\/\/vegeness.com\/wp-content\/uploads\/2020\/07\/dell00002559.jpg"",""https:\/\/vegeness.com\/wp-content\/uploads\/2020\/07\/dell00002562.jpg""]}",https://vegeness.com/wp-content/uploads/2020/07/dell00002561.jpg,ラーメン,"veganメニューあり,英語メニューあり,テイクアウトあり,オンライン ストアあり"
33949,shop,publish,"九州じゃんがら 原宿１階店",,"東京,原宿・青山・表参道,関東","{""name"":""\u4e5d\u5dde\u3058\u3083\u3093\u304c\u3089 \u539f\u5bbf\uff11\u968e\u5e97"",""title"":"""",""zip"":""150-0001"",""addr"":""\u6771\u4eac\u90fd\u6e0b\u8c37\u533a\u795e\u5bae\u524d\uff11\u4e01\u76ee\uff11\uff13\u2212\uff12\uff11 \uff11\uff26"",""acc"":""JR\u5c71\u624b\u7dda\u300c\u539f\u5bbf\u300d\u99c5(\u8868\u53c2\u9053\u53e3)\u304b\u3089\u5f92\u6b692\u5206"",""tel"":""03-3404-5405"",""hp"":""http:\/\/kyushujangara.co.jp\/"",""price"":""1,000\u5186\uff5e2,000\u5186"",""price_d"":"""",""price_n"":"""",""business_h"":""11:00\uff5e23:00\uff08LO 22:30\uff09"",""business_hd"":"""",""business_hn"":"""",""holiday"":""\u306a\u3057"",""seats"":"""",""credit"":""\u73fe\u91d1\u306e\u307f"",""parking"":""\u8fd1\u96a3\u306b\u30b3\u30a4\u30f3\u30d1\u30fc\u30ad\u30f3\u30b0\u6709"",""swipe_num"":""2"",""swipe_imgs"":[""33943"",""33950""],""desc"":"""",""img_url"":[""https:\/\/vegeness.com\/wp-content\/uploads\/2020\/07\/dell00002561.jpg"",""https:\/\/vegeness.com\/wp-content\/uploads\/2020\/07\/dell00002567.jpg""]}",https://vegeness.com/wp-content/uploads/2020/07/dell00002561.jpg,ラーメン,"veganメニューあり,英語メニューあり,テイクアウトあり,オンライン ストアあり"
33951,shop,publish,"九州じゃんがら 日本橋店",,"東京,関東,東京駅・大手町・日本橋","{""name"":""\u4e5d\u5dde\u3058\u3083\u3093\u304c\u3089 \u65e5\u672c\u6a4b\u5e97"",""title"":"""",""zip"":""103-0027"",""addr"":""\u6771\u4eac\u90fd\u4e2d\u592e\u533a\u65e5\u672c\u6a4b\uff11\u4e01\u76ee\uff17\u2212\uff17"",""acc"":""\u6771\u897f\u7dda\u30fb\u9280\u5ea7\u7dda\u65e5\u672c\u6a4b\u99c5\u3088\u308a\u5f92\u6b69\uff13\u5206"",""tel"":""03-3281-0701"",""hp"":""http:\/\/kyushujangara.co.jp\/"",""price"":""1,000\u5186\uff5e2,000\u5186"",""price_d"":"""",""price_n"":"""",""business_h"":""11:00\u301c23:00\uff08L.O.22:30\uff09"",""business_hd"":"""",""business_hn"":"""",""holiday"":""\u306a\u3057"",""seats"":""19\u5e2d"",""credit"":""\u73fe\u91d1\u30fb\u30ab\u30fc\u30c9\u30fb\u96fb\u5b50\u30de\u30cd\u30fc"",""parking"":""\u8fd1\u96a3\u306b\u30b3\u30a4\u30f3\u30d1\u30fc\u30ad\u30f3\u30b0\u6709"",""swipe_num"":""2"",""swipe_imgs"":[""33952"",""33953""],""desc"":""\u3053\u3061\u3089\u306e\u30d3\u30fc\u30ac\u30f3\u30e1\u30cb\u30e5\u30fc\u306f\u300c\u6fc3\u3044\u53e3\u91a4\u6cb9\u306e\u30d3\u30fc\u30ac\u30f3\u3089\u3042\u3081\u3093\u300d\u3067\u3059\u3002\u203b \uff62\u4e94\u8477\u629c\u304d\uff63\u5bfe\u5fdc\u53ef"",""img_url"":[""https:\/\/vegeness.com\/wp-content\/uploads\/2020\/07\/dell00002570.jpg"",""https:\/\/vegeness.com\/wp-content\/uploads\/2020\/07\/dell00002569.jpg""]}",https://vegeness.com/wp-content/uploads/2020/07/dell00002570.jpg,ラーメン,"veganメニューあり,英語メニューあり,テイクアウトあり,オンライン ストアあり"
33946,shop,publish,"九州じゃんがら 銀座店",,"東京,関東,銀座・有楽町・新橋","{""name"":""\u4e5d\u5dde\u3058\u3083\u3093\u304c\u3089 \u9280\u5ea7\u5e97"",""title"":"""",""zip"":""104-0061"",""addr"":""\u6771\u4eac\u90fd\u4e2d\u592e\u533a\u9280\u5ea7\uff16\u4e01\u76ee\uff11\uff12\u2212\uff11\uff12\u2212\uff11\uff17"",""acc"":""\u9280\u5ea7\u7dda\u30fb\u9280\u5ea7\u99c5\u3001\u65e5\u6bd4\u8c37\u7dda\u6771\u9280\u5ea7\u99c5\u3088\u308a\u5f92\u6b693\u5206"",""tel"":""03-3572-3025"",""hp"":""http:\/\/kyushujangara.co.jp\/"",""price"":""1,000\u5186\uff5e2,000\u5186"",""price_d"":""\uff5e1,000\u5186"",""price_n"":"""",""business_h"":""11:00\uff5e22:00(21:30 L.O.)"",""business_hd"":"""",""business_hn"":"""",""holiday"":""\u306a\u3057"",""seats"":""16\u5e2d"",""credit"":""\u73fe\u91d1\u30fb\u30ab\u30fc\u30c9\u30fb\u96fb\u5b50\u30de\u30cd\u30fc"",""parking"":""\u8fd1\u96a3\u306b\u30b3\u30a4\u30f3\u30d1\u30fc\u30ad\u30f3\u30b0\u6709"",""swipe_num"":""3"",""swipe_imgs"":[""33952"",""33948"",""33947""],""desc"":""\u3053\u3061\u3089\u306e\u304a\u5e97\u306f\u300c\u6fc3\u3044\u53e3\u91a4\u6cb9\u306e\u30d3\u30fc\u30ac\u30f3\u3089\u3042\u3081\u3093\u300d\u304c\u30d3\u30fc\u30ac\u30f3\u30e1\u30cb\u30e5\u30fc\u3067\u3059\u3002\uff62\u4e94\u8477\u629c\u304d\uff63\u5bfe\u5fdc\u53ef\u3002"",""img_url"":[""https:\/\/vegeness.com\/wp-content\/uploads\/2020\/07\/dell00002570.jpg"",""https:\/\/vegeness.com\/wp-content\/uploads\/2020\/07\/dell00002563.jpg"",""https:\/\/vegeness.com\/wp-content\/uploads\/2020\/07\/dell00002564.jpg""]}",https://vegeness.com/wp-content/uploads/2020/07/dell00002570.jpg,ラーメン,"veganメニューあり,テイクアウトあり"
33954,shop,publish,"九州じゃんがら 秋葉原本店",,"東京,関東,神田・秋葉原・御茶ノ水","{""name"":""\u4e5d\u5dde\u3058\u3083\u3093\u304c\u3089 \u79cb\u8449\u539f\u672c\u5e97"",""title"":"""",""zip"":""101-0021"",""addr"":""\u6771\u4eac\u90fd\u5343\u4ee3\u7530\u533a\u5916\u795e\u75303-11-6"",""acc"":""\u6771\u4eac\u30e1\u30c8\u30ed\u9280\u5ea7\u7dda\u672b\u5e83\u753a\u99c53\u51fa\u53e3\u3088\u308a\u5f92\u6b693\u5206"",""tel"":""03-3251-4059"",""hp"":""http:\/\/kyushujangara.co.jp\/"",""price"":""1,000\u5186\uff5e2,000\u5186"",""price_d"":"""",""price_n"":"""",""business_h"":""11:00\u301c22:00\uff08L.O.21:30\uff09"",""business_hd"":"""",""business_hn"":"""",""holiday"":""\u306a\u3057"",""seats"":""18\u5e2d"",""credit"":""\u73fe\u91d1\u30fb\u30ab\u30fc\u30c9\u30fb\u96fb\u5b50\u30de\u30cd\u30fc"",""parking"":""\u8fd1\u96a3\u306b\u30b3\u30a4\u30f3\u30d1\u30fc\u30ad\u30f3\u30b0\u6709"",""swipe_num"":""4"",""swipe_imgs"":[""33952"",""33955"",""33956"",""33957""],""desc"":""\u3053\u3061\u3089\u306e\u30d3\u30fc\u30ac\u30f3\u30e1\u30cb\u30e5\u30fc\u306f\u300c\u6fc3\u3044\u53e3\u91a4\u6cb9\u306e\u30d3\u30fc\u30ac\u30f3\u3089\u3042\u3081\u3093\u300d\u3067\u3059\u3002\u203b\uff62\u4e94\u8477\u629c\u304d\uff63\u5bfe\u5fdc\u53ef"",""img_url"":[""https:\/\/vegeness.com\/wp-content\/uploads\/2020\/07\/dell00002570.jpg"",""https:\/\/vegeness.com\/wp-content\/uploads\/2020\/07\/dell00002576.jpg"",""https:\/\/vegeness.com\/wp-content\/uploads\/2020\/07\/dell00002572.jpg"",""https:\/\/vegeness.com\/wp-content\/uploads\/2020\/07\/dell00002573.jpg""]}",https://vegeness.com/wp-content/uploads/2020/07/dell00002570.jpg,ラーメン,"veganメニューあり,英語メニューあり,テイクアウトあり,オンライン ストアあり"
33958,shop,publish,"九州じゃんがら 西武池袋店",,"東京,関東,池袋・高田馬場・早稲田","{""name"":""\u4e5d\u5dde\u3058\u3083\u3093\u304c\u3089 \u897f\u6b66\u6c60\u888b\u5e97"",""title"":"""",""zip"":""171-0022"",""addr"":""\u6771\u4eac\u90fd\u8c4a\u5cf6\u533a\u5357\u6c60\u888b\uff11\u4e01\u76ee\uff12\uff18\u2212\uff11 \u897f\u6b66\u6c60\u888b\u672c\u5e97 8\u968e \u30c0\u30a4\u30cb\u30f3\u30b0\u30d1\u30fc\u30af\u6c60\u888b\u5185"",""acc"":""\uff2a\uff32\u30fb\u897f\u6b66\u6c60\u888b\u7dda\u6c60\u888b\u99c5\u6771\u53e3\u96a3\u63a5"",""tel"":""03-3981-5188"",""hp"":""http:\/\/kyushujangara.co.jp\/"",""price"":""1,000\u5186\uff5e2,000\u5186"",""price_d"":"""",""price_n"":"""",""business_h"":""10:30\uff5e23:00\uff0822:30 LO.\uff09"",""business_hd"":"""",""business_hn"":"""",""holiday"":""\u306a\u3057"",""seats"":""40\u5e2d"",""credit"":""\u73fe\u91d1\u30fb\u30ab\u30fc\u30c9\u30fb\u96fb\u5b50\u30de\u30cd\u30fc\u30fbQR\u6c7a\u6e08\u203b\u897f\u6b66\u767e\u8ca8\u5e97\u69d8\u306e\u6761\u4ef6\u306b\u6e96\u305a\u308b"",""parking"":""\u65bd\u8a2d\u5185\u99d0\u8eca\u5834\u6709\u308a"",""swipe_num"":""3"",""swipe_imgs"":[""33960"",""33959"",""33961""],""desc"":""\u3053\u3061\u3089\u306e\u30d3\u30fc\u30ac\u30f3\u30e1\u30cb\u30e5\u30fc\u306f\u300c\u548c\u98a8\u3086\u305a\u5869\u30d3\u30fc\u30ac\u30f3\u3089\u3042\u3081\u3093\u300d\u3067\u3059\u3002\u203b\uff62\u4e94\u8477\u629c\u304d\uff63\u5bfe\u5fdc\u53ef"",""img_url"":[""https:\/\/vegeness.com\/wp-content\/uploads\/2020\/07\/dell00002577.jpg"",""https:\/\/vegeness.com\/wp-content\/uploads\/2020\/07\/dell00002579.jpg"",""https:\/\/vegeness.com\/wp-content\/uploads\/2020\/07\/dell00002578.jpg""]}",https://vegeness.com/wp-content/uploads/2020/07/dell00002577.jpg,ラーメン,"veganメニューあり,英語メニューあり,オンライン ストアあり"
33980,shop,publish,麺Cuisine麻布邸,,"東京,関東,赤坂・六本木・麻布","{""name"":""\u9ebaCuisine\uff08\u9eba\u30ad\u30e5\u30a4\u30b8\u30fc\u30cc\uff09\u9ebb\u5e03\u90b8"",""title"":"""",""zip"":""106-0045"",""addr"":""\u6771\u4eac\u90fd\u6e2f\u533a\u9ebb\u5e03\u5341\u756a\uff11\u4e01\u76ee\uff19\u2212\uff19"",""acc"":""\u9ebb\u5e03\u5341\u756a\u99c55b\u756a\u51fa\u53e3\u3088\u308a\u5f92\u6b69\uff11\u5206"",""tel"":""03-6441-0351\uff08\u4e88\u7d04\u53ef\uff09"",""hp"":""https:\/\/azabutei.com\/shop\/azabu\/index.html"",""price"":"""",""price_d"":""1,000\u5186\uff5e2,000\u5186"",""price_n"":""2,000\u5186\uff5e3,000\u5186"",""business_h"":"""",""business_hd"":""11:30-15:00(L.O.14:50)"",""business_hn"":""17:00-23:00(L.O.22:30)"",""holiday"":""\u6708\u66dc\u65e5"",""seats"":""20\u5e2d"",""credit"":""\u73fe\u91d1\u30fb\u30ab\u30fc\u30c9\u30fb\u96fb\u5b50\u30de\u30cd\u30fc"",""parking"":""\u8fd1\u96a3\u306b\u30b3\u30a4\u30f3\u30d1\u30fc\u30ad\u30f3\u30b0\u6709"",""swipe_num"":""4"",""swipe_imgs"":[""33984"",""33981"",""33982"",""33983""],""desc"":"""",""img_url"":[""https:\/\/vegeness.com\/wp-content\/uploads\/2020\/07\/dell00002583.jpg"",""https:\/\/vegeness.com\/wp-content\/uploads\/2020\/07\/dell00002584.jpg"",""https:\/\/vegeness.com\/wp-content\/uploads\/2020\/07\/dell00002581.jpg"",""https:\/\/vegeness.com\/wp-content\/uploads\/2020\/07\/dell00002582.jpg""]}",https://vegeness.com/wp-content/uploads/2020/07/dell00002583.jpg,和食,"veganメニューあり,英語メニューあり,テイクアウトあり,宅配サービス"
