post_id,post_type,post_status,post_title,post_content,tax_shop_area,meta_fields,post_thumbnail,tax_shop_genre,tax_shop_icon
34344,shop,publish,"ナチュラルキッチン せさみ",,"愛知,東海,安城・刈谷・岡崎・知立・蒲郡","{""name"":""\u30ca\u30c1\u30e5\u30e9\u30eb\u30ad\u30c3\u30c1\u30f3 \u305b\u3055\u307f"",""title"":"""",""zip"":""443-0054"",""addr"":""\u611b\u77e5\u770c\u84b2\u90e1\u5e02\u5e9c\u76f8\u753a\u7aef\u5efb\uff17\uff19\uff16"",""acc"":""JR\u84b2\u90e1\u99c5\u304b\u3089\u5f92\u6b69\u7d0415\u5206"",""tel"":""0533-67-3318"",""hp"":""http:\/\/sesami.fc2web.com\/"",""price"":""1,000\u5186\uff5e2,000\u5186"",""price_d"":"""",""price_n"":"""",""business_h"":""9:00\uff5e14:30\uff08L.O.14:00\uff09"",""business_hd"":"""",""business_hn"":"""",""holiday"":""\u6708\u66dc\u65e5"",""seats"":""22\u5e2d"",""credit"":""\u73fe\u91d1"",""parking"":""\u6709"",""swipe_num"":""3"",""swipe_imgs"":[""34346"",""34345"",""34347""],""desc"":"""",""img_url"":[""https:\/\/vegeness.com\/wp-content\/uploads\/2020\/07\/dell00002752.jpg"",""https:\/\/vegeness.com\/wp-content\/uploads\/2020\/07\/dell00002754.jpg"",""https:\/\/vegeness.com\/wp-content\/uploads\/2020\/07\/dell00002753.jpg""]}",https://vegeness.com/wp-content/uploads/2020/07/dell00002752.jpg,"和食,カフェ・スイーツ",veganメニューあり
34348,shop,publish,ビジタ,,"浜松市,静岡,東海","{""name"":""\u30d3\u30b8\u30bf"",""title"":"""",""zip"":""432-8002"",""addr"":""\u9759\u5ca1\u770c\u6d5c\u677e\u5e02\u4e2d\u533a\u5bcc\u585a\u753a \u5c0f\u5bae\u30aa\u30fc\u30af\u30d3\u30eb \uff11F"",""acc"":""\u516b\u5e61\u99c5\u304b\u3089\u8eca\u30677\u5206"",""tel"":""053-475-0663"",""hp"":""http:\/\/bejita.biz\/"",""price"":"""",""price_d"":""1,000\u5186\uff5e2,000\u5186"",""price_n"":""1,000\u5186\uff5e2,000\u5186"",""business_h"":""[\u6708\uff5e\u91d1] 11:00\uff5e18:00 [\u571f\u3001\u65e5] 11:00\uff5e20:00(L.O)"",""business_hd"":"""",""business_hn"":"""",""holiday"":""\u706b\u66dc\u65e5"",""seats"":"""",""credit"":""\u73fe\u91d1\u30fb\u30ab\u30fc\u30c9"",""parking"":""\u6709(6\u53f0)"",""swipe_num"":""5"",""swipe_imgs"":[""34349"",""34351"",""34352"",""34353"",""34350""],""desc"":"""",""img_url"":[""https:\/\/vegeness.com\/wp-content\/uploads\/2020\/07\/dell00002758.jpg"",""https:\/\/vegeness.com\/wp-content\/uploads\/2020\/07\/dell00002755.jpg"",""https:\/\/vegeness.com\/wp-content\/uploads\/2020\/07\/dell00002756.jpg"",""https:\/\/vegeness.com\/wp-content\/uploads\/2020\/07\/dell00002757.jpg"",""https:\/\/vegeness.com\/wp-content\/uploads\/2020\/07\/dell00002759.jpg""]}",https://vegeness.com/wp-content/uploads/2020/07/dell00002758.jpg,和食,"veganメニューあり,テイクアウトあり"
34354,shop,publish,"Veg Out (ベグ アウト)",,"京都駅周辺,京都,関西","{""name"":""Veg Out (\u30d9\u30b0\u30a2\u30a6\u30c8)"",""title"":"""",""zip"":""600-8133"",""addr"":""\u4eac\u90fd\u5e9c\u4eac\u90fd\u5e02\u4e0b\u4eac\u533a \u30eb\u7a32\u8377\u753a448 \u9d28\u5ddd\u30d3\u30eb1F"",""acc"":""\u4e03\u6761\u99c5\u3088\u308a\u5f92\u6b692\u5206\/JR\u4eac\u90fd\u99c5\u3000\u70cf\u4e38\u6b63\u9762\u51fa\u53e3\u3088\u308a\u5f92\u6b6910\u5206"",""tel"":""075-748-1124"",""hp"":""https:\/\/tamisa-yoga.com\/cafe\/"",""price"":"""",""price_d"":""1,000\u5186\uff5e2,000\u5186"",""price_n"":""2,000\u5186\uff5e3,000\u5186"",""business_h"":"""",""business_hd"":""11:00\u301c15:00"",""business_hn"":""15:00\u301c18:00(L.O.17:30)"",""holiday"":""\u4e0d\u5b9a\u4f11"",""seats"":""26\u5e2d"",""credit"":""\u73fe\u91d1\u30fb\u30ab\u30fc\u30c9"",""parking"":""\u8fd1\u96a3\u306b\u30b3\u30a4\u30f3\u30d1\u30fc\u30ad\u30f3\u30b0\u6709"",""swipe_num"":""5"",""swipe_imgs"":[""34355"",""34358"",""34356"",""34357"",""34359""],""desc"":"""",""img_url"":[""https:\/\/vegeness.com\/wp-content\/uploads\/2020\/07\/dell00002763.jpg"",""https:\/\/vegeness.com\/wp-content\/uploads\/2020\/07\/dell00002761.jpg"",""https:\/\/vegeness.com\/wp-content\/uploads\/2020\/07\/dell00002764.jpg"",""https:\/\/vegeness.com\/wp-content\/uploads\/2020\/07\/dell00002760.jpg"",""https:\/\/vegeness.com\/wp-content\/uploads\/2020\/07\/dell00002762.jpg""]}",https://vegeness.com/wp-content/uploads/2020/07/dell00002763.jpg,,"100%Veganのお店,英語メニューあり,テイクアウトあり"
34360,shop,publish,"VEGE DELI かんな",,"京都駅周辺,京都,関西","{""name"":""VEGE DELI \uff08\u30d9\u30b8\u30c7\u30ea\uff09\u304b\u3093\u306a"",""title"":""\u30d5\u30fc\u30c9\u30b3\u30fc\u30c8\u306b\u3042\u308b\u30f4\u30a3\u30fc\u30ac\u30f3\u5c02\u9580\u5e97"",""zip"":""600-8216"",""addr"":""\u4eac\u90fd\u5e9c\u4eac\u90fd\u5e02\u4e0b\u4eac\u533a \u4e03\u6761\u4e0b\u308b\u6771\u5869\u5c0f\u8def\u753a 721-1 \u4eac\u90fd\u30bf\u30ef\u30fc\u30b5\u30f3\u30c9\u5730\u4e0b\uff11\u968e"",""acc"":""\u4eac\u90fd\u99c5\u304b\u3089\u5f92\u6b692\u5206"",""tel"":""075-353-2399"",""hp"":""https:\/\/vege-kanna.jimdo.com\/"",""price"":""1,000\u5186\uff5e2,000\u5186"",""price_d"":"""",""price_n"":"""",""business_h"":""11:00\uff5e23:00"",""business_hd"":"""",""business_hn"":"""",""holiday"":""\u306a\u3057"",""seats"":"""",""credit"":""\u73fe\u91d1\u30fb\u30ab\u30fc\u30c9"",""parking"":""\u8fd1\u96a3\u306b\u30b3\u30a4\u30f3\u30d1\u30fc\u30ad\u30f3\u30b0\u6709"",""swipe_num"":""4"",""swipe_imgs"":[""34362"",""34363"",""34364"",""34361""],""desc"":"""",""img_url"":[""https:\/\/vegeness.com\/wp-content\/uploads\/2020\/07\/dell00002765.jpg"",""https:\/\/vegeness.com\/wp-content\/uploads\/2020\/07\/dell00002766.jpg"",""https:\/\/vegeness.com\/wp-content\/uploads\/2020\/07\/dell00002767.jpg"",""https:\/\/vegeness.com\/wp-content\/uploads\/2020\/07\/dell00002768.jpg""]}",https://vegeness.com/wp-content/uploads/2020/07/dell00002765.jpg,"和食,ラーメン","100%Veganのお店,グルテンフリーメニューあり,英語メニューあり"
34365,shop,publish,"キトゥン カンパニー",,"京都,関西,烏丸御池・四条烏丸","{""name"":""Kitten company\uff08\u30ad\u30c8\u30a5\u30f3\u30ab\u30f3\u30d1\u30cb\u30fc\uff09"",""title"":"""",""zip"":""600-8170"",""addr"":""\u4eac\u90fd\u5e9c\u4eac\u90fd\u5e02\u4e0b\u4eac\u533a\u4e94\u6761\u70cf\u4e38\u897f\u5165\u308b\u4e0a\u8acf\u8a2a\u753a\uff12\uff19\uff14\u2212\uff11"",""acc"":"""",""tel"":""075-344-1591"",""hp"":""http:\/\/kittencompany.net\/"",""price"":""1,000\u5186\uff5e2,000\u5186"",""price_d"":"""",""price_n"":"""",""business_h"":""11:00\uff5e19:00(L.O)"",""business_hd"":"""",""business_hn"":"""",""holiday"":""\u65e5\u66dc\u65e5\u3001\u4e0d\u5b9a\u4f11"",""seats"":""15\u5e2d"",""credit"":""\u73fe\u91d1"",""parking"":""\u8fd1\u96a3\u306b\u30b3\u30a4\u30f3\u30d1\u30fc\u30ad\u30f3\u30b0\u6709"",""swipe_num"":""4"",""swipe_imgs"":[""34367"",""34368"",""34369"",""34366""],""desc"":"""",""img_url"":[""https:\/\/vegeness.com\/wp-content\/uploads\/2020\/07\/dell00002769.jpg"",""https:\/\/vegeness.com\/wp-content\/uploads\/2020\/07\/dell00002770.jpg"",""https:\/\/vegeness.com\/wp-content\/uploads\/2020\/07\/dell00002771.jpg"",""https:\/\/vegeness.com\/wp-content\/uploads\/2020\/07\/dell00002772.jpg""]}",https://vegeness.com/wp-content/uploads/2020/07/dell00002770.jpg,カフェ・スイーツ,"100%Veganのお店,グルテンフリーメニューあり,英語メニューあり"
34370,shop,publish,"ペッティロッソ 京都",,"河原町・木屋町,京都,関西","{""name"":""Pettirosso Kyoto \uff08\u30da\u30c3\u30c6\u30a3\u30ed\u30c3\u30bd\u4eac\u90fd\uff09"",""title"":"""",""zip"":""600-8053"",""addr"":""\u4eac\u90fd\u5e9c\u4eac\u90fd\u5e02\u4e0b\u4eac\u533a\u5857\u5e2b\u5c4b\u753a92-2"",""acc"":""\u962a\u6025\u4eac\u90fd\u7dda\u3000\u6cb3\u539f\u753a\u99c5\u3088\u308a\u5f92\u6b69\uff18\u5206"",""tel"":""075-585-5455"",""hp"":""https:\/\/pettirosso-kyoto.business.site\/"",""price"":"""",""price_d"":""1,000\u5186\uff5e2,000\u5186"",""price_n"":""3,000\u5186\uff5e4,000\u5186"",""business_h"":"""",""business_hd"":""11:30\u301c13:30(L.O) \u203b\u91d1\u30fb\u571f\u30fb\u65e5\u306e\u307f"",""business_hn"":""17:00~21:00(L.O)"",""holiday"":""\u6708\u66dc\u65e5\u3001\u4e0d\u5b9a\u4f11"",""seats"":""15\u5e2d"",""credit"":""\u73fe\u91d1"",""parking"":""\u8fd1\u96a3\u306b\u30b3\u30a4\u30f3\u30d1\u30fc\u30ad\u30f3\u30b0\u6709"",""swipe_num"":""4"",""swipe_imgs"":[""34373"",""34371"",""34374"",""34372""],""desc"":"""",""img_url"":[""https:\/\/vegeness.com\/wp-content\/uploads\/2020\/07\/dell00002774.jpg"",""https:\/\/vegeness.com\/wp-content\/uploads\/2020\/07\/dell00002776.jpg"",""https:\/\/vegeness.com\/wp-content\/uploads\/2020\/07\/dell00002775.jpg"",""https:\/\/vegeness.com\/wp-content\/uploads\/2020\/07\/dell00002773.jpg""]}",https://vegeness.com/wp-content/uploads/2020/07/dell00002776.jpg,カフェ・スイーツ,"veganメニューあり,グルテンフリーメニューあり,テイクアウトあり"
34375,shop,publish,"hale ～晴～ （ハレ）",,"河原町・木屋町,京都,関西","{""name"":""hale \uff5e\u6674\uff5e \uff08\u30cf\u30ec\uff09"",""title"":"""",""zip"":""604-8055"",""addr"":""\u4eac\u90fd\u5e9c\u4eac\u90fd\u5e02\u4e2d\u4eac\u533a\u6771\u9b5a\u5c4b\u753a\uff11\uff19\uff18"",""acc"":""\u4eac\u90fd\u6cb3\u539f\u753a\u99c5\u304b\u3089\u5f92\u6b694\u5206"",""tel"":""075-231-2516"",""hp"":""https:\/\/m.facebook.com\/profile.php?id=911344055548938&fref=nf&_rdr"",""price"":"""",""price_d"":""1,000\u5186\uff5e2,000\u5186"",""price_n"":"""",""business_h"":""11:30-16:00\uff08\u30e9\u30f3\u30c1\u306f14:30\u307e\u3067\uff09 \/18:00-21:00\uff08\u9031\u672b\u306e\u307f\u4e88\u7d04\u5236\u3067\u55b6\u696d\uff09"",""business_hd"":""11:30\uff5e14:30"",""business_hn"":""18:00\uff5e21:00 \u203b\u6728\uff5e\u571f\u306e\u307f"",""holiday"":""\u6708\u66dc\u30fb\u4e0d\u5b9a\u4f11"",""seats"":""12\u5e2d"",""credit"":""\u73fe\u91d1"",""parking"":""\u8fd1\u96a3\u306b\u30b3\u30a4\u30f3\u30d1\u30fc\u30ad\u30f3\u30b0\u6709"",""swipe_num"":""3"",""swipe_imgs"":[""34377"",""34378"",""34376""],""desc"":"""",""img_url"":[""https:\/\/vegeness.com\/wp-content\/uploads\/2020\/07\/dell00002777.jpg"",""https:\/\/vegeness.com\/wp-content\/uploads\/2020\/07\/dell00002778.jpg"",""https:\/\/vegeness.com\/wp-content\/uploads\/2020\/07\/dell00002779.jpg""]}",https://vegeness.com/wp-content/uploads/2020/07/dell00002777.jpg,和食,veganメニューあり
34379,shop,publish,CHOICE（チョイス）,,"京都,関西,三条・京都市役所前","{""name"":""CHOICE\uff08\u30c1\u30e7\u30a4\u30b9\uff09"",""title"":"""",""zip"":""605-0009"",""addr"":""\u4eac\u90fd\u5e9c\u4eac\u90fd\u5e02\u6771\u5c71\u533a \u5927\u6a4b\u753a\uff18\uff19\u2212\uff11 \u9234\u6728\u5f62\u6210\u5916\u79d1\u30d3\u30eb 1F"",""acc"":""\u4e09\u6761\u4eac\u962a\u99c5\u3088\u308a\u3068\u307b\uff11\u5206"",""tel"":""075-762-1233"",""hp"":""https:\/\/hs-choice.com\/"",""price"":"""",""price_d"":""1,000\u5186\uff5e2,000\u5186"",""price_n"":""2,000\u5186\uff5e3,000\u5186"",""business_h"":""9:00\uff5e21:00"",""business_hd"":""11:00\u301c15:00"",""business_hn"":""17:00\u301c21:00(LO20:30)"",""holiday"":""\u306a\u3057"",""seats"":""32\u5e2d"",""credit"":""\u73fe\u91d1\u30fb\u30ab\u30fc\u30c9"",""parking"":""\u8fd1\u96a3\u306b\u30b3\u30a4\u30f3\u30d1\u30fc\u30ad\u30f3\u30b0\u6709"",""swipe_num"":""4"",""swipe_imgs"":[""34382"",""34380"",""34381"",""34383""],""desc"":"""",""img_url"":[""https:\/\/vegeness.com\/wp-content\/uploads\/2020\/07\/dell00002782.jpg"",""https:\/\/vegeness.com\/wp-content\/uploads\/2020\/07\/dell00002780.jpg"",""https:\/\/vegeness.com\/wp-content\/uploads\/2020\/07\/dell00002781.jpg"",""https:\/\/vegeness.com\/wp-content\/uploads\/2020\/07\/dell00002783.jpg""]}",https://vegeness.com/wp-content/uploads/2020/07/dell00002782.jpg,カフェ・スイーツ,"100%Veganのお店,グルテンフリーメニューあり,英語メニューあり,テイクアウトあり,オンライン ストアあり,料理教室あり"
34384,shop,publish,平和的ごはんパドマ,,"京都,関西,左京区・山科区","{""name"":""\u5e73\u548c\u7684\u3054\u306f\u3093\u30d1\u30c9\u30de"",""title"":"""",""zip"":""606-8396"",""addr"":""\u4eac\u90fd\u5e9c\u4eac\u90fd\u5e02\u5de6\u4eac\u533a\u4e0b\u5824\u753a\uff18\uff12 \u6075\u7f8e\u9808\u30d3\u30eb 2\u968e"",""acc"":""\u795e\u5bae\u4e38\u592a\u753a\u99c5\u3088\u308a\u5f92\u6b691\u5206"",""tel"":""075-708-7707"",""hp"":""http:\/\/padmazenfood.com\/"",""price"":"""",""price_d"":""1,000\u5186\uff5e2,000\u5186"",""price_n"":"""",""business_h"":""12:00\uff5e19:00"",""business_hd"":""12:00\uff5e15:00"",""business_hn"":"""",""holiday"":""\u6728\u66dc\u65e5"",""seats"":"""",""credit"":""\u73fe\u91d1"",""parking"":""\u8fd1\u96a3\u306b\u30b3\u30a4\u30f3\u30d1\u30fc\u30ad\u30f3\u30b0\u6709"",""swipe_num"":""4"",""swipe_imgs"":[""34386"",""34387"",""34385"",""34388""],""desc"":"""",""img_url"":[""https:\/\/vegeness.com\/wp-content\/uploads\/2020\/07\/dell00002784.jpg"",""https:\/\/vegeness.com\/wp-content\/uploads\/2020\/07\/dell00002785.jpg"",""https:\/\/vegeness.com\/wp-content\/uploads\/2020\/07\/dell00002787.jpg"",""https:\/\/vegeness.com\/wp-content\/uploads\/2020\/07\/dell00002786.jpg""]}",https://vegeness.com/wp-content/uploads/2020/07/dell00002784.jpg,カフェ・スイーツ,"100%Veganのお店,グルテンフリーメニューあり,英語メニューあり,テイクアウトあり"
34389,shop,publish,"ゴマクロ サロン （gomacro Salon）",,"京都,関西,烏丸御池・四条烏丸","{""name"":""\u30b4\u30de\u30af\u30ed \u30b5\u30ed\u30f3 \uff08gomacro Salon\uff09"",""title"":"""",""zip"":""604-8207"",""addr"":""\u4eac\u90fd\u5e9c\u4eac\u90fd\u5e02\u4e2d\u4eac\u533a\u795e\u660e\u753a\uff16\uff17\u2212\uff13"",""acc"":""\u5730\u4e0b\u9244\u300c\u70cf\u4e38\u5fa1\u6c60\u99c5\u300d\u3088\u308a\u5f92\u6b69\u7d043\u5206"",""tel"":""075-257-5096"",""hp"":""http:\/\/gomacro.jp\/cafe\/"",""price"":"""",""price_d"":""1,000\u5186\uff5e2,000\u5186"",""price_n"":"""",""business_h"":""11:30\uff5e18:00(L.O.17:00)"",""business_hd"":"""",""business_hn"":"""",""holiday"":""\u6708\u66dc\u65e5\u30fb\u7b2c2\u706b\u66dc\u65e5\u30fb\u7b2c4\u706b\u66dc\u65e5"",""seats"":""18\u5e2d"",""credit"":""\u73fe\u91d1"",""parking"":""\u8fd1\u96a3\u306b\u30b3\u30a4\u30f3\u30d1\u30fc\u30ad\u30f3\u30b0\u6709"",""swipe_num"":""4"",""swipe_imgs"":[""34393"",""34390"",""34391"",""34392""],""desc"":"""",""img_url"":[""https:\/\/vegeness.com\/wp-content\/uploads\/2020\/07\/dell00002791.jpg"",""https:\/\/vegeness.com\/wp-content\/uploads\/2020\/07\/dell00002793.jpg"",""https:\/\/vegeness.com\/wp-content\/uploads\/2020\/07\/dell00002788.jpg"",""https:\/\/vegeness.com\/wp-content\/uploads\/2020\/07\/dell00002790.jpg""]}",https://vegeness.com/wp-content/uploads/2020/07/dell00002791.jpg,カフェ・スイーツ,"100%Veganのお店,グルテンフリーメニューあり,テイクアウトあり,料理教室あり"
34394,shop,publish,"Veggie Cafe（ベジカフェ ）",,"京都,四条大宮・西院・右京区・西京区,関西","{""name"":""Veggie Cafe\uff08\u30d9\u30b8\u30ab\u30d5\u30a7 \uff09"",""title"":"""",""zip"":""604-8363"",""addr"":""\u4eac\u90fd\u5e9c\u4eac\u90fd\u5e02\u4e2d\u4eac\u533a\u9326\u732a\u718a\u753a\uff15\uff13\uff17"",""acc"":""\u5927\u5bae\u99c5\u304b\u3089\u5f92\u6b69\uff12\u5206"",""tel"":""075-366-3979"",""hp"":"""",""price"":"""",""price_d"":"""",""price_n"":""2,000\u5186\uff5e3,000\u5186"",""business_h"":"""",""business_hd"":"""",""business_hn"":""17:30\uff5e20:30"",""holiday"":""\u6c34\u66dc\u65e5"",""seats"":""12\u5e2d"",""credit"":""\u73fe\u91d1"",""parking"":""\u8fd1\u96a3\u306b\u30b3\u30a4\u30f3\u30d1\u30fc\u30ad\u30f3\u30b0\u6709"",""swipe_num"":""4"",""swipe_imgs"":[""34397"",""34395"",""34396"",""34398""],""desc"":"""",""img_url"":[""https:\/\/vegeness.com\/wp-content\/uploads\/2020\/07\/dell00002795.jpg"",""https:\/\/vegeness.com\/wp-content\/uploads\/2020\/07\/dell00002797.jpg"",""https:\/\/vegeness.com\/wp-content\/uploads\/2020\/07\/dell00002794.jpg"",""https:\/\/vegeness.com\/wp-content\/uploads\/2020\/07\/dell00002796.jpg""]}",https://vegeness.com/wp-content/uploads/2020/07/dell00002795.jpg,カフェ・スイーツ,"100%Veganのお店,英語メニューあり"
34399,shop,publish,"精進カフェ 和香（わか）",,"京都,関西,烏丸御池・四条烏丸","{""name"":""\u7cbe\u9032\u30ab\u30d5\u30a7 \u548c\u9999\uff08\u308f\u304b\uff09"",""title"":"""",""zip"":""600-8084"",""addr"":""\u4eac\u90fd\u5e9c\u4eac\u90fd\u5e02\u4e0b\u4eac\u533a\u65b0\u958b\u753a\uff13\uff19\uff17\u2212\uff19"",""acc"":""\u5730\u4e0b\u9244\u300c\u56db\u6761\u99c5\u300d\u304b\u3089\u5f92\u6b69\u7d048\u5206"",""tel"":""090-9707-6191"",""hp"":""http:\/\/www.oterahouse.com\/cafe\/index.htm"",""price"":"""",""price_d"":""1,000\u5186\uff5e2,000\u5186"",""price_n"":"""",""business_h"":"""",""business_hd"":""11:30\uff5e15:00"",""business_hn"":"""",""holiday"":""\u6708\u66dc\u65e5\u3001\u706b\u66dc\u65e5\u3001\u65e5\u66dc\u65e5\u3001\u795d\u65e5"",""seats"":""14\u5e2d"",""credit"":""\u73fe\u91d1"",""parking"":""\u8fd1\u96a3\u306b\u30b3\u30a4\u30f3\u30d1\u30fc\u30ad\u30f3\u30b0\u6709"",""swipe_num"":""4"",""swipe_imgs"":[""34403"",""34402"",""34400"",""34401""],""desc"":"""",""img_url"":[""https:\/\/vegeness.com\/wp-content\/uploads\/2020\/07\/dell00002800.jpg"",""https:\/\/vegeness.com\/wp-content\/uploads\/2020\/07\/dell00002799.jpg"",""https:\/\/vegeness.com\/wp-content\/uploads\/2020\/07\/dell00002801.jpg"",""https:\/\/vegeness.com\/wp-content\/uploads\/2020\/07\/dell00002798.jpg""]}",https://vegeness.com/wp-content/uploads/2020/07/dell00002800.jpg,"和食,カフェ・スイーツ","100%Veganのお店,英語メニューあり,テイクアウトあり"
34404,shop,publish,"千丸屋 本店",,"京都,関西,烏丸御池・四条烏丸","{""name"":""\u4eac\u6e6f\u8449 \u5343\u4e38\u5c4b\uff08\u305b\u3093\u307e\u308b\u3084\uff09"",""title"":"""",""zip"":""604-8123"",""addr"":""\u4eac\u90fd\u5e9c\u4eac\u90fd\u5e02\u4e2d\u4eac\u533a \u583a\u753a\u901a\u56db\u6761\u4e0a\u308b\u516b\u767e\u5c4b\u753a541"",""acc"":""\u70cf\u4e38\u99c5\u304b\u3089\u5f92\u6b694\u5206"",""tel"":""075-221-0555"",""hp"":""https:\/\/senmaruya.co.jp\/"",""price"":"""",""price_d"":""1,000\u5186\uff5e2,000\u5186"",""price_n"":"""",""business_h"":"""",""business_hd"":""10:30\uff5e15:30 (L.O.15:00)"",""business_hn"":"""",""holiday"":""\u6c34\u66dc\u65e5"",""seats"":""16\u5e2d"",""credit"":""\u73fe\u91d1"",""parking"":""\u8fd1\u96a3\u306b\u30b3\u30a4\u30f3\u30d1\u30fc\u30ad\u30f3\u30b0\u6709"",""swipe_num"":""4"",""swipe_imgs"":[""34408"",""34406"",""34405"",""34407""],""desc"":"""",""img_url"":[""https:\/\/vegeness.com\/wp-content\/uploads\/2020\/07\/dell00002804.jpg"",""https:\/\/vegeness.com\/wp-content\/uploads\/2020\/07\/dell00002802.jpg"",""https:\/\/vegeness.com\/wp-content\/uploads\/2020\/07\/dell00002805.jpg"",""https:\/\/vegeness.com\/wp-content\/uploads\/2020\/07\/dell00002803.jpg""]}",https://vegeness.com/wp-content/uploads/2020/07/dell00002804.jpg,和食,"veganメニューあり,テイクアウトあり"
34409,shop,publish,LITTLE-HEAVEN（リトルヘブン）,,"京都,四条大宮・西院・右京区・西京区,関西","{""name"":""LITTLE-HEAVEN\uff08\u30ea\u30c8\u30eb\u30d8\u30d6\u30f3\uff09"",""title"":"""",""zip"":""616-8313"",""addr"":""\u4eac\u90fd\u5e9c\u4eac\u90fd\u5e02\u53f3\u4eac\u533a\u5d6f\u5ce8\u91ce\u958b\u753a\uff18\u2212\uff12\uff19"",""acc"":""\u5e37\u5b50\u30ce\u8fbb\u99c5\u304b\u3089\u5f92\u6b69\uff12\u5206"",""tel"":""075-777-2500"",""hp"":"""",""price"":"""",""price_d"":""6,000\u5186\uff5e"",""price_n"":""7,000\u5186\uff5e"",""business_h"":""12:00\uff5e\uff08\u5b8c\u5168\u4e88\u7d04\u5236\uff09"",""business_hd"":"""",""business_hn"":"""",""holiday"":""\u6708\u66dc\u65e5\u30fb\u4e0d\u5b9a\u4f11"",""seats"":""10\u5e2d"",""credit"":""\u73fe\u91d1\u30fb\u30ab\u30fc\u30c9"",""parking"":""\u8fd1\u96a3\u306b\u30b3\u30a4\u30f3\u30d1\u30fc\u30ad\u30f3\u30b0\u6709"",""swipe_num"":""1"",""swipe_imgs"":[""28181""],""desc"":"""",""img_url"":[""https:\/\/vegeness.com\/wp-content\/uploads\/2020\/06\/1560031.jpg""]}",,国際料理,"100%Veganのお店,英語メニューあり"
34410,shop,publish,"いただき繕 京都店",,"京都,関西,上京区・北区","{""name"":""\u3044\u305f\u3060\u304d\u7e55 \u4eac\u90fd\u5e97"",""title"":"""",""zip"":""602-8344"",""addr"":""\u4eac\u90fd\u5e9c\u4eac\u90fd\u5e02\u4e0a\u4eac\u533a\u4e8c\u756a\u753a \u4ec1\u548c\u5bfa\u8857\u9053\u4e03\u672c\u677e\u897f\u5165 199-1"",""acc"":""\u5317\u91ce\u767d\u6885\u753a\u99c5\u304b\u3089\u5f92\u6b6910\u5206"",""tel"":""090-6037-5692"",""hp"":""https:\/\/www.facebook.com\/ITADAKIZENKYOTO\/"",""price"":"""",""price_d"":"""",""price_n"":"""",""business_h"":"""",""business_hd"":""12:00\uff5e15:00\uff08\u571f\u65e5\u306e\u307f\uff09"",""business_hn"":""17:00\uff5e21:00"",""holiday"":""\u6708\u66dc\u30fb\u706b\u66dc"",""seats"":"""",""credit"":""\u73fe\u91d1"",""parking"":""\u8fd1\u96a3\u306b\u30b3\u30a4\u30f3\u30d1\u30fc\u30ad\u30f3\u30b0\u6709"",""swipe_num"":""4"",""swipe_imgs"":[""34413"",""34414"",""34411"",""34412""],""desc"":"""",""img_url"":[""https:\/\/vegeness.com\/wp-content\/uploads\/2020\/07\/dell00002807.jpg"",""https:\/\/vegeness.com\/wp-content\/uploads\/2020\/07\/dell00002808.jpg"",""https:\/\/vegeness.com\/wp-content\/uploads\/2020\/07\/dell00002809.jpg"",""https:\/\/vegeness.com\/wp-content\/uploads\/2020\/07\/dell00002806.jpg""]}",https://vegeness.com/wp-content/uploads/2020/07/dell00002807.jpg,"和食,カフェ・スイーツ","100%Veganのお店,テイクアウトあり,宅配サービス,料理教室あり"
34415,shop,publish,"SUNNY PLACE（サニープレイス）",,"京都,関西,左京区・山科区","{""name"":""SUNNY PLACE\uff08\u30b5\u30cb\u30fc\u30d7\u30ec\u30a4\u30b9\uff09"",""title"":"""",""zip"":""606-8202"",""addr"":""\u4eac\u90fd\u5e9c\u4eac\u90fd\u5e02\u5de6\u4eac\u533a\u7530\u4e2d\u5927\u5830\u753a\uff11\uff16\uff18\u2212\uff12"",""acc"":""\u51fa\u753a\u67f3\u99c5\u3088\u308a\u5f92\u6b69\uff16\u5206"",""tel"":""070-5559-5221"",""hp"":""https:\/\/www.sunnyplacekyoto.com\/"",""price"":"""",""price_d"":""1,000\u5186\uff5e2,000\u5186"",""price_n"":"""",""business_h"":"""",""business_hd"":""11:30\uff5e15:30\uff08L.O14:30\uff09"",""business_hn"":"""",""holiday"":""\u91d1\u66dc\u65e5\u3001\u571f\u66dc\u65e5\u3001\u65e5\u66dc\u65e5\u3001\u795d\u65e5"",""seats"":""12\u5e2d"",""credit"":""\u73fe\u91d1\u30fb\u30ab\u30fc\u30c9"",""parking"":""\u8fd1\u96a3\u306b\u30b3\u30a4\u30f3\u30d1\u30fc\u30ad\u30f3\u30b0\u6709"",""swipe_num"":""3"",""swipe_imgs"":[""34417"",""34416"",""34418""],""desc"":"""",""img_url"":[""https:\/\/vegeness.com\/wp-content\/uploads\/2020\/07\/dell00002811.jpg"",""https:\/\/vegeness.com\/wp-content\/uploads\/2020\/07\/dell00002813.jpg"",""https:\/\/vegeness.com\/wp-content\/uploads\/2020\/07\/dell00002812.jpg""]}",https://vegeness.com/wp-content/uploads/2020/07/dell00002811.jpg,"和食,カフェ・スイーツ","100%Veganのお店,テイクアウトあり,料理教室あり"
34421,shop,publish,"Falafel Garden（ファラフェルガーデン）",,"京都,関西,左京区・山科区","{""name"":""Falafel Garden\uff08\u30d5\u30a1\u30e9\u30d5\u30a7\u30eb\u30ac\u30fc\u30c7\u30f3\uff09"",""title"":"""",""zip"":""606-8205"",""addr"":""\u4eac\u90fd\u5e9c\u4eac\u90fd\u5e02\u5de6\u4eac\u533a\u7530\u4e2d\u4e0a\u67f3\u753a\uff11\uff15\u2212\uff12"",""acc"":""\u53e1\u5c71\u96fb\u9244\u51fa\u753a\u67f3\u99c5\u3001\u4eac\u962a\u96fb\u9244\u51fa\u753a\u67f3\u99c5\u3000\u5f92\u6b69\u7d042\u5206"",""tel"":""075-712-1856"",""hp"":""https:\/\/falafelgarden.com\/"",""price"":"""",""price_d"":""1,000\u5186\uff5e2,000\u5186"",""price_n"":""2,000\u5186\uff5e3,000\u5186"",""business_h"":"""",""business_hd"":""11:30\uff5e15:00"",""business_hn"":""17:30\uff5e21:00(L.O.20:30)"",""holiday"":""\u6c34\u66dc\u65e5\uff08\u796d\u65e5\u306e\u5834\u5408\u306f\u55b6\u696d\uff09"",""seats"":""60\u5e2d"",""credit"":""\u73fe\u91d1\u30fb\u30ab\u30fc\u30c9\u30fb\u96fb\u5b50\u30de\u30cd\u30fc\u30fbQR\u6c7a\u6e08"",""parking"":""\u8fd1\u96a3\u306b\u30b3\u30a4\u30f3\u30d1\u30fc\u30ad\u30f3\u30b0\u6709"",""swipe_num"":1,""swipe_imgs"":[""34422"",""34423"",""34424""],""desc"":"""",""img_url"":[""https:\/\/vegeness.com\/wp-content\/uploads\/2020\/07\/dell00002816.jpg"",""https:\/\/vegeness.com\/wp-content\/uploads\/2020\/07\/dell00002814.jpg"",""https:\/\/vegeness.com\/wp-content\/uploads\/2020\/07\/dell00002815.jpg""]}",https://vegeness.com/wp-content/uploads/2020/07/dell00002816.jpg,"アジア・エスニック料理,カフェ・スイーツ","veganメニューあり,英語メニューあり,テイクアウトあり"
34431,shop,publish,山食音,,"京都,関西,上京区・北区","{""name"":""\u5c71\u98df\u97f3 \uff08\u3084\u307e\u3057\u3087\u304f\u304a\u3093\uff09"",""title"":"""",""zip"":""602-0841"",""addr"":""\u4eac\u90fd\u5e9c\u4eac\u90fd\u5e02\u4e0a\u4eac\u533a\u68b6\u4e95\u753a\uff14\uff14\uff18\u2212\uff11\uff13 \u6e05\u548c\u30d3\u30eb \uff12F"",""acc"":""\u4eac\u962a\u96fb\u8eca\u300c\u51fa\u753a\u67f3\u99c5\u300d\u304b\u3089\u5f92\u6b69\u7d047\u5206"",""tel"":""\u975e\u516c\u958b"",""hp"":""https:\/\/www.facebook.com\/yamashokuon\/"",""price"":"""",""price_d"":""1,000\u5186\uff5e2,000\u5186"",""price_n"":"""",""business_h"":"""",""business_hd"":""12:00\uff5e14:30(L.O.)"",""business_hn"":""18:00\uff5e21:00(L.O.)"",""holiday"":""\u706b\u66dc\u65e5\u30fb\u6c34\u66dc\u65e5"",""seats"":"""",""credit"":""\u73fe\u91d1"",""parking"":""\u8fd1\u96a3\u306b\u30b3\u30a4\u30f3\u30d1\u30fc\u30ad\u30f3\u30b0\u6709"",""swipe_num"":""2"",""swipe_imgs"":[""34432"",""34433""],""desc"":"""",""img_url"":[""https:\/\/vegeness.com\/wp-content\/uploads\/2020\/07\/dell00002821.jpg"",""https:\/\/vegeness.com\/wp-content\/uploads\/2020\/07\/dell00002819.jpg""]}",https://vegeness.com/wp-content/uploads/2020/07/dell00002821.jpg,アジア・エスニック料理,"veganメニューあり,テイクアウトあり"
34434,shop,publish,"naturalfood Village （ナチュラルフード ビレッジ）",,"京都,関西,左京区・山科区","{""name"":""naturalfood Village \uff08\u30ca\u30c1\u30e5\u30e9\u30eb\u30d5\u30fc\u30c9 \u30d3\u30ec\u30c3\u30b8\uff09"",""title"":"""",""zip"":""606-8172"",""addr"":""\u4eac\u90fd\u5e9c\u4eac\u90fd\u5e02\u5de6\u4eac\u533a\u4e00\u4e57\u5bfa\u7bc9\u7530\u753a95 \u7b2c\u4e00 \u7b2c\u4e8c\u30e1\u30be\u30f3\u767d\u5ddd 202"",""acc"":""\u4e00\u4e57\u5bfa\u99c5\u304b\u3089\u5f92\u6b698\u5206"",""tel"":""075-712-3372"",""hp"":""https:\/\/www.instagram.com\/village.kyoto.natural\/"",""price"":"""",""price_d"":""1,000\u5186\uff5e2,000\u5186"",""price_n"":"""",""business_h"":"""",""business_hd"":""12:00\uff5e15:00"",""business_hn"":""18:00\uff5e24:00"",""holiday"":""\u6708\u66dc"",""seats"":""23\u5e2d"",""credit"":""\u73fe\u91d1"",""parking"":"""",""swipe_num"":1,""swipe_imgs"":[""34435"",""34436"",""34437""],""desc"":"""",""img_url"":[""https:\/\/vegeness.com\/wp-content\/uploads\/2020\/07\/dell00002824.jpg"",""https:\/\/vegeness.com\/wp-content\/uploads\/2020\/07\/dell00002822.jpg"",""https:\/\/vegeness.com\/wp-content\/uploads\/2020\/07\/dell00002823.jpg""]}",https://vegeness.com/wp-content/uploads/2020/07/dell00002824.jpg,"和食,カフェ・スイーツ",veganメニューあり
34270,shop,publish,"Pono cafe","&nbsp;

閑静な住宅地としても知られる三田市の一角にあるこちらのお店。

&nbsp;

<img class=""aligncenter size-full wp-image-34439"" src=""https://vegeness.com/wp-content/uploads/2020/07/dell00002825.jpg"" alt="""" width=""600"" height=""399"" />

&nbsp;

動物性食材や精製されたお砂糖、お塩、化学調味料を一切使用せず、体に優しくて美味しいお料理が楽しめる「Pono cafe（ポノカフェ）」さんです。

&nbsp;

&nbsp;

店先に立てかけられた大きな杉材が印象的な外観から店内に進むを、木のぬくもりがふんだんに感じられる落ち着いた雰囲気が広がっています。

&nbsp;

<img class=""aligncenter size-full wp-image-34438"" src=""https://vegeness.com/wp-content/uploads/2020/07/img_policy_04.jpg"" alt="""" width=""600"" height=""600"" />

&nbsp;

店内のテーブルや椅子は、店主自らが手作りされたそうですよ。幅約7cmの無垢の杉材を使用されており、杉の香りがする癒やしの空間です。

&nbsp;
<h2>おすすめメニュー紹介</h2>
こちらのポノカフェさんは100％ビーガンメニューのお店なのですが、植物性だけのメニューとは思えない程ちゃんと食べごたえもあり、心もお腹も満たされる事間違いなし！

&nbsp;

ジャズやシャンソン、クラッシクが流れる温かな空間で頂けるおすすめメニューをご紹介します。

&nbsp;

&nbsp;
<h3>ポノバーガー　550円</h3>
<img class=""aligncenter wp-image-34447"" src=""https://vegeness.com/wp-content/uploads/2020/07/116217346_220545465815955_3851976255227776050_n.jpg"" alt="""" width=""500"" height=""500"" />

&nbsp;
<h3>ポノバーガーセット 　800円～</h3>
<img class=""aligncenter wp-image-34441"" src=""https://vegeness.com/wp-content/uploads/2020/07/110830402_208365243909146_9068682747440499031_n.jpg"" alt="""" width=""500"" height=""500"" />

バーガー2個、スープ、おかず　　1,700円
バーガー1個、スープ、おかず　　800円

&nbsp;
<h3>焼きおむすび  各1個 220円</h3>
<img class=""aligncenter wp-image-34470 size-full"" src=""https://vegeness.com/wp-content/uploads/2020/07/111515378_336245014436546_5749572507472373265_n.jpg"" alt="""" width=""500"" height=""500"" />

&nbsp;

&nbsp;
<h3 class=""ttl4"">食べるべき一品 / 本日の定食 1,300円</h3>
<img class=""aligncenter size-full wp-image-34443"" src=""https://vegeness.com/wp-content/uploads/2020/07/img_menu_01.jpg"" alt="""" width=""500"" height=""333"" />

季節の野菜中心に使用したセット。オリーブオイルの串揚げ、春巻き、焼きおにぎりなど。

&nbsp;

&nbsp;
<h2>グルテンフリーにも対応！</h2>
通常メニューのご飯には大麦が入っているので、小麦フリーではありますが、グルテンフリーではありませんが、事前に依頼すると白米や玄米の対応をして下さいます。

また、ケーキも事前予約で米粉ケーキを焼いて下さるそうです。アレルギーの方やグルテンフリー生活をしている方でも安心して利用出来ますよ。

<img class=""aligncenter wp-image-34444"" src=""https://vegeness.com/wp-content/uploads/2020/07/113765962_148939500145762_929160799124351653_n.jpg"" alt="""" width=""500"" height=""500"" />

&nbsp;
<h2>テイクアウトもされています</h2>
お店の味をご自宅でも楽しめます。テイクアウトのお弁当は、エリアによってはデリバリーにも対応して下さるそうなので、気になる方はお店の方に確認してみましょう。

<img class=""aligncenter size-full wp-image-34446"" src=""https://vegeness.com/wp-content/uploads/2020/07/115735755_2702934296694248_3045771077745157088_n.jpg"" alt="""" width=""500"" height=""250"" />

&nbsp;
<h2>最新情報は公式SNSをチェック</h2>
お店の営業時間や季節ごとに変わるおすすめメニューなど、最新の情報を公式SNSでも公開されています。

併せてぜひチェックしてみて下さい。

&nbsp;

公式Instagramはこちらをクリック▼
<a href=""https://www.instagram.com/pono_cafe_pono/"" target=""_blank"" rel=""noopener noreferrer"">＠pono_cafe_pono</a>","兵庫,有馬・三田,関西","{""name"":""Pono cafe\uff08\u30dd\u30ce\u30ab\u30d5\u30a7\uff09"",""title"":"""",""zip"":""669-1515"",""addr"":""\u5175\u5eab\u770c\u4e09\u7530\u5e02\u5927\u539f1310-7"",""acc"":""JR\u4e09\u7530\u99c5\u3088\u308a\u3001\u8eca\u30677\u5206"",""tel"":""079-506-8018"",""hp"":""https:\/\/ponocafe.jp\/index.html"",""price"":"""",""price_d"":""1,000\u5186\uff5e2,000\u5186"",""price_n"":""1,000\u5186\uff5e2,000\u5186"",""business_h"":"""",""business_hd"":""12:00\uff5e15:00(L.O.15:00)"",""business_hn"":""17:00\uff5e\u3000(\u5b8c\u5168\u4e88\u7d04\u5236)\u3000\u203b\u5f53\u65e5\u6b63\u5348\u307e\u3067\u306b\u8981\u4e88\u7d04"",""holiday"":""\u6c34\u66dc\u65e5\u3001\u65e5\u66dc\u65e5\u3001 \u4e0d\u5b9a\u4f11\u3042\u308a"",""seats"":""21\u5e2d"",""credit"":""\u73fe\u91d1"",""parking"":""\u6709(2\u53f0)"",""swipe_num"":""13"",""swipe_imgs"":[""34440"",""34447"",""34443"",""34449"",""34470"",""34450"",""34451"",""34453"",""34448"",""34446"",""34445"",""34439"",""34438""],""desc"":""\u5730\u7403\u3068\u5fc3\u8eab\u306b\u512a\u3057\u3044\u304a\u5e97\u3002\u98df\u54c1\u6dfb\u52a0\u7269\u7121\u6dfb\u52a0\u3001\u30aa\u30fc\u30ac\u30cb\u30c3\u30af\u306e\u304a\u91ce\u83dc\u305f\u3063\u3077\u308a\u3054\u98ef\u3001\u713c\u304d\u304a\u3080\u3059\u3073\u3068\u552f\u4e00\u7121\u4e8c\u306e\u7d76\u54c1\u30cf\u30f3\u30d0\u30fc\u30ac\u30fc\u306e\u304a\u5e97\u3067\u3059\u3002"",""img_url"":[""https:\/\/vegeness.com\/wp-content\/uploads\/2020\/07\/img_gl_l_1.jpg"",""https:\/\/vegeness.com\/wp-content\/uploads\/2020\/07\/116217346_220545465815955_3851976255227776050_n.jpg"",""https:\/\/vegeness.com\/wp-content\/uploads\/2020\/07\/img_menu_01.jpg"",""https:\/\/vegeness.com\/wp-content\/uploads\/2020\/07\/img_gl_l_6.jpg"",""https:\/\/vegeness.com\/wp-content\/uploads\/2020\/07\/111515378_336245014436546_5749572507472373265_n.jpg"",""https:\/\/vegeness.com\/wp-content\/uploads\/2020\/07\/img_gl_l_7.jpg"",""https:\/\/vegeness.com\/wp-content\/uploads\/2020\/07\/110740559_284039903017749_5229800057992219543_n.jpg"",""https:\/\/vegeness.com\/wp-content\/uploads\/2020\/07\/116356986_937538380006951_6116638407510170866_n.jpg"",""https:\/\/vegeness.com\/wp-content\/uploads\/2020\/07\/img_gl_l_11.jpg"",""https:\/\/vegeness.com\/wp-content\/uploads\/2020\/07\/115735755_2702934296694248_3045771077745157088_n.jpg"",""https:\/\/vegeness.com\/wp-content\/uploads\/2020\/07\/115748789_160106688923634_6392511735253267944_n-e1595689197937.jpg"",""https:\/\/vegeness.com\/wp-content\/uploads\/2020\/07\/dell00002825.jpg"",""https:\/\/vegeness.com\/wp-content\/uploads\/2020\/07\/img_policy_04.jpg""]}",https://vegeness.com/wp-content/uploads/2020/07/116217346_220545465815955_3851976255227776050_n.jpg,カフェ・スイーツ,"100%Veganのお店,グルテンフリーメニューあり,テイクアウトあり,宅配サービス,料理教室あり"
34728,shop,publish,"やさいとお酒 ひだまりカフェ",,"東京,関東,蒲田・大森・大田区","{""name"":""\u3084\u3055\u3044\u3068\u304a\u9152 Hidamari\u30ab\u30d5\u30a7 \uff08\u3072\u3060\u307e\u308a\u30ab\u30d5\u30a7\uff09"",""title"":"""",""zip"":""144-0052"",""addr"":""\u6771\u4eac\u90fd\u5927\u7530\u533a\u84b2\u7530\uff14\u4e01\u76ee\uff13\uff11\u2212\uff11"",""acc"":""JR\u4eac\u6d5c\u6771\u5317\u7dda \u84b2\u7530\u99c5\/\u6771\u6025\u6c60\u4e0a\u7dda\u30fb\u591a\u6469\u5ddd\u7dda \u84b2\u7530\u99c5\u3088\u308a \u5f92\u6b695\u5206"",""tel"":""03-6715-7711"",""hp"":""http:\/\/www.hidamari-cafe.com"",""price"":"""",""price_d"":""1,000\u5186\uff5e2,000\u5186"",""price_n"":""1,000\u5186\uff5e2,000\u5186"",""business_h"":"""",""business_hd"":""11:30\uff5e14:00"",""business_hn"":""17:00\uff5e21:00(L.O.20:30)"",""holiday"":""\u65e5\u66dc\u65e5\u3001\u6708\u66dc\u65e5\u3001\u795d\u65e5"",""seats"":""18\u5e2d"",""credit"":""\u73fe\u91d1"",""parking"":""\u8fd1\u96a3\u306b\u30b3\u30a4\u30f3\u30d1\u30fc\u30ad\u30f3\u30b0\u6709"",""swipe_num"":""2"",""swipe_imgs"":[""34731"",""34729""],""desc"":"""",""img_url"":[""https:\/\/vegeness.com\/wp-content\/uploads\/2020\/07\/dell00002833.jpg"",""https:\/\/vegeness.com\/wp-content\/uploads\/2020\/07\/dell00002831.jpg""]}",https://vegeness.com/wp-content/uploads/2020/07/dell00002833.jpg,"和食,カフェ・スイーツ","veganメニューあり,テイクアウトあり"
34732,shop,publish,"ボジュン トミガヤ",,"東京,関東,新宿・代々木・大久保","{""name"":""Bojun TOMIGAYA\uff08 \u30dc\u30b8\u30e5\u30f3 \u30c8\u30df\u30ac\u30e4\uff09"",""title"":"""",""zip"":""151-0063"",""addr"":""\u6771\u4eac\u90fd\u6e0b\u8c37\u533a\u5bcc\u30f6\u8c371-35-20 \u5bcc\u30f6\u8c37\u30b9\u30d7\u30ea\u30f3\u30b0\u30b9 2F"",""acc"":""\u4ee3\u3005\u6728\u516b\u5e61\u99c5\u3000\u5357\u53e3\u304b\u3089\u5f92\u6b69\uff14\u5206"",""tel"":""03-6804-9550"",""hp"":""http:\/\/www.chayam.co.jp\/restaurant\/bojun.html"",""price"":"""",""price_d"":""1,000\u5186\uff5e2,000\u5186"",""price_n"":""2,000\u5186\uff5e3,000\u5186"",""business_h"":""11:30\uff5e23:00(L.O.22:15)"",""business_hd"":"""",""business_hn"":"""",""holiday"":""\u6708\u66dc\u65e5\uff08\u795d\u65e5\u306e\u5834\u5408\u3001\u7fcc\u706b\u66dc\u65e5\uff09"",""seats"":""43\u5e2d"",""credit"":""\u73fe\u91d1\u30fb\u30ab\u30fc\u30c9\u30fbQR\u6c7a\u6e08"",""parking"":""\u8fd1\u96a3\u306b\u30b3\u30a4\u30f3\u30d1\u30fc\u30ad\u30f3\u30b0\u6709"",""swipe_num"":""4"",""swipe_imgs"":[""34734"",""34735"",""34736"",""34733""],""desc"":"""",""img_url"":[""https:\/\/vegeness.com\/wp-content\/uploads\/2020\/07\/dell00002835.jpg"",""https:\/\/vegeness.com\/wp-content\/uploads\/2020\/07\/dell00002836.jpg"",""https:\/\/vegeness.com\/wp-content\/uploads\/2020\/07\/dell00002837.jpg"",""https:\/\/vegeness.com\/wp-content\/uploads\/2020\/07\/dell00002834.jpg""]}",https://vegeness.com/wp-content/uploads/2020/07/dell00002835.jpg,"イタリアン・フレンチ,カフェ・スイーツ","veganメニューあり,英語メニューあり,テイクアウトあり"
34737,shop,publish,ぐるあつ,,"東京,関東,上野・御徒町・浅草","{""name"":""\u3050\u308b\u3042\u3064"",""title"":"""",""zip"":""110-0015"",""addr"":""\u6771\u4eac\u90fd\u53f0\u6771\u533a\u6771\u4e0a\u91ce4-21-6"",""acc"":""\u30e1\u30c8\u30ed\u65e5\u6bd4\u8c37\u7dda\u3000\u5165\u8c37\u99c5\u3088\u308a\u5f92\u6b69\uff16\u5206"",""tel"":""03-5830-3700"",""hp"":""https:\/\/www.facebook.com\/Guruatsu"",""price"":""1,000\u5186\uff5e2,000\u5186"",""price_d"":"""",""price_n"":"""",""business_h"":""11:00\uff5e16:00"",""business_hd"":"""",""business_hn"":"""",""holiday"":""\u65e5\u3001\u795d\u65e5\u3001\u81e8\u6642\u4f11\u696d\u3042\u308a"",""seats"":""20\u5e2d"",""credit"":""\u73fe\u91d1"",""parking"":""\u8fd1\u96a3\u306b\u30b3\u30a4\u30f3\u30d1\u30fc\u30ad\u30f3\u30b0\u6709"",""swipe_num"":""5"",""swipe_imgs"":[""34740"",""34741"",""34742"",""34738"",""34739""],""desc"":"""",""img_url"":[""https:\/\/vegeness.com\/wp-content\/uploads\/2020\/07\/dell00002840.jpg"",""https:\/\/vegeness.com\/wp-content\/uploads\/2020\/07\/dell00002842.jpg"",""https:\/\/vegeness.com\/wp-content\/uploads\/2020\/07\/dell00002843.jpg"",""https:\/\/vegeness.com\/wp-content\/uploads\/2020\/07\/dell00002838.jpg"",""https:\/\/vegeness.com\/wp-content\/uploads\/2020\/07\/dell00002839.jpg""]}",https://vegeness.com/wp-content/uploads/2020/07/dell00002842.jpg,"和食,カフェ・スイーツ,弁当、デリカテッセン","veganメニューあり,テイクアウトあり,オンライン ストアあり"
34745,shop,publish,"ハナダ･ロッソ （HANADA ROSSO）",,"東京,原宿・青山・表参道,関東","{""name"":""\u30cf\u30ca\u30c0\uff65\u30ed\u30c3\u30bd \uff08HANADA ROSSO\uff09"",""title"":"""",""zip"":""150-0001"",""addr"":""\u6771\u4eac\u90fd\u6e0b\u8c37\u533a\u795e\u5bae\u524d\uff16\u4e01\u76ee\uff12\uff18\u2212\uff15 \u5bae\u5d0e\u30d3\u30eb101"",""acc"":""\u660e\u6cbb\u795e\u5bae\u524d\u99c5\u304b\u3089\u5f92\u6b692\u5206"",""tel"":""03-6427-5525"",""hp"":""http:\/\/hanada-rosso.net\/index.html"",""price"":"""",""price_d"":""1,000\u5186\uff5e2,000\u5186"",""price_n"":"""",""business_h"":""[\u6708\uff5e\u91d1] 11:30\uff5e20:00(L.O.19:00) [\u571f\uff65\u65e5\uff65\u795d] 11:30\uff5e20:00(L.O.19:00)"",""business_hd"":"""",""business_hn"":"""",""holiday"":""\u306a\u3057"",""seats"":""19\u5e2d"",""credit"":""\u73fe\u91d1\u30fb\u30ab\u30fc\u30c9"",""parking"":""\u8fd1\u96a3\u306b\u30b3\u30a4\u30f3\u30d1\u30fc\u30ad\u30f3\u30b0\u6709"",""swipe_num"":""4"",""swipe_imgs"":[""34748"",""34746"",""34749"",""34747""],""desc"":"""",""img_url"":[""https:\/\/vegeness.com\/wp-content\/uploads\/2020\/07\/dell00002846.jpg"",""https:\/\/vegeness.com\/wp-content\/uploads\/2020\/07\/dell00002844.jpg"",""https:\/\/vegeness.com\/wp-content\/uploads\/2020\/07\/dell00002847.jpg"",""https:\/\/vegeness.com\/wp-content\/uploads\/2020\/07\/dell00002845.jpg""]}",https://vegeness.com/wp-content/uploads/2020/07/dell00002846.jpg,"和食,カフェ・スイーツ","veganメニューあり,グルテンフリーメニューあり,テイクアウトあり,宅配サービス"
34750,shop,publish,カフェむぎわらい,,"東京,関東,北千住・日暮里・葛飾・荒川","{""name"":""\u30ab\u30d5\u30a7\u3080\u304e\u308f\u3089\u3044"",""title"":"""",""zip"":""116-0014"",""addr"":""\u6771\u4eac\u90fd\u8352\u5ddd\u533a\u6771\u65e5\u66ae\u91cc\uff11\u4e01\u76ee\uff15\u2212\uff16"",""acc"":""\u4e09\u30ce\u8f2a\u99c53\u756a\u51fa\u53e3\u304b\u3089\u5f92\u6b692\u5206"",""tel"":""03-5850-6815"",""hp"":""https:\/\/mugiwarai.com\/"",""price"":"""",""price_d"":""1,000\u5186\uff5e2,000\u5186"",""price_n"":"""",""business_h"":""\uff08\u5e97\u982d\u8ca9\u58f2\uff0910:00\uff5e18:00 \uff08\u30ab\u30d5\u30a7\uff0910:00\uff5e17:00"",""business_hd"":"""",""business_hn"":"""",""holiday"":""\u6708\u66dc\u65e5"",""seats"":""15\u5e2d"",""credit"":""\u73fe\u91d1"",""parking"":""\u8fd1\u96a3\u306b\u30b3\u30a4\u30f3\u30d1\u30fc\u30ad\u30f3\u30b0\u6709"",""swipe_num"":""5"",""swipe_imgs"":[""34755"",""34753"",""34754"",""34752"",""34751""],""desc"":"""",""img_url"":[""https:\/\/vegeness.com\/wp-content\/uploads\/2020\/07\/dell00002852.jpg"",""https:\/\/vegeness.com\/wp-content\/uploads\/2020\/07\/dell00002850.jpg"",""https:\/\/vegeness.com\/wp-content\/uploads\/2020\/07\/dell00002851.jpg"",""https:\/\/vegeness.com\/wp-content\/uploads\/2020\/07\/dell00002849.jpg"",""https:\/\/vegeness.com\/wp-content\/uploads\/2020\/07\/dell00002848.jpg""]}",https://vegeness.com/wp-content/uploads/2020/07/dell00002852.jpg,"カフェ・スイーツ,ベーカリー","veganメニューあり,ベジタリアンメニューあり,テイクアウトあり,オンライン ストアあり,料理教室あり"
34756,shop,publish,松竹圓カフェ,,"東京,関東,上野・御徒町・浅草","{""name"":""\u677e\u7af9\u5713\u30ab\u30d5\u30a7\uff08\u30b7\u30e7\u30a6\u30c1\u30af\u30a8\u30f3\u30ab\u30d5\u30a7\uff09"",""title"":"""",""zip"":""111-0035"",""addr"":""\u6771\u4eac\u90fd\u53f0\u6771\u533a\u897f\u6d45\u83492-7-6"",""acc"":""\u3064\u304f\u3070\u30a8\u30af\u30b9\u30d7\u30ec\u30b9\u300e\u6d45\u8349\u300f\u99c5\u5f92\u6b694\u5206"",""tel"":""03-6802-8355"",""hp"":""https:\/\/www.shochiku-en.com\/"",""price"":"""",""price_d"":""1,000\u5186\uff5e2,000\u5186"",""price_n"":"""",""business_h"":""10:00\u301c20:30"",""business_hd"":"""",""business_hn"":"""",""holiday"":""\u306a\u3057"",""seats"":"""",""credit"":""\u73fe\u91d1\u30fbQR\u6c7a\u6e08"",""parking"":""\u8fd1\u96a3\u306b\u30b3\u30a4\u30f3\u30d1\u30fc\u30ad\u30f3\u30b0\u6709"",""swipe_num"":""4"",""swipe_imgs"":[""34757"",""34759"",""34760"",""34758""],""desc"":"""",""img_url"":[""https:\/\/vegeness.com\/wp-content\/uploads\/2020\/07\/dell00002853.jpg"",""https:\/\/vegeness.com\/wp-content\/uploads\/2020\/07\/dell00002856.jpg"",""https:\/\/vegeness.com\/wp-content\/uploads\/2020\/07\/dell00002857.jpg"",""https:\/\/vegeness.com\/wp-content\/uploads\/2020\/07\/dell00002855.jpg""]}",https://vegeness.com/wp-content/uploads/2020/07/dell00002853.jpg,カフェ・スイーツ,"veganメニューあり,テイクアウトあり,宅配サービス,オンライン ストアあり"
34761,shop,publish,RYUSEN112,,"東京,関東,上野・御徒町・浅草","{""name"":""RYUSEN112\uff08\u30ea\u30e5\u30a6\u30bb\u30f3112\uff09"",""title"":"""",""zip"":""110-0012"",""addr"":""\u6771\u4eac\u90fd\u53f0\u6771\u533a\u7adc\u6cc9\uff11\u4e01\u76ee\uff11\u2212\uff12"",""acc"":""\u5165\u8c37\u99c5\u304b\u3089\u5f92\u6b697\u5206"",""tel"":""\u975e\u516c\u958b"",""hp"":""https:\/\/www.facebook.com\/ryusen112\/"",""price"":"""",""price_d"":""1,000\u5186\uff5e2,000\u5186"",""price_n"":"""",""business_h"":""\uff3b\u706b\u30fb\u6c34\u30fb\u6728\u30fb\u571f\uff3d12:00-18:00 \uff3b\u91d1\uff3d12:00-21:00"",""business_hd"":"""",""business_hn"":"""",""holiday"":""\u65e5\u66dc\u65e5\u30fb\u6c34\u66dc\u65e5"",""seats"":"""",""credit"":""\u73fe\u91d1"",""parking"":""\u8fd1\u96a3\u306b\u30b3\u30a4\u30f3\u30d1\u30fc\u30ad\u30f3\u30b0\u6709"",""swipe_num"":""4"",""swipe_imgs"":[""34792"",""34793"",""34794"",""34795""],""desc"":""\u4ee5\u524d\u3042\u3063\u305fPQ's\u3055\u3093\u3068\u7d71\u5408\u3055\u308c\u305f\u304a\u5e97\u3002\u660e\u308b\u3044\u5e97\u5185\u3067\u98df\u3079\u308b\u30ab\u30ec\u30fc\u306f\u898b\u305f\u76ee\u306e\u53ef\u611b\u3055\u3068\u7f8e\u5473\u3057\u3055\u304c\u9b45\u529b\u7684\u3067\u3059\u3002"",""img_url"":[""https:\/\/vegeness.com\/wp-content\/uploads\/2020\/07\/dell00002886.jpg"",""https:\/\/vegeness.com\/wp-content\/uploads\/2020\/07\/dell00002887.jpg"",""https:\/\/vegeness.com\/wp-content\/uploads\/2020\/07\/dell00002889.jpg"",""https:\/\/vegeness.com\/wp-content\/uploads\/2020\/07\/dell00002890-1.jpg""]}",https://vegeness.com/wp-content/uploads/2020/07/dell00002890.jpg,"アジア・エスニック料理,カフェ・スイーツ","100%Veganのお店,グルテンフリーメニューあり,英語メニューあり,テイクアウトあり"
34767,shop,publish,"THE FARM CAFE",,"東京,関東,上野・御徒町・浅草","{""name"":""THE FARM CAFE\uff08\u30b6\u30d5\u30a1\u30fc\u30e0\u30ab\u30d5\u30a7\uff09"",""title"":"""",""zip"":""111-0033"",""addr"":""\u6771\u4eac\u90fd\u53f0\u6771\u533a\u82b1\u5ddd\u6238\uff11\u4e01\u76ee\uff13\u2212\uff13"",""acc"":""\u6771\u6b66\u30b9\u30ab\u30a4\u30c4\u30ea\u30fc\u30e9\u30a4\u30f3\u6d45\u8349\u99c5\u5317\u53e3\u304b\u3089\u5f92\u6b69\uff12\u5206"",""tel"":""03-5830-8134"",""hp"":""https:\/\/thefarmcafetokyo.business.site\/"",""price"":"""",""price_d"":""1,000\u5186\uff5e2,000\u5186"",""price_n"":""3,000\u5186\uff5e4,000\u5186"",""business_h"":""11:30~18:00"",""business_hd"":"""",""business_hn"":"""",""holiday"":""\u6708\u66dc\u65e5"",""seats"":""20\u5e2d"",""credit"":""\u73fe\u91d1\u30fb\u30ab\u30fc\u30c9\u30fb\u96fb\u5b50\u30de\u30cd\u30fc"",""parking"":""\u8fd1\u96a3\u306b\u30b3\u30a4\u30f3\u30d1\u30fc\u30ad\u30f3\u30b0\u6709"",""swipe_num"":""5"",""swipe_imgs"":[""34770"",""34771"",""34772"",""34774"",""34773""],""desc"":"""",""img_url"":[""https:\/\/vegeness.com\/wp-content\/uploads\/2020\/07\/dell00002865.jpg"",""https:\/\/vegeness.com\/wp-content\/uploads\/2020\/07\/dell00002866.jpg"",""https:\/\/vegeness.com\/wp-content\/uploads\/2020\/07\/dell00002867.jpg"",""https:\/\/vegeness.com\/wp-content\/uploads\/2020\/07\/dell00002869.jpg"",""https:\/\/vegeness.com\/wp-content\/uploads\/2020\/07\/dell00002868.jpg""]}",https://vegeness.com/wp-content/uploads/2020/07/dell00002865.jpg,"和食,カフェ・スイーツ","100%Veganのお店,グルテンフリーメニューあり,英語メニューあり,テイクアウトあり"
34775,shop,publish,"SASAYA CAFE",,"東京,関東,錦糸町・両国・亀戸","{""name"":""SASAYA CAFE\uff08\u30b5\u30b5\u30e4\u30ab\u30d5\u30a7\uff09"",""title"":"""",""zip"":""130-0003"",""addr"":""\u6771\u4eac\u90fd\u58a8\u7530\u533a\u6a2a\u5ddd\uff11\u4e01\u76ee\uff11\u2212\uff11\uff10"",""acc"":""\u6771\u6b66\u4f0a\u52e2\u5d0e\u7dda\u3000\u3068\u3046\u304d\u3087\u3046\u30b9\u30ab\u30a4\u30c4\u30ea\u30fc\u99c5\u304b\u3089\u5f92\u6b69\uff11\uff12\u5206"",""tel"":""03-3623-6341"",""hp"":""http:\/\/sasaya-cafe.com\/"",""price"":"""",""price_d"":""1,000\u5186\uff5e2,000\u5186"",""price_n"":"""",""business_h"":""8:30\uff5e18:00"",""business_hd"":""11:00\uff5e14:00"",""business_hn"":"""",""holiday"":""\u4e0d\u5b9a\u4f11"",""seats"":""45\u5e2d"",""credit"":""\u73fe\u91d1\u30fb\u30ab\u30fc\u30c9"",""parking"":""\u8fd1\u96a3\u306b\u30b3\u30a4\u30f3\u30d1\u30fc\u30ad\u30f3\u30b0\u6709"",""swipe_num"":""7"",""swipe_imgs"":[""34777"",""34781"",""34778"",""34780"",""34779"",""34782"",""34776""],""desc"":"""",""img_url"":[""https:\/\/vegeness.com\/wp-content\/uploads\/2020\/07\/dell00002871.jpg"",""https:\/\/vegeness.com\/wp-content\/uploads\/2020\/07\/dell00002875.jpg"",""https:\/\/vegeness.com\/wp-content\/uploads\/2020\/07\/dell00002872.jpg"",""https:\/\/vegeness.com\/wp-content\/uploads\/2020\/07\/dell00002874.jpg"",""https:\/\/vegeness.com\/wp-content\/uploads\/2020\/07\/dell00002873.jpg"",""https:\/\/vegeness.com\/wp-content\/uploads\/2020\/07\/dell00002876.jpg"",""https:\/\/vegeness.com\/wp-content\/uploads\/2020\/07\/dell00002870.jpg""]}",https://vegeness.com/wp-content/uploads/2020/07/dell00002871.jpg,カフェ・スイーツ,100%Veganのお店
34783,shop,publish,"Veggie House （ベジ ハウス）",,"東京,関東,錦糸町・両国・亀戸","{""name"":""Veggie House\uff08\u30d9\u30b8 \u30cf\u30a6\u30b9\uff09\u6771\u4eac\u53f0\u6e7e\u7d20\u98df"",""title"":"""",""zip"":""130-0012"",""addr"":""\u6771\u4eac\u90fd\u58a8\u7530\u533a\u592a\u5e73\uff14\u4e01\u76ee\uff17\u2212\uff11\uff10"",""acc"":""\u9326\u7cf8\u753a\u99c5\u304b\u3089\u5f92\u6b697\u5206"",""tel"":""03-3625-1245"",""hp"":""https:\/\/www.facebook.com\/veggiehousetokyotw\/"",""price"":"""",""price_d"":""\uff5e1,000\u5186"",""price_n"":""2,000\u5186\uff5e3,000\u5186"",""business_h"":"""",""business_hd"":""11:30\uff5e14:00"",""business_hn"":""17:00\uff5e20:00"",""holiday"":""\u6708\u66dc\u65e5"",""seats"":"""",""credit"":""\u73fe\u91d1\u30fb\u30ab\u30fc\u30c9"",""parking"":""\u8fd1\u96a3\u306b\u30b3\u30a4\u30f3\u30d1\u30fc\u30ad\u30f3\u30b0\u6709"",""swipe_num"":""6"",""swipe_imgs"":[""34788"",""34786"",""34784"",""34785"",""34787"",""34789""],""desc"":"""",""img_url"":[""https:\/\/vegeness.com\/wp-content\/uploads\/2020\/07\/dell00002883.jpg"",""https:\/\/vegeness.com\/wp-content\/uploads\/2020\/07\/dell00002880.jpg"",""https:\/\/vegeness.com\/wp-content\/uploads\/2020\/07\/dell00002877.jpg"",""https:\/\/vegeness.com\/wp-content\/uploads\/2020\/07\/dell00002879.jpg"",""https:\/\/vegeness.com\/wp-content\/uploads\/2020\/07\/dell00002881.jpg"",""https:\/\/vegeness.com\/wp-content\/uploads\/2020\/07\/dell00002885.jpg""]}",https://vegeness.com/wp-content/uploads/2020/07/dell00002883.jpg,アジア・エスニック料理,"veganメニューあり,英語メニューあり,テイクアウトあり"
34796,shop,publish,"Organic Cafe ゆきすきのくに",,"東京,関東,吉祥寺・荻窪・三鷹","{""name"":""Organic Cafe \u3086\u304d\u3059\u304d\u306e\u304f\u306b"",""title"":"""",""zip"":""167-0042"",""addr"":""\u6771\u4eac\u90fd\u6749\u4e26\u533a\u897f\u837b\u5317\uff13\u4e01\u76ee\uff11\uff16\u2212\uff13 \u897f\u837b\u795e\u697d\u30d3\u30eb 1F"",""acc"":""\u897f\u837b\u7aaa\u99c5\u304b\u3089\u5f92\u6b69\uff12\u5206"",""tel"":""03-6913-9370"",""hp"":""https:\/\/yukisuki-cafe.jp\/"",""price"":"""",""price_d"":""1,000\u5186\uff5e2,000\u5186"",""price_n"":"""",""business_h"":""11:30 \uff5e 17:00\uff0816:00 L.0\uff09"",""business_hd"":"""",""business_hn"":"""",""holiday"":""\u6708\u66dc\u30fb\u6728\u66dc\u5b9a\u4f11"",""seats"":""20\u5e2d"",""credit"":""\u73fe\u91d1\u30fb\u30ab\u30fc\u30c9\u30fb\u96fb\u5b50\u30de\u30cd\u30fc"",""parking"":""\u8fd1\u96a3\u306b\u30b3\u30a4\u30f3\u30d1\u30fc\u30ad\u30f3\u30b0\u6709"",""swipe_num"":""2"",""swipe_imgs"":[""34797"",""34798""],""desc"":"""",""img_url"":[""https:\/\/vegeness.com\/wp-content\/uploads\/2020\/07\/dell00002891.jpg"",""https:\/\/vegeness.com\/wp-content\/uploads\/2020\/07\/dell00002892.jpg""]}",https://vegeness.com/wp-content/uploads/2020/07/dell00002891.jpg,カフェ・スイーツ,"veganメニューあり,グルテンフリーメニューあり,英語メニューあり"
34859,shop,publish,やまねこカフェ,"尾道の海岸通りには「やまねこカフェ」という人気のカフェがあります。

赤いオーニングと白地に赤いやまねこの看板が目印です。

&nbsp;

<img class=""aligncenter size-full wp-image-34861"" src=""https://vegeness.com/wp-content/uploads/2020/08/IMG_0528.jpg"" alt="""" width=""600"" height=""450"" />

&nbsp;

お店の入り口には「ごゆっくりお過ごしください」の文字が。この文字を見た瞬間から、普段とは違う時間が流れ始めるような気がします。

&nbsp;

<img class=""aligncenter size-full wp-image-34862"" src=""https://vegeness.com/wp-content/uploads/2020/08/IMG_0535.jpg"" alt="""" width=""600"" height=""450"" />

&nbsp;

平日の少し遅めの時間に伺ったのですが、たくさんのお客さまで満席。待つ間に商店街をぶらぶらしていると、ほどなくお店のスタッフの方から席が空いたと連絡をいただきました。こんな細やかな気遣いもありがたいですね。

&nbsp;
<h2 class=""oo9gr5id m6dqt4wy hnhda86s lzcic4wl oi732d6d ik7dh3pa d2edcug0 qv66sw1b c1et5uql a8c37x1j irj2b8pg q9se6cdp h7mekvxk hzawbc8m"" dir=""auto"">やまねこカフェ店内の雰囲気</h2>
<img class=""aligncenter size-full wp-image-34863"" src=""https://vegeness.com/wp-content/uploads/2020/08/IMG_0556c.jpg"" alt="""" width=""600"" height=""471"" />

店内には絵や本などがセンスよくディスプレイされていて、どこに目をやってもワクワクしてしまいます。

&nbsp;

<img class=""aligncenter size-full wp-image-34864"" src=""https://vegeness.com/wp-content/uploads/2020/08/IMG_0548.jpg"" alt="""" width=""600"" height=""450"" />

&nbsp;

おひとりの時間を楽しまれる方、お仕事の合間のランチっぽいお二人、観光の途中らしいグループの方など、いろいろなお客さまがそれぞれの時間を過ごしているようでした。

&nbsp;
<h2>おすすめヴィーガンメニュー</h2>
3種類のランチのうち、「おやさいランチ」がヴィーガンメニュー。

&nbsp;

<img class=""aligncenter size-full wp-image-34865"" src=""https://vegeness.com/wp-content/uploads/2020/08/IMG_0538.jpg"" alt="""" width=""600"" height=""450"" />

&nbsp;

ノンベジの方にも好評で、ランチのお客様の3～4割が注文されるそうです。

ディナータイムには「おやさいプレート」として同じメニューをいただけます。

&nbsp;
<h3>■おやさいランチ　1,000円（税別）</h3>
<img class=""aligncenter size-full wp-image-34866"" src=""https://vegeness.com/wp-content/uploads/2020/08/IMG_0542c.jpg"" alt="""" width=""600"" height=""450"" />

&nbsp;

運ばれてきた「おやさいランチ」の、なんとも鮮やかな彩りに目を奪われました！

契約農家から届く、新鮮で旨味たっぷりの野菜が惜しみなく使われています。

手前の丸いのは「ひじきと押麦の和風コロッケ」。芽ひじきと押麦が混ぜ込まれたなめらかなお芋のマッシュを、サクサクの衣が包んでいます。

「お豆富ステーキ～くるみ味噌～」は、ふわふわのお豆富の外側はカリッと香ばしく焼かれ、カリカリのくるみの食感が楽しい甘辛いくるみ味噌とのバランスの良さは、永遠に食べていたいほどです。

サラダにのっている鮮やかなピンクは紫キャベツのラぺです。彩りも素敵ですが、紫キャベツのこんなおいしい食べ方があったとは。

豆富の上にあしらわれたアスパラガスや、その脇のナスやカボチャ、ゴボウなど、どの野菜も味と食感が実に鮮烈です。野菜っておいしい！と感動する一皿でした。

&nbsp;
<h3>■バナナとココナッツのケーキ＋ジェラート 500円（税別）</h3>
<img class=""aligncenter size-full wp-image-34867"" src=""https://vegeness.com/wp-content/uploads/2020/08/IMG_0554c.jpg"" alt="""" width=""600"" height=""450"" />

&nbsp;

デザートに「バナナとココナッツのケーキ＋ジェラート」もいただきました。

このケーキは卵と乳製品不使用で、バターの代わりに菜種油を用い、小麦粉だけでなく味に深みを与えるふすま粉もプラスして、毎日お店で焼いているそうです。

ふっくらとしたケーキはほんのりと温かく、バナナの風味の中にココナッツの優しい香りを感じます。お皿に添えられたラスベリーソースやチョコレートソースをつけていただくと、また違った味に。

日替わりのシャーベットは素晴らしい香りの「ゆず」。こちらも大満足でした。

&nbsp;

<img class=""aligncenter size-full wp-image-34868"" src=""https://vegeness.com/wp-content/uploads/2020/08/IMG_0530.jpg"" alt="""" width=""600"" height=""450"" />

&nbsp;

尾道を訪れたらぜひ「やまねこカフェ」に立ち寄ってみてくださいね。

&nbsp;
<h2>店舗情報</h2>
【住所】〒722-0035 広島県 尾道市土堂2-9-33

【アクセス】　JR尾道駅より徒歩10分

【TEL】　0848-21-5355

&nbsp;

【公式サイト】　<a href=""http://www.ittoku-go.com/"" target=""_blank"" rel=""noopener noreferrer"">http://www.ittoku-go.com/</a>

【公式SNS】

Facebook&#x25b6;　<a href=""https://www.facebook.com/yamanekocafe/"" target=""_blank"" rel=""noopener noreferrer"">https://www.facebook.com/yamanekocafe/</a>

Instagram&#x25b6;　<a href=""https://www.instagram.com/yamanekocafe_official/?hl=ja"" target=""_blank"" rel=""noopener noreferrer"">https://www.instagram.com/yamanekocafe_official/?hl=ja</a>

【e-mail】　 <a href=""mailto:yamaneko@ittoku-go.com"">yamaneko@ittoku-go.com</a>

&nbsp;

【営業時間】　11：00～22：00

（ランチタイム11：00～14：00、ティータイム14：00～18：00。2020年7月現在、ディナータイムの営業はお休み中です。再開時期についてはお店のSNSでご確認ください）

【定休日】　月曜日※祝日の場合は火曜日

【ジャンル】　カフェ

【平均予算】　ランチ：1000円～　　カフェ：350円～

【支払方法】　現金、PayPay、おのみちGO!GO!キャンペーンクーポン使用可。（<a href=""https://www.city.onomichi.hiroshima.jp/soshiki/27/34210.html"" target=""_blank"" rel=""noopener noreferrer"">https://www.city.onomichi.hiroshima.jp/soshiki/27/34210.html</a>）

【駐車場】　近隣の駐車場を利用

&nbsp;

&nbsp;","広島,尾道市,中国","{""name"":""\u3084\u307e\u306d\u3053\u30ab\u30d5\u30a7"",""title"":"""",""zip"":""722-0035"",""addr"":""\u5e83\u5cf6\u770c\u5c3e\u9053\u5e02\u571f\u5802\uff12\u4e01\u76ee\uff19\u2212\uff13\uff13"",""acc"":""JR\u5c3e\u9053\u99c5\u3088\u308a\u5f92\u6b6910\u5206"",""tel"":""0848-21-5355"",""hp"":""https:\/\/ittoku-go.com\/"",""price"":"""",""price_d"":""1,000\u5186\uff5e2,000\u5186"",""price_n"":"""",""business_h"":""11:00 \u301c 22:00"",""business_hd"":""11:00~14:00"",""business_hn"":"""",""holiday"":""\u6708\u66dc\u65e5"",""seats"":""25\u5e2d"",""credit"":""\u73fe\u91d1\u3001PayPay\u3001\u304a\u306e\u307f\u3061GO!GO!\u30ad\u30e3\u30f3\u30da\u30fc\u30f3\u30af\u30fc\u30dd\u30f3\u4f7f\u7528\u53ef"",""parking"":""\u8fd1\u96a3\u306b\u30b3\u30a4\u30f3\u30d1\u30fc\u30ad\u30f3\u30b0\u6709"",""swipe_num"":""8"",""swipe_imgs"":[""34867"",""34866"",""34861"",""34868"",""34862"",""34864"",""34863"",""34865""],""desc"":"""",""img_url"":[""https:\/\/vegeness.com\/wp-content\/uploads\/2020\/08\/IMG_0554c.jpg"",""https:\/\/vegeness.com\/wp-content\/uploads\/2020\/08\/IMG_0542c.jpg"",""https:\/\/vegeness.com\/wp-content\/uploads\/2020\/08\/IMG_0528.jpg"",""https:\/\/vegeness.com\/wp-content\/uploads\/2020\/08\/IMG_0530.jpg"",""https:\/\/vegeness.com\/wp-content\/uploads\/2020\/08\/IMG_0535.jpg"",""https:\/\/vegeness.com\/wp-content\/uploads\/2020\/08\/IMG_0548.jpg"",""https:\/\/vegeness.com\/wp-content\/uploads\/2020\/08\/IMG_0556c.jpg"",""https:\/\/vegeness.com\/wp-content\/uploads\/2020\/08\/IMG_0538.jpg""]}",https://vegeness.com/wp-content/uploads/2020/08/IMG_0542c.jpg,カフェ・スイーツ,"veganメニューあり,テイクアウトあり,宅配サービス"
34949,shop,publish,"素食カフェRen 銀閣寺店",,"京都,関西,左京区・山科区","{""name"":""\u7d20\u98df\u30ab\u30d5\u30a7Ren \u9280\u95a3\u5bfa\u5e97"",""title"":"""",""zip"":""606-8417"",""addr"":""\u4eac\u90fd\u5e9c\u4eac\u90fd\u5e02\u5de6\u4eac\u533a\u6d44\u571f\u5bfa\u897f\u7530\u753a\uff11\uff11\uff15\u2212\uff11\uff15"",""acc"":""\u5143\u7530\u4e2d\u99c5\u304b\u3089\u5f92\u6b6917\u5206"",""tel"":""090-8147-7815"",""hp"":""https:\/\/cafe-ren-ginkakuji.therestaurant.jp\/"",""price"":"""",""price_d"":""1,000\u5186\uff5e2,000\u5186"",""price_n"":"""",""business_h"":""11:00\u301c22:00"",""business_hd"":"""",""business_hn"":"""",""holiday"":""\u4e0d\u5b9a\u4f11"",""seats"":"""",""credit"":""\u73fe\u91d1"",""parking"":""\u8fd1\u96a3\u306b\u30b3\u30a4\u30f3\u30d1\u30fc\u30ad\u30f3\u30b0\u6709"",""swipe_num"":""4"",""swipe_imgs"":[""34951"",""34952"",""34950"",""34953""],""desc"":"""",""img_url"":[""https:\/\/vegeness.com\/wp-content\/uploads\/2020\/08\/dell00002895.jpg"",""https:\/\/vegeness.com\/wp-content\/uploads\/2020\/08\/dell00002896.jpg"",""https:\/\/vegeness.com\/wp-content\/uploads\/2020\/08\/dell00002898.jpg"",""https:\/\/vegeness.com\/wp-content\/uploads\/2020\/08\/dell00002897.jpg""]}",https://vegeness.com/wp-content/uploads/2020/08/dell00002896.jpg,"和食,カフェ・スイーツ",100%Veganのお店
35073,shop,publish,"エヴァダイニング 博多いっぴん通り店",,"福岡,博多駅周辺,九州・沖縄","{""name"":""\u30a8\u30f4\u30a1\u30c0\u30a4\u30cb\u30f3\u30b0\uff08Evah Dining\uff09 \u535a\u591a\u3044\u3063\u3074\u3093\u901a\u308a\u5e97"",""title"":"""",""zip"":""812-0012"",""addr"":""\u798f\u5ca1\u770c\u798f\u5ca1\u5e02\u535a\u591a\u533a\u535a\u591a\u99c5\u4e2d\u592e\u8857\uff11\u2212\uff11 \u535a\u591a\u30c7\u30a4\u30c8\u30b9 \u3044\u3063\u3074\u3093\u901a\u308a"",""acc"":""JR\u535a\u591a\u99c5\uff11\u5206"",""tel"":""092-483-2262"",""hp"":""https:\/\/evahdining.com\/"",""price"":"""",""price_d"":""\uff5e1,000\u5186"",""price_n"":""\uff5e1,000\u5186"",""business_h"":""7:00\uff5e22:00"",""business_hd"":"""",""business_hn"":"""",""holiday"":""\u306a\u3057"",""seats"":"""",""credit"":""\u73fe\u91d1"",""parking"":""\u8fd1\u96a3\u306b\u30b3\u30a4\u30f3\u30d1\u30fc\u30ad\u30f3\u30b0\u6709"",""swipe_num"":""5"",""swipe_imgs"":[""35075"",""35076"",""35077"",""35078"",""35074""],""desc"":"""",""img_url"":[""https:\/\/vegeness.com\/wp-content\/uploads\/2020\/08\/dell00002903.jpg"",""https:\/\/vegeness.com\/wp-content\/uploads\/2020\/08\/dell00002904.jpg"",""https:\/\/vegeness.com\/wp-content\/uploads\/2020\/08\/dell00002905.jpg"",""https:\/\/vegeness.com\/wp-content\/uploads\/2020\/08\/dell00002906.jpg"",""https:\/\/vegeness.com\/wp-content\/uploads\/2020\/08\/dell00002907.jpg""]}",https://vegeness.com/wp-content/uploads/2020/08/dell00002906.jpg,"和食,弁当、デリカテッセン","veganメニューあり,テイクアウトあり"
35228,shop,publish,"Cafe & Space Link （カフェ＆スペース　リンク）","&nbsp;

福山市新涯町の住宅街。真っ赤なドアが印象的な「Cafe &amp; Space Link （カフェ＆スペース　リンク）」にお邪魔しました。

&nbsp;

<img class=""aligncenter size-full wp-image-35229"" src=""https://vegeness.com/wp-content/uploads/2020/08/IMG_0562.jpg"" alt="""" width=""600"" height=""450"" />

&nbsp;

こちらはヴィーガン＆グルテンフリーの食事がいただけるカフェ。オーナーさんは、週の半分はリラクゼーションマッサージ（要予約）を、週の半分はカフェを切り盛りされています。そのためお店は不定休。Facebookやブログで営業日を確認してお出かけください。

&nbsp;
<h2>Cafe &amp; Space Linkの店内</h2>
セミナー等に使えるフリースペースや、雑貨販売もあります。

&nbsp;

<img class=""aligncenter size-full wp-image-35230"" src=""https://vegeness.com/wp-content/uploads/2020/08/IMG_0566.jpg"" alt="""" width=""600"" height=""450"" />

&nbsp;

店内には面白そうな本がたくさん。のんびりと店内で読むもよし、読み切れなければ借りて帰ってもOKだそうです。

&nbsp;

<img class=""aligncenter size-full wp-image-35231"" src=""https://vegeness.com/wp-content/uploads/2020/08/IMG_0572.jpg"" alt="""" width=""600"" height=""450"" />

&nbsp;

雑貨はオーナーさんのお知り合いの作家さんのものや、オーナーさんご自身が旅先で集めたものなど、バラエティ豊か。どれも素敵でついつい見入ってしまいますね。

&nbsp;

<img class=""aligncenter size-full wp-image-35232"" src=""https://vegeness.com/wp-content/uploads/2020/08/IMG_0573.jpg"" alt="""" width=""600"" height=""450"" />

&nbsp;
<h2>おすすめヴィーガンメニュー</h2>
メニューは全てヴィーガン＆グルテンフリー。米粉パンもカレーも美味しそうで迷いましたが、今日はトマトとフレッシュバジルの冷製パスタがあると聞いて、そちらに決定です。

&nbsp;

<img class=""aligncenter size-full wp-image-35233"" src=""https://vegeness.com/wp-content/uploads/2020/08/IMG_0576.jpg"" alt="""" width=""600"" height=""450"" />

&nbsp;

野菜は無肥料無農薬で栽培されたものを仕入れておられます。今、野菜が高騰している中、こんな美味しいサラダがいただけるとは。一口ごとに、体が喜んでいるようです。

出していただいたお水はミント水。水素水にたっぷりのミントを入れてあり、まろやかで爽やか。暑い日には嬉しいですね。

&nbsp;

<img class=""aligncenter size-full wp-image-35234"" src=""https://vegeness.com/wp-content/uploads/2020/08/IMG_0577.jpg"" alt="""" width=""600"" height=""450"" />

&nbsp;

パスタができあがりました。トマトとバジルの彩りがキレイです！

使用する麺はそのときに手に入るものをいろいろと試しておられるそうですが、こちらに使っていただいたのはトウモロコシと米粉を水と塩だけで捏ねたもの。食感がモチモチとしていて、食べ応え十分です。

&nbsp;

自家製のピクルスも出していただきました。酸味が加わって野菜の味が際立ちます。

「野菜って美味しいですよね。忙しい日にはコンビニのお弁当なんかも食べますけど、お店のメニューを食べると体がリセットされる気がするんですよ」（オーナーさん）

&nbsp;

<img class=""aligncenter size-full wp-image-35235"" src=""https://vegeness.com/wp-content/uploads/2020/08/IMG_0585.jpg"" alt="""" width=""600"" height=""450"" />

&nbsp;

食後のドリンクには有機みかんのジュースをチョイス。とても溶けやすいため店内でしか食べられない、手作りチョコレートが添えられていました。口の中ですっと溶けていったビターなチョコレートの余韻を味わう幸福なひとときです。

&nbsp;

ご自身の小麦アレルギーをきっかけに、アレルギーのある人でも楽しく食事ができるようにと、ヴィーガンカフェをオープンなさったオーナーさん。米粉マイスターを取得して米粉パンやスイーツづくりを楽しんでおられます。

リクエストがあれば、乳製品アレルギーのお客さまのために豆乳グラタンを作ったり、不要になった着物や帯を譲り受けて生まれ変わらせたり、いろいろなアンテナを張っておられるオーナーさんの周りには、いろいろな笑顔が集まります。

&nbsp;

気心の知れたお友だちの家に招かれたような気分になる、あたたかいカフェでした。

&nbsp;

<img class=""aligncenter size-full wp-image-35236"" src=""https://vegeness.com/wp-content/uploads/2020/08/IMG_0565.jpg"" alt="""" width=""600"" height=""450"" />

&nbsp;
<h2>お店情報詳細</h2>
〒721-0955 広島県福山市新涯町1-3-44

℡　084-959-4020

<a href=""https://www.facebook.com/CafespaceLink/"" target=""_blank"" rel=""noopener noreferrer"">https://www.facebook.com/CafespaceLink/</a>

<a href=""https://ameblo.jp/link-katsura/"" target=""_blank"" rel=""noopener noreferrer"">https://ameblo.jp/link-katsura/</a>

&nbsp;

営業時間　11：00～17：00

定休日　不定休　（営業日はSNSでご確認ください）

ジャンル　カフェ

予算　ランチ：890～1100円　カフェ：500円～

支払方法　現金、PayPay

駐車場　4台（お店の前に2台、横に2台）

&nbsp;","広島,福山市,中国","{""name"":""Cafe & Space Link \uff08\u30ab\u30d5\u30a7\uff06\u30b9\u30da\u30fc\u30b9\u3000\u30ea\u30f3\u30af\uff09"",""title"":"""",""zip"":""721-0955"",""addr"":""\u5e83\u5cf6\u770c\u798f\u5c71\u5e02\u65b0\u6daf\u753a1-3-44"",""acc"":""\u6771\u798f\u5c71\u99c5\u304b\u3089\u8eca\u30679\u5206"",""tel"":""084-959-4020"",""hp"":""https:\/\/www.facebook.com\/CafespaceLink\/"",""price"":""\u30e9\u30f3\u30c1\uff1a890\uff5e1100\u5186\u3000\u30ab\u30d5\u30a7\uff1a500\u5186\uff5e"",""price_d"":"""",""price_n"":"""",""business_h"":""11:00~17:00"",""business_hd"":"""",""business_hn"":"""",""holiday"":""\u4e0d\u5b9a\u4f11\u3000\uff08\u55b6\u696d\u65e5\u306fSNS\u3067\u3054\u78ba\u8a8d\u304f\u3060\u3055\u3044\uff09"",""seats"":"""",""credit"":""\u73fe\u91d1\u30fbPayPay"",""parking"":""4\u53f0\uff08\u304a\u5e97\u306e\u524d\u306b2\u53f0\u3001\u6a2a\u306b2\u53f0\uff09"",""swipe_num"":""8"",""swipe_imgs"":[""35234"",""35233"",""35235"",""35232"",""35229"",""35236"",""35230"",""35231""],""desc"":"""",""img_url"":[""https:\/\/vegeness.com\/wp-content\/uploads\/2020\/08\/IMG_0577.jpg"",""https:\/\/vegeness.com\/wp-content\/uploads\/2020\/08\/IMG_0576.jpg"",""https:\/\/vegeness.com\/wp-content\/uploads\/2020\/08\/IMG_0585.jpg"",""https:\/\/vegeness.com\/wp-content\/uploads\/2020\/08\/IMG_0573.jpg"",""https:\/\/vegeness.com\/wp-content\/uploads\/2020\/08\/IMG_0562.jpg"",""https:\/\/vegeness.com\/wp-content\/uploads\/2020\/08\/IMG_0565.jpg"",""https:\/\/vegeness.com\/wp-content\/uploads\/2020\/08\/IMG_0566.jpg"",""https:\/\/vegeness.com\/wp-content\/uploads\/2020\/08\/IMG_0572.jpg""]}",https://vegeness.com/wp-content/uploads/2020/08/IMG_0577.jpg,カフェ・スイーツ,"veganメニューあり,グルテンフリーメニューあり"
35382,shop,publish,にしまきごはん,"新宿まで電車で約15分の好アクセスのJR三鷹駅から３駅のところにある武蔵小金井駅。

こちらの駅を南口に出て、徒歩圏内にある「にしまきごはん」さん。

&nbsp;

<img class=""aligncenter size-full wp-image-35384"" src=""https://vegeness.com/wp-content/uploads/2020/08/dell00002912.jpg"" alt="""" width=""600"" height=""450"" />

&nbsp;

閑静な住宅地の中にあるこちらのにしまきごはんさんは、全てのメニューに動物性食材を使用しないオールヴィーガンの一軒家レストランです。

&nbsp;
<h2>にしまきごはんの外観</h2>
バス道から１本入ったところにあり、環境としても落ち着いている雰囲気の中に、ブラウンを基調とした一軒家レストラン。こちらがにしまきごはんさんです。

&nbsp;

周囲の環境にも溶け込んだ温かみのある外観で、入口にはその日のメニューが書かれた看板がお出迎えしてくれますよ。

&nbsp;

<img class=""aligncenter wp-image-35387 size-full"" src=""https://vegeness.com/wp-content/uploads/2020/08/91810252_1547421355418168_5439992374384132096_n.jpg"" alt="""" width=""600"" height=""600"" />

&nbsp;

”<span class=""oi732d6d ik7dh3pa d2edcug0 qv66sw1b c1et5uql a8c37x1j muag1w35 ew0dbk1b jq4qci2q a3bd9o3v knj5qynh oo9gr5id hzawbc8m"" dir=""auto""><span class=""oi732d6d ik7dh3pa d2edcug0 qv66sw1b c1et5uql jq4qci2q a3bd9o3v knj5qynh oo9gr5id hzawbc8m"">自分で食べて美味しいと思う安心安全な野菜、発酵食品などを使って、体に優しいごはんを”</span></span>

&nbsp;

店主のそんな思いが詰まったベジ料理が楽しめるお店です。

&nbsp;
<h2>にしまきごはんの内観</h2>
落ち着いた雰囲気の外観から１歩店内へ足を踏み入れると、どこか懐かしい様なレトロな空間が広がっています。

&nbsp;

お靴を脱いで、店内に入店するスタイルなので、リラックスして食事が楽しめるのではないでしょうか。

&nbsp;

<img class=""aligncenter size-full wp-image-35386"" src=""https://vegeness.com/wp-content/uploads/2020/08/unnamed.jpg"" alt="""" width=""450"" height=""600"" />

&nbsp;

店内のお席は、テーブル席とお座敷席が用意されています。座る高さが違えば、見える目線も変わるので、同じお店でも違った雰囲気が感じられるかもしれませんよ☆

&nbsp;

お席は事前に予約が可能なので、どちらか希望がある場合は予約の際にお店の方に相談してみましょう。

&nbsp;

日差しの強い時期には入口に簾を出されるそうなのですが、それがまた風情がありますよね。

&nbsp;

<img class=""aligncenter size-full wp-image-35388"" src=""https://vegeness.com/wp-content/uploads/2020/08/dell00002913.jpg"" alt="""" width=""600"" height=""600"" />

&nbsp;

&nbsp;
<h2>にしまきごはんのおすすめメニュー</h2>
にしまきごはんさんでは、全てのメニューが動物性不使用のヴィーガンメニューです。メニューも季節によって変わるので、いつ訪れても飽きがこないのも魅力の一つ。

そんなにしまきごはんさんのおすすめメニューの一部をご紹介します。

&nbsp;

&nbsp;
<h3>本日のごはん 1,080円</h3>
<img class=""aligncenter wp-image-35401 size-full"" src=""https://vegeness.com/wp-content/uploads/2020/08/unnamed3.jpg"" alt="""" width=""600"" height=""600"" />

メニューの内容はその日よって変わります。

通常の量でも十分満足できる量ですが、ごはん大盛り、おかずのみ大盛り、ごはん・おかず大盛りと増量にも対応して頂けるので、ガッツリ食べたい男性にもおすすめです。

&nbsp;

&nbsp;
<h3>ベジカレー　1,080円</h3>
<img class=""aligncenter size-full wp-image-35405"" src=""https://vegeness.com/wp-content/uploads/2020/08/unnamed-1.jpg"" alt="""" width=""600"" height=""600"" />

ひよこ豆入り、レンズ豆入り、高野豆腐入りなど、カレーの内容もその日によって変わるそうです。

もちろんこちらも動物性不使用のヴィーガンキーマカレーです。

&nbsp;

&nbsp;
<h3>乳、卵なしおやつ　350円</h3>
<img class=""aligncenter size-full wp-image-35402"" src=""https://vegeness.com/wp-content/uploads/2020/08/unnamed4.jpg"" alt="""" width=""600"" height=""600"" />

卵や乳製品を使用しないヴィーガンスイーツ。

ベジの方のほか、アレルギーをお持ちの方でも安心して食べられます。

ティータイムのお供にいかがでしょうか。

&nbsp;

&nbsp;
<h3>おにぎり  150円</h3>
<img class=""aligncenter size-full wp-image-35406"" src=""https://vegeness.com/wp-content/uploads/2020/08/unnamed1.jpg"" alt="""" width=""600"" height=""600"" />

手軽に食べられるおにぎりも用意されています。

軽く軽食を楽しみたい時におすすめです。

&nbsp;

&nbsp;
<h3>ランチドリンク(コーヒー、チャイ) 320円</h3>
&nbsp;

&nbsp;

&nbsp;
<h2>テイクアウトも上手に利用しましょう</h2>
<img class=""aligncenter size-full wp-image-35403"" src=""https://vegeness.com/wp-content/uploads/2020/08/unnamed2.jpg"" alt="""" width=""600"" height=""600"" />

&nbsp;

お店のメニューの一部はお弁当としてテイクアウトも可能です。

&nbsp;

お弁当ではありますが、作り置きではなくオーダーが入ってから調理してもらえるので、出来たてで温かいまま持ち帰る事が出来ます。

&nbsp;

こちらも電話で予約が可能なので、事前に受け取り時間を指定して予約すれば待ち時間も少なく済みますよ。

&nbsp;

また、まとまった数であれば、小金井周辺であれば配達もして頂けるそうなので、利用を希望される方はお店の方に相談してみて下さい。

&nbsp;

&nbsp;
<h2>SNSにて最新情報配信中</h2>
お店で提供されるメニュー情報やお弁当情報、新メニューなど、にしまきごはんさんの最新情報は公式SNSで配信されています。

&nbsp;

こちらも併せてチェックしてみて下さい。

&nbsp;

&nbsp;
<blockquote><a href=""https://m.facebook.com/nishimakigohan/"" target=""_blank"" rel=""noopener noreferrer"">&#x25b6;公式Facebookはこちら</a>

&nbsp;

<a href=""https://www.instagram.com/nishimakigohan/"" target=""_blank"" rel=""noopener noreferrer"">&#x25b6;公式Instagramはこちら</a></blockquote>
&nbsp;

&nbsp;

&nbsp;
<h2>体に優しいごはんを</h2>
都心部からもJR中央線を使用すれば、お店まで40分程。

都会の雑踏から少し離れた落ち着いた環境で、体に優しいごはんが楽しめる、そんな温かいお店です。お腹もココロも満たされるにしまきごはんさんへぜひ足を運んでみて下さい。

&nbsp;

<img class=""aligncenter size-full wp-image-35400"" src=""https://vegeness.com/wp-content/uploads/2020/08/unnamed5.jpg"" alt="""" width=""600"" height=""600"" />","東京,関東,吉祥寺・荻窪・三鷹","{""name"":""\u306b\u3057\u307e\u304d\u3054\u306f\u3093"",""title"":"""",""zip"":""184-0012"",""addr"":""\u6771\u4eac\u90fd\u5c0f\u91d1\u4e95\u5e02\u4e2d\u753a 2-13-10"",""acc"":""\u4e2d\u592e\u7dda\u6b66\u8535\u5c0f\u91d1\u4e95\u99c5\u5357\u53e3\u304b\u3089\u5f92\u6b6913\u5206"",""tel"":""042-203-2418"",""hp"":""https:\/\/m.facebook.com\/nishimakigohan\/"",""price"":"""",""price_d"":""1,000\u5186\uff5e2,000\u5186"",""price_n"":"""",""business_h"":""11:00~18:00"",""business_hd"":"""",""business_hn"":"""",""holiday"":""\u6c34\u66dc\u3001\u6728\u66dc\u65e5"",""seats"":""20\u5e2d"",""credit"":""\u73fe\u91d1\u30fbPayPay"",""parking"":""\u8fd1\u96a3\u306b\u30b3\u30a4\u30f3\u30d1\u30fc\u30ad\u30f3\u30b0\u6709"",""swipe_num"":""10"",""swipe_imgs"":[""35401"",""35400"",""35405"",""35406"",""35403"",""35402"",""35387"",""35384"",""35386"",""35388""],""desc"":""\u81ea\u5206\u3067\u98df\u3079\u3066\u7f8e\u5473\u3057\u3044\u3068\u601d\u3046\u5b89\u5fc3\u5b89\u5168\u306a\u91ce\u83dc\u3001\u767a\u9175\u98df\u54c1\u306a\u3069\u3092\u4f7f\u3063\u3066\u3001\u4f53\u306b\u512a\u3057\u3044\u3054\u306f\u3093\u4f7f\u3063\u3066\u3044\u307e\u3059\u3002 JR\u6b66\u8535\u5c0f\u91d1\u4e95\u99c5\u304b\u3089\u5f92\u6b6913\u5206\u306e\u4e00\u8ed2\u5bb6\u3067\u30d9\u30b8\u3054\u98ef\u5c4b\u3084\u3063\u3066\u3044\u307e\u3059\u3002"",""img_url"":[""https:\/\/vegeness.com\/wp-content\/uploads\/2020\/08\/unnamed3.jpg"",""https:\/\/vegeness.com\/wp-content\/uploads\/2020\/08\/unnamed5.jpg"",""https:\/\/vegeness.com\/wp-content\/uploads\/2020\/08\/unnamed-1.jpg"",""https:\/\/vegeness.com\/wp-content\/uploads\/2020\/08\/unnamed1.jpg"",""https:\/\/vegeness.com\/wp-content\/uploads\/2020\/08\/unnamed2.jpg"",""https:\/\/vegeness.com\/wp-content\/uploads\/2020\/08\/unnamed4.jpg"",""https:\/\/vegeness.com\/wp-content\/uploads\/2020\/08\/91810252_1547421355418168_5439992374384132096_n.jpg"",""https:\/\/vegeness.com\/wp-content\/uploads\/2020\/08\/dell00002912.jpg"",""https:\/\/vegeness.com\/wp-content\/uploads\/2020\/08\/unnamed.jpg"",""https:\/\/vegeness.com\/wp-content\/uploads\/2020\/08\/dell00002913.jpg""]}",https://vegeness.com/wp-content/uploads/2020/08/unnamed3.jpg,"和食,カフェ・スイーツ","100%Veganのお店,テイクアウトあり,料理教室あり"
35513,shop,publish,古民家レストランHaze,,"福岡,九州・沖縄,久留米","{""name"":""\u53e4\u6c11\u5bb6\u30ec\u30b9\u30c8\u30e9\u30f3Haze\uff08\u30cf\u30bc\uff09"",""title"":"""",""zip"":""839-0827"",""addr"":""\u798f\u5ca1\u770c\u4e45\u7559\u7c73\u5e02\u5c71\u672c\u753a\u8c4a\u7530\uff11\uff18\uff14\uff19\u2212\uff11"",""acc"":""\u4e45\u7559\u7c73\u30a4\u30f3\u30bf\u30fc\u3088\u308a\u3000\u8eca\u3067\uff18\u5206"",""tel"":""0942-27-6750"",""hp"":""http:\/\/simple-moderne.com\/"",""price"":"""",""price_d"":""2,000\u5186\uff5e3,000\u5186"",""price_n"":""5,000\u5186\uff5e6,000\u5186"",""business_h"":"""",""business_hd"":""11:30\uff5e14:30\u3000(L.O.)"",""business_hn"":""18:00\uff5e20:00\uff08\u5b8c\u5168\u4e88\u7d04\u5236\uff09"",""holiday"":""\u6708\u66dc\u65e5\u30fb\u706b\u66dc\u65e5"",""seats"":""24\u5e2d"",""credit"":""\u73fe\u91d1"",""parking"":""\u6709(10\u53f0)"",""swipe_num"":""1"",""swipe_imgs"":[""35514""],""desc"":"""",""img_url"":[""https:\/\/vegeness.com\/wp-content\/uploads\/2020\/08\/dell00002920.jpg""]}",https://vegeness.com/wp-content/uploads/2020/08/dell00002920.jpg,イタリアン・フレンチ,"veganメニューあり,料理教室あり"
35530,shop,publish,Veggie食堂　船出屋,,"福岡,九州・沖縄,古賀","{""name"":""Veggie\u98df\u5802\u3000\u8239\u51fa\u5c4b\uff08\u3075\u306a\u3067\u3084\uff09"",""title"":"""",""zip"":""811-3106"",""addr"":""\u798f\u5ca1\u770c\u53e4\u8cc0\u5e02\u65e5\u54093\u4e01\u76ee17-12"",""acc"":""JR\u9e7f\u5150\u5cf6\u672c\u7dda(\u3057\u3057\u3076\u99c5)\u5f92\u6b69\uff13\u5206"",""tel"":""092-980-2631"",""hp"":""https:\/\/r.goope.jp\/funadeya"",""price"":"""",""price_d"":""1,000\u5186\uff5e2,000\u5186"",""price_n"":""1,000\u5186\uff5e2,000\u5186"",""business_h"":"""",""business_hd"":""11:30\uff5e16:00"",""business_hn"":""17:00\uff5e21:00"",""holiday"":""\u6708\u66dc\u65e5\u30fb\u7b2c\uff11\u30fb\u7b2c\uff13\u706b\u66dc\u65e5"",""seats"":""17\u5e2d"",""credit"":""\u73fe\u91d1"",""parking"":""\u6709(3\u53f0)"",""swipe_num"":""2"",""swipe_imgs"":[""35531"",""35532""],""desc"":"""",""img_url"":[""https:\/\/vegeness.com\/wp-content\/uploads\/2020\/08\/dell00002922.jpg"",""https:\/\/vegeness.com\/wp-content\/uploads\/2020\/08\/dell00002921.jpg""]}",https://vegeness.com/wp-content/uploads/2020/08/dell00002922.jpg,"和食,カフェ・スイーツ","100%Veganのお店,テイクアウトあり"
35533,shop,publish,玄米食おひさま,,"佐賀市,佐賀,九州・沖縄","{""name"":""\u7384\u7c73\u98df\u304a\u3072\u3055\u307e"",""title"":"""",""zip"":""840-0823"",""addr"":""\u4f50\u8cc0\u770c\u4f50\u8cc0\u5e02\u591a\u5e03\u65bd\uff12\u4e01\u76ee\uff15\u2212\uff13\uff10"",""acc"":""\u4f50\u8cc0\u99c5\u304b\u3089\u5f92\u6b6910\u5206"",""tel"":""0952-28-7883"",""hp"":""https:\/\/ohisama.esaga.jp\/"",""price"":"""",""price_d"":""1,000\u5186\uff5e2,000\u5186"",""price_n"":""2,000\u5186\uff5e3,000\u5186"",""business_h"":""9:00\u301c18:30 \u203b\u571f\u66dc\u30fb\u65e5\u66dc\u30fb\u6708\u66dc\u30fb\u795d\u65e5\u306f17\uff1a00\u307e\u3067\u306e\u55b6\u696d"",""business_hd"":""11:30\uff5e14:00"",""business_hn"":"""",""holiday"":""\u65e5\u307e\u305f\u306f\u6708\u306e\u4e0d\u5b9a\u4f11"",""seats"":"""",""credit"":""\u73fe\u91d1"",""parking"":""\u6709"",""swipe_num"":""2"",""swipe_imgs"":[""35534"",""35535""],""desc"":"""",""img_url"":[""https:\/\/vegeness.com\/wp-content\/uploads\/2020\/08\/dell00002925.jpg"",""https:\/\/vegeness.com\/wp-content\/uploads\/2020\/08\/dell00002924.jpg""]}",https://vegeness.com/wp-content/uploads/2020/08/dell00002925.jpg,和食,"veganメニューあり,料理教室あり"
35536,shop,publish,"週末マクロビcafe 三調家",,"佐賀市,佐賀,九州・沖縄","{""name"":""\u9031\u672b\u30de\u30af\u30ed\u30d3cafe \u4e09\u8abf\u5bb6 \uff08\u3055\u3093\u3061\u3087\u3046\u304b\uff09"",""title"":"""",""zip"":""840-0543"",""addr"":""\u4f50\u8cc0\u770c\u4f50\u8cc0\u5e02\u5bcc\u58eb\u753a\u5927\u5b57\u53e4\u5834\uff11\uff16\uff18\uff18"",""acc"":""\u4e09\u702c\u30c8\u30f3\u30cd\u30eb\u304b\u3089\u8eca\u306710\u5206"",""tel"":""0952-57-2087"",""hp"":""\u306a\u3057"",""price"":"""",""price_d"":""1,000\u5186\uff5e2,000\u5186"",""price_n"":"""",""business_h"":""11:00\uff5e17:00"",""business_hd"":"""",""business_hn"":"""",""holiday"":""\u6708\uff5e\u6728"",""seats"":"""",""credit"":""\u73fe\u91d1"",""parking"":""\u6709(10\u53f0)"",""swipe_num"":1,""swipe_imgs"":[""28181""],""desc"":"""",""img_url"":[""https:\/\/vegeness.com\/wp-content\/uploads\/2020\/06\/1560031.jpg""]}",,"和食,カフェ・スイーツ",100%Veganのお店
