<?xml version="1.0"?>
          <methodResponse>
             <params>
                <param>
                   <value>
		<struct>
<member><name>thearray</name>
<value><array>
<data>
<value><string>ABCDEFHIJ</string></value>
<value><int>1234</int></value>
<value><boolean>1</boolean></value>
</data>
</array></value>
</member>
<member><name>theint</name>
<value><int>23</int></value>
</member>
<member><name>thestring</name>
<value><string>foobarwhizz</string></value>
</member>
<member><name>thestruct</name>
<value><struct>
<member><name>one</name>
<value><int>1</int></value>
</member>
<member><name>two</name>
<value><int>2</int></value>
</member>
</struct></value>
</member>
</struct>
		</value>
                   </param>
                </params>
             </methodResponse>
