post_id,post_name,post_type,post_status,post_title,tax_shop_area
26638,%e9%9d%92%e5%b1%b1%e4%b8%80%e4%b8%81%e7%9b%ae%e9%a7%850%e7%95%aa%e5%87%ba%e5%8f%a3%e3%81%8b%e3%82%89%e7%9b%b4%e7%b5%90%e3%81%ae%e3%82%b5%e3%83%a9%e3%83%80%e3%82%ab%e3%83%95%e3%82%a7%e3%80%8cgreenbroth,shop,publish,GREENBROTHERS,"東京,原宿・青山・表参道,関東"
26659,%e3%83%9b%e3%83%b3%e3%83%88%e3%81%ab%e3%83%93%e3%83%bc%e3%82%ac%e3%83%b3%ef%bc%9f%e3%81%be%e3%82%8b%e3%81%a7%e3%81%8a%e8%82%89%e3%81%aa%e3%83%8f%e3%83%b3%e3%83%90%e3%83%bc%e3%82%ac%e3%83%bc%e3%82%b7,shop,publish,"Panic Burger（パニックバーガー）","福岡,天神,九州・沖縄"
26685,%e3%82%b9%e3%83%91%e3%82%a4%e3%82%b9%e3%81%ae%e5%8a%b9%e3%81%84%e3%81%9f%e7%b5%b6%e5%93%81%e3%83%93%e3%83%bc%e3%82%ac%e3%83%b3%e3%82%ab%e3%83%ac%e3%83%bc%ef%bc%81,shop,publish,"Re:Cell Kitchen（リセルキッチン）","福岡,天神,九州・沖縄"
26728,%e3%81%a8%e3%81%a3%e3%81%a6%e3%82%82%e5%b1%85%e5%bf%83%e5%9c%b0%e3%81%ae%e8%89%af%e3%81%84%e8%87%aa%e7%94%b1%e3%81%8c%e4%b8%98%e3%81%ae%e3%83%b4%e3%82%a3%e3%83%bc%e3%82%ac%e3%83%b3%e3%82%ab%e3%83%95,shop,publish,"OPRIMUM EATS！","東京,関東,自由が丘・学芸大学・都立大学・祐天寺"
26740,%e8%87%aa%e5%88%86%e5%a5%bd%e3%81%bf%e3%81%ae%e3%83%b4%e3%82%a3%e3%83%bc%e3%82%ac%e3%83%b3%e3%82%b5%e3%83%a9%e3%83%80%e3%81%8c%e4%bd%9c%e3%82%8c%e3%82%8b-%e8%a1%a8%e5%8f%82%e9%81%93%e3%80%8csalada-sto,shop,publish,"SALADA STOP！","東京,原宿・青山・表参道,関東"
26755,%e6%b4%97%e7%b7%b4%e3%81%95%e3%82%8c%e3%81%9f%e3%82%b3%e3%82%b9%e3%83%a1%e3%82%b7%e3%83%a7%e3%83%83%e3%83%97%e5%86%85%e3%81%ab%e3%81%82%e3%82%8b%e3%83%b4%e3%82%a3%e3%83%bc%e3%82%ac%e3%83%b3%e3%82%ab,shop,publish,SHIRO,"東京,関東,自由が丘・学芸大学・都立大学・祐天寺"
26784,%e3%81%9f%e3%81%be%e3%83%97%e3%83%a9%e3%83%bc%e3%82%b6%e9%a7%85%e3%82%92%e5%87%ba%e3%81%a6%e3%81%99%e3%81%90%ef%bc%81%e3%83%86%e3%82%a4%e3%82%af%e3%82%a2%e3%82%a6%e3%83%88%e3%82%82%e3%81%a7%e3%81%8d,shop,publish,"With Green（ウィズグリーン）","たまプラーザ・あざみ野・青葉台,関東,神奈川"
26821,%e5%85%a8%e3%81%a6%e6%a4%8d%e7%89%a9%e3%81%8b%e3%82%89%e4%bd%9c%e3%82%89%e3%82%8c%e3%81%9f%e7%b4%a0%e6%9d%90%e3%82%92%e4%bd%bf%e7%94%a8%e3%81%97%e7%94%9f%e7%94%a3%e8%80%85%e3%81%ae%e6%84%9b%e3%82%92,shop,publish,"ORGANIC TABLE BY LAPAZ","東京,原宿・青山・表参道,関東"
26839,%e5%85%83%e7%94%ba%e9%80%9a%e3%82%8a%e3%81%a7%e9%a0%82%e3%81%91%e3%82%8b%e4%b8%81%e5%af%a7%e3%81%aa%e5%92%8c%e9%a3%9f%e3%83%b4%e3%82%a3%e3%83%bc%e3%82%ac%e3%83%b3%e6%96%99%e7%90%86%e3%81%ae%e3%81%8a,shop,publish,きせきの食卓,"関東,神奈川,横浜・桜木町みなとみらい"
26867,%e3%81%9f%e3%81%be%e3%83%97%e3%83%a9%e3%83%bc%e3%82%b6%e9%a7%85%e3%81%ae%e3%82%aa%e3%82%a2%e3%82%b7%e3%82%b9%e3%80%8c%e3%82%b9%e3%82%ab%e3%83%b3%e3%80%8d%e3%81%a7%e6%9c%80%e9%ab%98%e3%81%ab%e7%be%8e,shop,publish,スカン,"たまプラーザ・あざみ野・青葉台,神奈川"
26883,%e9%ba%ba%e5%a5%bd%e3%81%8d%e3%81%ab%e7%b5%b6%e5%af%be%e9%a3%9f%e3%81%b9%e3%81%a6%e3%81%bb%e3%81%97%e3%81%84%ef%bc%8112%e7%a8%ae%e9%a1%9e%e3%82%82%e3%81%82%e3%82%8b%e3%83%b4%e3%82%a3%e3%83%bc%e3%82%ac,shop,publish,つるしこ,"東京,関東,渋谷・恵比寿・代官山・中目黒"
26892,%e5%85%a8%e3%81%a6%e3%81%ae%e3%83%a1%e3%83%8b%e3%83%a5%e3%83%bc%e3%81%ab%e5%8d%b5%e3%83%bb%e7%89%9b%e4%b9%b3%e3%83%bb%e8%82%89%e3%83%bb%e9%ad%9a%e3%81%8c%e4%bd%bf%e3%82%8f%e3%82%8c%e3%81%a6%e3%81%84,shop,publish,T'sレストラン（ティーズレストラン）,"東京,関東,自由が丘・学芸大学・都立大学・祐天寺"
26908,%e6%b8%8b%e8%b0%b7%e3%82%b9%e3%83%9a%e3%82%a4%e3%83%b3%e5%9d%82%e3%81%ab%e3%81%82%e3%82%8b%e3%83%b4%e3%82%a3%e3%83%bc%e3%82%ac%e3%83%b3%e3%82%ab%e3%83%95%e3%82%a7%e3%81%a7%e3%82%b9%e3%82%a4%e3%83%bc,shop,publish,"Bio Caffe","東京,関東,渋谷・恵比寿・代官山・中目黒"
26922,%e8%a1%a8%e5%8f%82%e9%81%93%e9%a7%85%e3%81%8b%e3%82%89%e3%81%99%e3%81%90%e3%81%ae%e3%81%8a%e3%81%97%e3%82%83%e3%82%8c%e3%81%aa%e3%83%b4%e3%82%a3%e3%83%bc%e3%82%ac%e3%83%b3%e6%96%99%e7%90%86%e5%b0%82,shop,publish,"BROWN RICE","東京,原宿・青山・表参道,関東"
26937,90%e5%88%86%e3%81%ae%e3%83%b4%e3%82%a3%e3%83%bc%e3%82%ac%e3%83%b3%e3%82%ab%e3%83%ac%e3%83%bc%e3%83%93%e3%83%a5%e3%83%83%e3%83%95%e3%82%a7%e3%81%8c%e6%a5%bd%e3%81%97%e3%82%81%e3%82%8b%e3%81%8a%e5%ba%97,shop,publish,"ミラン・ナタラジ 渋谷店","東京,関東,渋谷・恵比寿・代官山・中目黒"
26958,%e6%9d%be%e3%81%8a%e3%81%8b,shop,publish,松おか,"那須・塩原,関東,栃木"
26963,withgreen-%e7%a5%9e%e6%a5%bd%e5%9d%82%e5%ba%97,shop,publish,"WithGreen 神楽坂店","東京,関東,水道橋・飯田橋・神楽坂"
26965,withgreen-%e3%83%9e%e3%83%ad%e3%83%8b%e3%82%a8%e3%82%b2%e3%83%bc%e3%83%88%e9%8a%80%e5%ba%a7%e5%ba%97,shop,publish,"WithGreen マロニエゲート銀座店","東京,関東,銀座・有楽町・新橋"
26967,withgreen-%e5%8c%97%e5%8d%83%e4%bd%8f%e3%83%9e%e3%83%ab%e3%82%a4%e5%ba%97,shop,publish,"WithGreen 北千住マルイ店","東京,関東,北千住・日暮里・葛飾・荒川"
26969,withgreen-%e6%a8%aa%e6%b5%9c%e5%ba%97,shop,publish,"WithGreen 横浜店","関東,神奈川,横浜・桜木町みなとみらい"
26971,withgreen-grillsalad-%e5%a4%a7%e5%b4%8e%e3%82%ac%e3%83%bc%e3%83%87%e3%83%b3%e3%82%bf%e3%83%af%e3%83%bc%e5%ba%97,shop,publish,"WithGreen Grill&Salad 大崎ガーデンタワー店","東京,関東,品川・目黒・五反田"
26973,withgreen-%e3%83%a0%e3%82%b9%e3%83%96%e7%94%b0%e7%94%ba%e5%ba%97,shop,publish,"WithGreen ムスブ田町店","東京,関東,東京タワー・神谷町・赤羽橋"
26951,%e6%a0%b9%e6%b4%a5%e3%81%ae%e8%b0%b7,shop,publish,根津の谷,"東京,関東,上野・御徒町・浅草"
26984,26984,shop,publish,"DESSERT ATELIER TAKAGIYA","東京,関東,巣鴨・大塚・駒込"
26994,%e7%94%98%e9%9c%b2%e4%b8%83%e7%a6%8f%e7%a5%9e,shop,publish,甘露七福神,"東京,関東,巣鴨・大塚・駒込"
27000,%e5%8d%97%e9%9d%92%e5%b1%b1%e9%87%8e%e8%8f%9c%e5%9f%ba%e5%9c%b0,shop,publish,南青山野菜基地,"関東,神奈川,横浜・桜木町みなとみらい"
27013,%e9%a7%92%e8%be%bc%e3%83%8a%e3%83%bc%e3%83%aa%e3%83%83%e3%82%b7%e3%83%a5%e3%80%80%e3%82%ab%e3%83%95%e3%82%a7%e3%83%90%e3%83%ab,shop,publish,駒込ナーリッシュ　カフェ&バル,"東京,関東,巣鴨・大塚・駒込"
27022,%e5%bd%a9%e8%86%b3%e4%b8%ad%e8%8f%af%e3%80%80%e6%9d%8fzu,shop,publish,彩膳中華　杏ZU,"愛知,名古屋駅・西区・中村区,東海"
27029,en-kitchen,shop,publish,en-kitchen,"愛知,金山・神宮前・熱田区,東海"
26853,100%e6%a4%8d%e7%89%a9%e7%94%b1%e6%9d%a5%e3%81%ae%e3%83%b4%e3%82%a3%e3%83%bc%e3%82%ac%e3%83%b3%e3%83%90%e3%83%bc%e3%82%ac%e3%83%bc%e5%b0%82%e9%96%80%e5%ba%97%e2%98%86,shop,publish,100%植物由来のヴィーガンバーガー専門店☆,"東京,関東"
27270,green%e3%80%80earth,shop,publish,Green　Earth,"大阪,淀屋橋・本町・北浜・天満橋,関西"
27235,genmai-cafe,shop,publish,"GENMAI Cafe","大阪,淀屋橋・本町・北浜・天満橋,関西"
27225,cosme-kitchen-adaptation,shop,publish,"Cosme Kitchen Adaptation","大阪,梅田・北新地,関西"
27204,%e3%83%91%e3%83%97%e3%83%aa%e3%82%ab%e9%a3%9f%e5%a0%82vegan,shop,publish,パプリカ食堂Vegan,"大阪,関西,心斎橋・なんば・堀江"
27280,withgreen-%e6%b8%8b%e8%b0%b7%e3%83%92%e3%82%ab%e3%83%aa%e3%82%a8-shinqs-%e6%9d%b1%e6%a8%aa%e3%81%ae%e3%82%8c%e3%82%93%e8%a1%97%e5%ba%97,shop,publish,"WithGreen 渋谷ヒカリエ ShinQs 東横のれん街店","東京,関東,渋谷・恵比寿・代官山・中目黒"
27348,upgrade-plant-based-kitchen,shop,publish,"UPGRADE Plant based kitchen","大阪,関西,心斎橋・なんば・堀江"
27356,%e7%8e%84%e4%b8%89%e5%ba%b5%e3%80%80%e6%a2%85%e7%94%b0%e3%82%a8%e3%82%b9%e3%83%88%e5%ba%97,shop,publish,玄三庵　梅田エスト店,"大阪,梅田・北新地,関西"
27366,yidaki-cafe-%e3%82%a4%e3%83%80%e3%82%ad%e3%82%ab%e3%83%95%e3%82%a7%ef%bc%89,shop,publish,"YIDAKI CAFE (イダキカフェ）","三宮・元町・ハーバーランド,兵庫,関西"
27375,%ef%bc%91ldk-terrace,shop,publish,"１LDK terrace","北海道・東北,北海道,札幌駅・大通"
27386,farm-to-table-terra,shop,publish,"Farm to Table TERRA","北海道・東北,北海道,すすきの"
27400,petit-caco-%e6%9c%ad%e5%b9%8c%e3%83%ad%e3%83%bc%e3%82%b9%e3%82%a4%e3%83%bc%e3%83%84%e5%b0%82%e9%96%80%e5%ba%97%e3%83%97%e3%83%86%e3%82%a3%e3%82%ab%e3%82%b3,shop,publish,"Petit Caco 札幌ロースイーツ専門店プティカコ","北海道・東北,北海道,札幌駅・大通"
27410,%e3%81%8b%e3%82%89%e3%81%a0%e3%81%ab%e3%81%84%e3%81%84%e3%81%8b%e3%81%b5%e3%81%87,shop,publish,からだにいいかふぇ,"北海道・東北,北海道,札幌駅・大通"
27421,cafe-macro%e7%be%8e%e4%b8%8e%e5%88%a9%ef%bc%88%e3%82%ab%e3%83%95%e3%82%a7%e3%83%9e%e3%82%af%e3%83%ad%e3%81%b3%e3%82%88%e3%82%8a%ef%bc%89,shop,publish,"Cafe Macro美与利（カフェマクロびより）","広島,福山市,中国"
27432,%e3%81%8a%e5%a5%bd%e3%81%bf%e7%84%bc%e3%81%8d%e9%95%b7%e7%94%b0%e5%b1%8b,shop,publish,お好み焼き長田屋,"広島市中心部,広島,中国"
27433,%e7%b4%94%e5%96%ab%e8%8c%b6%e3%80%8c%e5%96%ab%e8%8c%b6%e3%81%95%e3%81%88%e3%81%8d%e3%80%8d,shop,publish,純喫茶「喫茶さえき」,"広島市中心部,広島,中国"
27420,%e7%b2%be%e9%80%b2%e3%82%b9%e3%82%a4%e3%83%bc%e3%83%84%e7%b5%90%e3%81%b3,shop,publish,精進スイーツ結び,"北海道・東北,宮城"
27444,%e3%83%99%e3%82%b8%e3%82%bf%e3%83%aa%e3%82%a2%e3%83%b3%e3%83%ac%e3%82%b9%e3%83%88%e3%83%a9%e3%83%b3%e3%80%80havana-dining,shop,publish,"ベジタリアンレストラン　HAVANA DINING","新潟市,新潟,甲信越・北陸"
27450,%e3%83%8a%e3%83%81%e3%83%a5%e3%83%a9%e3%83%ab%e3%83%ac%e3%82%b9%e3%83%88%e3%83%a9%e3%83%b3%e3%81%8b%e3%81%9f%e3%82%84%e3%81%be%ef%bc%88%e6%97%a7suzu8%ef%bc%89,shop,publish,ナチュラルレストランかたやま（旧SUZU8）,"新潟市,新潟,甲信越・北陸"
27458,natural-cafe-%e3%83%92%e3%83%bb%e3%83%9f%e3%83%bb%e3%83%84%e5%9f%ba%e5%9c%b0,shop,publish,"NATURAL CAFE ヒ・ミ・ツ基地","新潟市,新潟,甲信越・北陸"
27464,%e7%80%ac%e3%80%85%e3%82%89%e3%81%8e%e3%81%ae%e6%a3%ae%ef%bd%9e%e3%80%8cla-petite-porte-%e3%80%8d%e3%83%a9%e3%80%80%e3%83%97%e3%83%86%e3%82%a3%e3%83%88%e3%82%a5%e3%80%80%e3%83%9d%e3%83%ab%e3%83%88,shop,publish,"瀬々らぎの森～「La Petite Porte 」(ラ　プティトゥ　ポルト）","甲信越・北陸,小松市,石川"
27472,and-life,shop,publish,"AND LIFE","富山市,甲信越・北陸,富山"
27483,%e3%83%99%e3%82%b8%e3%82%ad%e3%83%83%e3%83%81%e3%83%b3%e3%83%bb%e3%82%b0%e3%83%bc%e3%82%b0%e3%83%bc,shop,publish,ベジキッチン・グーグー,"愛知,東海,本山・覚王山・藤が丘"
27497,%e5%8d%97%e3%82%a4%e3%83%b3%e3%83%89%e5%ae%b6%e5%ba%ad%e6%96%99%e7%90%86%e3%82%ab%e3%83%ab%e3%83%8a%e3%83%bc%e3%82%bf%e3%82%ab%e3%83%bc,shop,publish,南インド家庭料理カルナータカー,"愛知,東海,本山・覚王山・藤が丘"
27510,%e8%96%ac%e8%8d%89labo-%e6%a3%98,shop,publish,薬草labo.棘,"愛知,東海,本山・覚王山・藤が丘"
27520,soranoiro%ef%bc%88%e3%82%bd%e3%83%a9%e3%83%8e%e3%82%a4%e3%83%ad%ef%bc%89,shop,publish,SORANOIRO（ソラノイロ）,"愛知,名古屋駅・西区・中村区,東海"
27527,%e5%b1%b1%e6%9c%ac%e5%b1%8b%e3%80%80%e5%a4%a7%e4%b9%85%e6%89%8b%e5%ba%97,shop,publish,山本屋　大久手店,"愛知,東海,名古屋市その他"
27567,%e3%82%b9%e3%83%bc%e3%83%97%e3%82%ab%e3%83%ac%e3%83%bc-beyond-age-%e3%80%80%e5%8d%9719%e6%9d%a1%e5%ba%97,shop,publish,"スープカレー Beyond Age 　南19条店","北海道・東北,北海道,円山公園・琴似・中央区・西区・手稲区"
27574,%e3%81%9f%e3%81%84%e3%82%84%e3%81%8d%e5%b7%a5%e6%88%bf-%e6%9c%ad%e5%b9%8c%e5%ba%97,shop,publish,"たいやき工房 札幌店","北海道・東北,北海道,円山公園・琴似・中央区・西区・手稲区"
27584,%e3%83%99%e3%82%b8%e3%82%bf%e3%83%96%e3%83%ab%e3%83%a9%e3%83%b3%e3%83%81%e5%96%9c%e5%9d%8axi-fang,shop,publish,ベジタブルランチ喜坊xi-fang,"北海道・東北,北海道,円山公園・琴似・中央区・西区・手稲区"
27597,%e5%b1%b1%e5%b0%8f%e5%b1%8b%e5%92%96%e5%93%a9vege,shop,publish,山小屋咖哩Vege,"北海道・東北,北海道,豊平区・南区"
27607,%e5%8d%81%e5%8b%9d%e8%b1%86%e8%8a%b1,shop,publish,十勝豆花,"北海道・東北,北海道,円山公園・琴似・中央区・西区・手稲区"
27620,%e9%9d%92%e3%81%84%e7%a9%ba%e6%b5%81%e3%82%8c%e3%82%8b%e9%9b%b2,shop,publish,青い空流れる雲,"北海道・東北,北海道,円山公園・琴似・中央区・西区・手稲区"
27677,peace-table-%e6%b8%8b%e8%b0%b7%e9%81%93%e7%8e%84%e5%9d%82%e5%ba%97,shop,publish,"PEACE TABLE 渋谷道玄坂店","東京,関東,渋谷・恵比寿・代官山・中目黒"
27697,%e3%81%8a%e8%8c%b6%e3%81%a8%e9%a3%9f%e4%ba%8b-%e4%bd%99%e7%8f%80,shop,publish,"お茶と食事 余珀","関東,神奈川,川崎・鶴見"
27762,ain-soph-ginza,shop,publish,"AIN SOPH. ginza（アインソフ　銀座）","東京,関東,銀座・有楽町・新橋"
27773,ain-soph-journey-shinjuku,shop,publish,"AIN SOPH. Journey Shinjuku","東京,関東,新宿・代々木・大久保"
27801,ain-soph-soar,shop,publish,"AIN SOPH. soar","東京,関東,池袋・高田馬場・早稲田"
27802,ain-soph-ripple,shop,publish,"AIN SOPH. ripple","東京,関東,新宿・代々木・大久保"
27803,ain-soph-journey-kyoto,shop,publish,"AIN SOPH. Journey Kyoto","河原町・木屋町,京都,関西"
27995,cafe-pra%e1%b9%87a,shop,publish,"Café Prāṇa","関東,館林,群馬"
28035,%e3%83%9e%e3%82%af%e3%83%ad%e3%83%93%e3%82%aa%e3%83%86%e3%82%a3%e3%83%83%e3%82%af%e3%82%ab%e3%83%95%e3%82%a7%e3%80%80%e7%ac%91%e3%81%bf%e3%81%94%e3%81%af%e3%82%93,shop,publish,マクロビオティックカフェ　笑みごはん,"関東,千葉"
28110,%e3%82%ab%e3%83%95%e3%82%a7%e3%83%bb%e3%83%9e%e3%83%bc%e3%83%8b,shop,publish,カフェ・マーニ,"北海道・東北,青森市,青森"
28112,vege-cafe-%e3%81%a1%e3%82%83%e3%81%be%e3%81%be,shop,publish,"Vege cafe ちゃまま",
28113,sobes-cafe,shop,publish,"Sobe's Cafe",
28115,%e6%98%8e%e6%b2%bb%e6%9d%91%e3%81%ae%e9%9a%a0%e3%82%8c%e5%ae%b6%e3%82%ab%e3%83%95%e3%82%a7%e9%81%a0%e5%b1%b1%e8%8c%b6%e5%af%ae,shop,publish,明治村の隠れ家カフェ遠山茶寮,"北海道・東北,宮城"
28133,%e3%83%99%e3%82%b8%e3%82%bf%e3%82%a4%e3%83%a0%e3%83%ac%e3%82%b9%e3%83%88%e3%83%a9%e3%83%b3%e5%9c%9f%e9%81%8a%e8%be%b2,shop,publish,ベジタイムレストラン土遊農,"北海道・東北,鶴岡,山形"
28134,%e9%ba%ba%e5%b1%8bkenju,shop,publish,麺屋KENJU,"つくば市,関東,茨城"
28136,%e3%83%99%e3%82%b8%e3%82%bf%e3%83%aa%e3%82%a2%e3%83%b3%e6%96%99%e7%90%86%e5%bc%81%e5%bd%93%e3%80%80%e9%a6%99%e8%89%b2%e8%8c%b6%e5%9d%8a,shop,publish,ベジタリアン料理弁当　香色茶坊,"つくば市,関東,茨城"
28150,ritzn%ef%bc%88%e3%82%8a%e3%81%a3%e3%81%a4%e3%82%93%ef%bc%89,shop,publish,Ritz'n（りっつん）,"つくば市,関東,茨城"
28156,%e7%94%b0%e3%82%93%e3%81%bccafe-%e9%be%8d%e3%81%ae%e3%82%89%e3%82%93%e3%81%b7,shop,publish,"田んぼCafe 龍のらんぷ",
28160,comida%ef%bc%88%e3%82%b3%e3%83%9f%e3%83%bc%e3%83%80%ef%bc%89,shop,publish,Comida（コミーダ）,"関東,宇都宮市,栃木"
28166,%e8%87%aa%e7%84%b6%e8%8c%b6%e5%af%ae-%e5%bb%bb%ef%bc%88%e3%81%97%e3%81%9c%e3%82%93%e3%81%95%e3%82%8a%e3%82%87%e3%81%86-%e3%82%81%e3%81%90%e3%82%8a%ef%bc%89,shop,publish,"自然茶寮 廻（しぜんさりょう めぐり）","関東,日光・鹿沼,栃木"
28169,%e8%8f%9c%e9%a3%9f%e8%87%aa%e7%84%b6%e9%a3%9f-%e5%96%9c%e5%bf%83,shop,publish,"菜食自然食 喜心","伊勢市,東海,三重"
28170,%e3%83%91%e3%83%aa%e3%83%af%e3%83%bc%e3%83%ab-%e7%94%9f%e9%a7%92,shop,publish,"パリワール 生駒","天理市・橿原市・生駒市,関西,奈良"
28175,%e9%a3%9f%e3%81%a8%e6%9a%ae%e3%82%89%e3%81%97%e3%82%92%e6%a5%bd%e3%81%97%e3%82%80%e5%ba%97%e3%81%88%e3%81%93%e3%82%8f%e3%81%84%e3%81%9a,shop,publish,食と暮らしを楽しむ店えこわいず,"福岡,九州・沖縄"
28209,%e3%83%8b%e3%83%ab%e3%83%af%e3%83%8a%e3%83%a0-%e6%9c%89%e6%98%8e%e5%ba%97,shop,publish,"ニルワナム 有明店","東京,関東,お台場・有明"
28211,%e3%83%8b%e3%83%ab%e3%83%b4%e3%82%a1%e3%83%8a%e3%83%a0%e7%a5%9e%e8%b0%b7%e7%94%ba%e5%ba%97,shop,publish,ニルヴァナム神谷町店,"東京,関東,東京タワー・神谷町・赤羽橋"
28223,%e3%83%8b%e3%83%ab%e3%83%b4%e3%82%a1%e3%83%8a%e3%83%a0%e8%99%8e%e3%83%8e%e9%96%80%e5%ba%97,shop,publish,ニルヴァナム虎ノ門店,"東京,関東,銀座・有楽町・新橋"
28233,%e3%83%8b%e3%83%ab%e3%83%b4%e3%82%a1%e3%83%8a%e3%83%a0-%e3%82%bb%e3%83%b3%e3%82%bf%e3%83%bc%e5%8c%97%e5%ba%97,shop,publish,"ニルヴァナム センター北店","関東,神奈川,新横浜・センター北・センター南"
28234,%e3%83%8b%e3%83%ab%e3%83%b4%e3%82%a1%e3%83%8a%e3%83%a0-%e9%8a%80%e5%ba%a7%e5%ba%97,shop,publish,"ニルヴァナム 銀座店","東京,関東,銀座・有楽町・新橋"
28244,%e3%83%8b%e3%83%ab%e3%83%b4%e3%82%a1%e3%83%8a%e3%83%a0%e3%80%80%e5%b7%9d%e8%b6%8a%e5%ba%97,shop,publish,ニルヴァナム　川越店,"関東,埼玉,川越市"
28257,mique%ef%bc%88%e3%83%9f%e3%82%b1%ef%bc%89,shop,publish,mique（ミケ）,"東京,関東,品川・目黒・五反田"
28273,mr-farmer%ef%bc%88%e3%83%9f%e3%82%b9%e3%82%bf%e3%83%bc%e3%83%95%e3%82%a1%e3%83%bc%e3%83%9e%e3%83%bc%ef%bc%89,shop,publish,Mr.FARMER（ミスターファーマー）,"東京,関東,駒沢大学・三軒茶屋・池尻大橋"
28298,%e3%83%9f%e3%83%a9%e3%83%b3%e3%83%bb%e3%83%8a%e3%82%bf%e3%83%a9%e3%82%b8-%e9%8a%80%e5%ba%a7%e5%ba%97,shop,publish,"ナタラジ 銀座店","東京,関東,銀座・有楽町・新橋"
28299,%e3%83%8a%e3%82%bf%e3%83%a9%e3%82%b8%e5%8e%9f%e5%ae%bf%e8%a1%a8%e5%8f%82%e9%81%93%e5%ba%97,shop,publish,ナタラジ原宿表参道店,"東京,原宿・青山・表参道,関東"
28300,%e3%83%8a%e3%82%bf%e3%83%a9%e3%82%b8-%e8%8d%bb%e7%aa%aa%e5%ba%97,shop,publish,"ナタラジ 荻窪店","東京,関東,吉祥寺・荻窪・三鷹"
28301,%e3%83%a1%e3%83%a9%e3%83%bb%e3%83%8a%e3%82%bf%e3%83%a9%e3%82%b8%e8%93%bc%e7%a7%91%e5%ba%97,shop,publish,メラ・ナタラジ蓼科店,"甲信越・北陸,長野,茅野市"
28412,%e3%82%84%e3%81%95%e3%81%84%e3%82%ab%e3%83%95%e3%82%a7%e3%81%b3%e3%83%bc%e3%82%93%e3%81%9a,shop,publish,やさいカフェびーんず,"関東,埼玉,久喜市"
28413,%ef%bc%95%ef%bc%88five%ef%bc%89,shop,publish,５（five）,"関東,埼玉,春日部市"
28416,%e9%98%bf%e9%87%8c%e5%b1%b1%e3%82%ab%e3%83%95%e3%82%a7%ef%bc%88%e3%82%a2%e3%83%aa%e3%82%b5%e3%83%b3%e3%82%ab%e3%83%95%e3%82%a7%ef%bc%89,shop,publish,阿里山カフェ（アリサンカフェ）,"関東,埼玉,日高市"
28427,%e3%83%96%e3%83%ab%e3%83%bc%e3%83%90%e3%83%bc%e3%83%89%e3%82%ab%e3%83%95%e3%82%a7,shop,publish,ブルーバードカフェ,"大宮・浦和,関東,埼玉"
28429,%e3%82%bb%e3%82%b5%e3%83%9f%e3%82%ad%e3%83%83%e3%83%81%e3%83%b3,shop,publish,セサミキッチン,"関東,埼玉,川越市"
28430,fu-fu-fu%ef%bc%88%e3%83%95%e3%83%95%e3%83%95%ef%bc%89,shop,publish,fu.fu.fu（フフフ）,"関東,岩槻・東岩槻,埼玉"
28433,fufufu2nd,shop,publish,fufufu2nd.,"関東,岩槻・東岩槻,埼玉"
28437,fu-fu-fu-plus,shop,publish,"fu.fu.fu plus","関東,岩槻・東岩槻,埼玉"
28440,%e9%87%8e%e8%8f%9ccafebar-urawa-bio,shop,publish,"野菜Cafe&Bar URAWA BIO","大宮・浦和,関東,埼玉"
28445,%e8%87%aa%e7%84%b6%e6%b4%be%e3%81%94%e3%81%af%e3%82%93-teru-cafe,shop,publish,"自然派ごはん Teru cafe","関東,埼玉,蕨・戸田"
28410,%e3%83%ad%e3%83%bc%e3%82%b9%e3%83%bc%e3%82%af%ef%bc%88raw-souk%ef%bc%89,shop,publish,"ロースーク（Raw Souk）","関東,埼玉,熊谷市"
28454,afuri-%e6%81%b5%e6%af%94%e5%af%bf,shop,publish,"AFURI 恵比寿","東京,関東,渋谷・恵比寿・代官山・中目黒"
28457,afuri-%e5%8e%9f%e5%ae%bf,shop,publish,"AFURI 原宿","東京,原宿・青山・表参道,関東"
28460,afuri-%e4%b8%ad%e7%9b%ae%e9%bb%92%ef%bc%88%e9%98%bf%e5%a4%ab%e5%88%a9-%e3%82%a2%e3%83%95%e3%83%aa%ef%bc%89,shop,publish,"AFURI 中目黒（阿夫利 アフリ）","東京,関東,渋谷・恵比寿・代官山・中目黒"
28462,%e3%82%b0%e3%83%aa%e3%83%bc%e3%83%b3%e3%83%96%e3%83%a9%e3%82%b6%e3%83%bc%e3%82%ba-%e4%bb%99%e7%9f%b3%e5%b1%b1%e6%a3%ae%e3%82%bf%e3%83%af%e3%83%bc,shop,publish,"グリーンブラザーズ 仙石山森タワー","東京,関東,赤坂・六本木・麻布"
28466,green-brothers-%e5%a4%a7%e6%89%8b%e7%94%ba%e5%ba%97,shop,publish,"GREEN BROTHERS 大手町店","東京,関東,東京駅・大手町・日本橋"
28477,green-brothers-%e9%ba%bb%e5%b8%83%e5%8d%81%e7%95%aa%e5%ba%97,shop,publish,"GREEN BROTHERS 麻布十番店","東京,関東,赤坂・六本木・麻布"
28486,green-brothers-%e6%81%b5%e6%af%94%e5%af%bf%e5%ba%97,shop,publish,"GREEN BROTHERS 恵比寿店","東京,関東,渋谷・恵比寿・代官山・中目黒"
28552,cocomo-curry,shop,publish,"Cocomo Curry","関東,神奈川,鎌倉・長谷,江ノ島・藤沢"
28569,%e3%81%93%e3%82%82%e3%82%8c%e3%81%b3%e9%a3%9f%e5%a0%82,shop,publish,こもれび食堂+,"大宮・浦和,関東,埼玉"
28582,natural-cafe-%e5%b9%b8%e3%81%ae%e6%9c%a8,shop,publish,"natural cafe 幸の木","東京,関東,八王子・立川"
28588,%e7%8e%84%e7%b1%b3%e8%8f%9c%e9%a3%9f-%e7%b1%b3%e3%81%ae%e5%ad%90,shop,publish,"玄米菜食 米の子","東京,関東,吉祥寺・荻窪・三鷹"
28592,veganic-to-go,shop,publish,"VEGANIC TO GO","東京,関東,赤坂・六本木・麻布"
28599,cityshop-noodle,shop,publish,"CITYSHOP NOODLE","東京,原宿・青山・表参道,関東"
28605,cityshop-%e9%9d%92%e5%b1%b1%e5%ba%97,shop,publish,"CITYSHOP 青山店","東京,原宿・青山・表参道,関東"
28609,city-shop-pizza,shop,publish,"CITY SHOP PIZZA","東京,関東,渋谷・恵比寿・代官山・中目黒"
28613,city-shop-%e6%b8%8b%e8%b0%b7%e3%82%ad%e3%83%a3%e3%82%b9%e3%83%88,shop,publish,"CITY SHOP 渋谷キャスト","東京,関東,渋谷・恵比寿・代官山・中目黒"
28619,%e3%83%81%e3%83%a3%e3%83%a4-%e3%83%8a%e3%83%81%e3%83%a5%e3%83%a9%e3%83%ab-%ef%bc%86-%e3%83%af%e3%82%a4%e3%83%ab%e3%83%89-%e3%83%86%e3%83%bc%e3%83%96%e3%83%ab,shop,publish,"チャヤ ナチュラル ＆ ワイルド テーブル","東京,関東,銀座・有楽町・新橋"
28645,vegeto%e2%80%a2liko,shop,publish,Vegeto•LIKO.,"北海道・東北,仙台市,宮城"
28646,twins-bake,shop,publish,"twins bake","北海道・東北,仙台市,宮城"
28644,vegetarian-cafe-looney,shop,publish,"Vegetarian Cafe LOONEY","北海道・東北,盛岡市,岩手"
28643,%e3%81%84%e3%81%be%e3%81%93%e3%81%93%e9%a3%9f%e5%a0%82,shop,publish,いまここ食堂,"北海道・東北,仙台市,宮城"
28642,%e9%87%8e%e8%8f%9c%e5%b1%8b%e3%82%ab%e3%83%95%e3%82%a7-%e3%83%b4%e3%82%a7%e3%83%ab%e3%83%87-verde,shop,publish,"野菜屋カフェ ヴェルデ -Verde-","北海道・東北,仙台市,宮城"
28641,organic-cafe-soul-tree,shop,publish,"Organic cafe Soul Tree","北海道・東北,仙台市,宮城"
29664,%e6%97%a5%e6%9c%ac%e6%96%99%e7%90%86%e3%80%80%e3%81%be%e3%82%8b%e3%82%84%e3%81%be%e3%80%80%e3%81%8b%e3%82%8f%e3%81%aa%e3%81%8b,shop,publish,日本料理　まるやま　かわなか,"北海道・東北,北海道,円山公園・琴似・中央区・西区・手稲区"
29675,%e9%a2%a8%e5%92%8ccafe,shop,publish,風和cafe,"北海道・東北,北海道,豊平区・南区"
29686,%e7%82%99%e3%82%8a%e5%91%b3%e5%99%8c%e3%82%89%e3%83%bc%e3%82%81%e3%82%93%e3%80%80%e9%ba%ba%e5%8c%a0%e7%9c%9f%e6%ad%a6%e5%92%b2%e5%bc%a5,shop,publish,炙り味噌らーめん　麺匠真武咲弥,"北海道・東北,北海道,札幌駅・大通"
29694,%e7%b3%80factory,shop,publish,糀factory,"北海道・東北,北海道,円山公園・琴似・中央区・西区・手稲区"
29700,herea%ef%bc%8b,shop,publish,Herea＋,"北海道・東北,北海道"
29953,agt%ef%bc%88%e3%81%82%e3%81%98%e3%81%a8%ef%bc%89,shop,publish,Agt（あじと）,"北海道・東北,北海道,円山公園・琴似・中央区・西区・手稲区"
29963,american-hamlet%ef%bc%88%e3%82%a2%e3%83%a1%e3%83%aa%e3%82%ab%e3%83%b3%e3%83%8f%e3%83%a0%e3%83%ac%e3%83%83%e3%83%88%ef%bc%89,shop,publish,"AMERICAN Hamlet（アメリカンハムレット）","北海道・東北,北海道,札幌駅・大通"
29971,holistic-bio-cafe-veggy-way%e3%83%9b%e3%83%aa%e3%82%b9%e3%83%86%e3%82%a3%e3%83%83%e3%82%af%e3%83%bb%e3%83%93%e3%82%aa%e3%83%bb%e3%82%ab%e3%83%95%e3%82%a7%e3%83%bb%e3%83%99%e3%82%b8%e3%82%a3%e3%83%bb,shop,publish,"Holistic Bio Cafe Veggy Way(ホリスティック・ビオ・カフェ・ベジィ・ウエィ)","北海道・東北,北海道,円山公園・琴似・中央区・西区・手稲区"
30043,%e6%9d%b1%e4%ba%ac%e3%82%89%e3%81%82%e3%82%81%e3%82%93%e3%82%bf%e3%83%af%e3%83%bc-%e8%8a%9d%e5%a4%a7%e9%96%80%e5%ba%97,shop,publish,"東京らあめんタワー 芝大門店","東京,関東,東京タワー・神谷町・赤羽橋"
30048,huluta%e3%83%8f%e3%83%ab%e3%82%bf,shop,publish,huluta(ハルタ),"北海道・東北,北海道,円山公園・琴似・中央区・西区・手稲区"
30061,jyoti,shop,publish,JYOTI,"北海道・東北,北海道,札幌駅・大通"
30067,northern-terrace-diner%ef%bc%88%e3%83%8e%e3%83%bc%e3%82%b6%e3%83%b3%e3%83%86%e3%83%a9%e3%82%b9%e3%83%80%e3%82%a4%e3%83%8a%e3%83%bc%ef%bc%89,shop,publish,"Northern Terrace Diner（ノーザンテラスダイナー）","北海道・東北,北海道,札幌駅・大通"
30076,organic-cafe-%e7%9f%a5%e6%81%b5%e3%81%ae%e6%9c%a8,shop,publish,"Organic cafe 知恵の木","北海道・東北,北海道,豊平区・南区"
30083,organic%ef%bc%88%e3%82%aa%e3%83%bc%e3%82%ac%e3%83%8b%e3%83%83%e3%82%af%e3%83%97%e3%83%a9%e3%82%b9%ef%bc%89,shop,publish,Organic+（オーガニックプラス）,"北海道・東北,北海道,すすきの"
30094,plena-ardoris,shop,publish,"Plena ardoris","北海道・東北,北海道,円山公園・琴似・中央区・西区・手稲区"
30105,%e3%81%84%e3%81%9f%e3%81%a0%e3%81%8d%e8%86%b3%e3%80%80%e6%9c%ad%e5%b9%8c%e5%86%86%e5%b1%b1%e5%85%ac%e5%9c%92%e5%ba%97,shop,publish,いただき膳　札幌円山公園店,"北海道・東北,北海道,円山公園・琴似・中央区・西区・手稲区"
30115,%e8%87%aa%e7%84%b6%e9%a3%9f%ef%bc%86%e3%83%ad%e3%83%bc%e3%83%95%e3%83%bc%e3%83%89%e3%80%80%e3%83%ad%e3%83%8f%e3%82%b9,shop,publish,自然食＆ローフード　ロハス,"北海道・東北,北海道,札幌駅・大通"
30121,%e7%a6%8f%e3%81%ae%e6%a8%b9,shop,publish,福の樹,"北海道・東北,北海道,円山公園・琴似・中央区・西区・手稲区"
30130,ts-%e3%81%9f%e3%82%93%e3%81%9f%e3%82%93-%e3%82%a8%e3%82%ad%e3%83%a5%e3%83%bc%e3%83%88%e4%b8%8a%e9%87%8e,shop,publish,"T's たんたん エキュート上野","東京,関東,上野・御徒町・浅草"
30148,%e3%81%82%e3%81%88%e3%82%93-%e6%96%b0%e5%ae%bf%e4%bc%8a%e5%8b%a2%e4%b8%b9%e4%bc%9a%e9%a4%a8%e5%ba%97,shop,publish,"あえん 新宿伊勢丹会館店","東京,関東,新宿・代々木・大久保"
30185,ts-%e3%81%9f%e3%82%93%e3%81%9f%e3%82%93-%e3%82%a8%e3%82%ad%e3%83%a5%e3%83%bc%e3%83%88%e4%ba%ac%e8%91%89%e3%82%b9%e3%83%88%e3%83%aa%e3%83%bc%e3%83%88%e5%ba%97,shop,publish,"T's たんたん エキュート京葉ストリート店","東京,関東,東京駅・大手町・日本橋"
30201,ts-%e3%81%9f%e3%82%93%e3%81%9f%e3%82%93-%e6%b1%a0%e8%a2%8b%e5%ba%97,shop,publish,"T's たんたん 池袋店","東京,関東,池袋・高田馬場・早稲田"
30202,ts-%e3%81%9f%e3%82%93%e3%81%9f%e3%82%93-%e6%88%90%e7%94%b0%e7%a9%ba%e6%b8%af%e7%ac%ac2%e3%82%bf%e3%83%bc%e3%83%9f%e3%83%8a%e3%83%ab%e5%ba%97,shop,publish,"T's たんたん 成田空港第2ターミナル店","関東,成田市,千葉"
30205,ts%e3%81%9f%e3%82%93%e3%81%9f%e3%82%93-%e6%88%90%e7%94%b0%e7%a9%ba%e6%b8%af%e7%ac%ac1%e3%82%bf%e3%83%bc%e3%83%9f%e3%83%8a%e3%83%ab%e5%ba%97,shop,publish,"T'sたんたん 成田空港第1ターミナル店","関東,成田市,千葉"
30217,citron,shop,publish,CITRON,"東京,原宿・青山・表参道,関東"
30219,the_b,shop,publish,THE_B,"東京,原宿・青山・表参道,関東"
30224,trueberry%ef%bc%88%e3%83%88%e3%82%a5%e3%83%ab%e3%83%bc%e3%83%99%e3%83%aa%e3%83%bc%ef%bc%89%e8%a1%a8%e5%8f%82%e9%81%93%e5%ba%97,shop,publish,Trueberry（トゥルーベリー）表参道店,"東京,原宿・青山・表参道,関東"
30228,%e3%82%b7%e3%83%a3%e3%83%b3%e3%83%86%e3%82%a3-%e3%82%a4%e3%83%b3%e3%83%87%e3%82%a3%e3%82%a2,shop,publish,"シャンティ インディア","広島,福山市,中国"
30496,falafel-brothers%ef%bc%88%e3%83%95%e3%82%a1%e3%83%a9%e3%83%95%e3%82%a7%e3%83%ab%e3%83%96%e3%83%a9%e3%82%b6%e3%83%bc%e3%82%ba%ef%bc%89%e6%81%b5%e6%af%94%e5%af%bf%e5%ba%97,shop,publish,"FALAFEL BROTHERS（ファラフェルブラザーズ）恵比寿店","東京,関東,渋谷・恵比寿・代官山・中目黒"
30497,falafel-brothers%ef%bc%88%e3%83%95%e3%82%a1%e3%83%a9%e3%83%95%e3%82%a7%e3%83%ab%e3%83%96%e3%83%a9%e3%82%b6%e3%83%bc%e3%82%ba%ef%bc%89%e5%85%ad%e6%9c%ac%e6%9c%a8%e5%ba%97,shop,publish,"FALAFEL BROTHERS（ファラフェルブラザーズ）六本木店","東京,関東,赤坂・六本木・麻布"
30531,hemp-cafe-tokyo,shop,publish,"Hemp Cafe Tokyo","東京,関東,渋谷・恵比寿・代官山・中目黒"
30663,living-food-cafe-en-%ef%bc%88%e3%83%aa%e3%83%93%e3%83%b3%e3%82%b0%e3%83%95%e3%83%bc%e3%83%89%e3%82%ab%e3%83%95%e3%82%a7%e3%80%80%e3%82%a8%e3%83%b3%ef%bc%89,shop,publish,"Living Food Cafe en （リビングフードカフェ　エン）","北海道・東北,石巻市,宮城"
30741,dipmahal%e6%ba%9c%e6%b1%a0%e5%b1%b1%e7%8e%8b%e5%ba%97%e3%83%87%e3%82%a3%e3%83%83%e3%83%97%e3%83%9e%e3%83%8f%e3%83%ab,shop,publish,DIPMAHAL溜池山王店(ディップマハル),"東京,関東,赤坂・六本木・麻布"
30749,mauka-kitchen%e3%83%9e%e3%82%a6%e3%82%ab%e3%82%ad%e3%83%83%e3%83%81%e3%83%b3,shop,publish,"mauka kitchen(マウカキッチン)","東京,関東,赤坂・六本木・麻布"
30752,vege-stand%ef%bc%88%e3%83%99%e3%82%b8%e3%82%b9%e3%82%bf%e3%83%b3%e3%83%89%ef%bc%89%e6%96%b0%e5%ae%bf%e5%ba%97,shop,publish,"VEGE STAND（ベジスタンド）新宿店","東京,関東,新宿・代々木・大久保"
30755,vege-stand%ef%bc%88%e3%83%99%e3%82%b8%e3%82%b9%e3%82%bf%e3%83%b3%e3%83%89%ef%bc%89%e6%81%b5%e6%af%94%e5%af%bf%e5%ba%97,shop,publish,"VEGE STAND（ベジスタンド）恵比寿店","東京,関東,渋谷・恵比寿・代官山・中目黒"
31356,l-for-you,shop,publish,"L for You","東京,原宿・青山・表参道,関東"
31360,%e3%81%82%e3%81%97%e3%82%85%e3%83%bc%e3%82%89,shop,publish,あしゅーら,"奈良市,関西,奈良"
31373,%e3%82%aa%e3%83%b3%e3%83%af,shop,publish,オンワ,"奈良市,関西,奈良"
31384,%e3%83%8a%e3%82%a4%e3%83%a4%e3%83%93%e3%83%b3%e3%82%ae,shop,publish,ナイヤビンギ,"天理市・橿原市・生駒市,関西,奈良"
31390,pleased-to-meet-me,shop,publish,"Pleased To Meet Me","奈良市,関西,奈良"
31396,%e3%83%ac%e3%82%b9%e3%83%88%e3%83%a9%e3%83%b3-%e3%83%a9%e3%83%9f-%e3%83%80%e3%83%b3%e3%83%95%e3%82%a1%e3%83%b3%e3%82%b9-%e3%82%a2%e3%83%a9-%e3%83%a1%e3%82%be%e3%83%b3,shop,publish,"レストラン ラミ ダンファンス アラ メゾン","五條市,関西,奈良"
31399,%e6%a5%bd%e5%a4%a2%e8%8f%9c,shop,publish,楽夢菜,"奈良市,関西,奈良"
31418,%e8%8f%9c%e9%a3%9f%e5%92%8c%e5%90%88%e3%80%80%e8%8c%b6%e5%80%89,shop,publish,菜食和合　茶倉,"大阪,関西,堺・和泉"
31422,%e3%83%8b%e3%83%a2%e3%82%a2%e3%83%ab%e3%82%ab%e3%83%a2,shop,publish,ニモアルカモ,"大阪,関西,大阪市内その他"
31425,%e3%82%ab%e3%83%bc%e3%83%9d%e3%83%a9%e3%83%b4%e3%82%a9%e3%83%bc%e3%83%ad,shop,publish,カーポラヴォーロ,"東京,関東,池袋・高田馬場・早稲田"
31430,%e3%81%aa%e3%81%94%e3%81%bf%e3%83%8a%e3%83%81%e3%83%a5%e3%83%ab%e3%82%a2%e3%80%80%e3%82%aa%e3%83%bc%e3%82%ac%e3%83%8b%e3%83%83%e3%82%af%e3%83%bb%e3%83%8f%e3%83%bc%e3%83%96%e3%83%86%e3%82%a3%e3%83%bc,shop,publish,なごみナチュルア　オーガニック・ハーブティーカフェ四谷店,"東京,関東,四ツ谷・麹町・市ヶ谷"
31434,%e3%83%89%e3%83%a9%e3%82%b4%e3%83%bc%e3%83%8d%e5%9b%9b%e8%b0%b7%e5%ba%97,shop,publish,ドラゴーネ四谷店,"東京,関東,四ツ谷・麹町・市ヶ谷"
31446,%e3%83%87%e3%82%a3%e3%83%83%e3%83%97%e3%83%9e%e3%83%8f%e3%83%ab%e3%80%80%e5%9b%9b%e8%b0%b7%e6%9c%ac%e5%ba%97,shop,publish,ディップマハル　四谷本店,"東京,関東,四ツ谷・麹町・市ヶ谷"
31458,revive-kitchen-three-hibiya,shop,publish,"REVIVE KITCHEN THREE HIBIYA","東京,関東,銀座・有楽町・新橋"
32611,premium-sow,shop,publish,"Premium SOW","東京,関東,渋谷・恵比寿・代官山・中目黒"
32612,1110-cafe-bakery,shop,publish,"1110 CAFE/BAKERY","関東,埼玉,川口市"
32614,37cafe,shop,publish,37cafe,"浜松市,静岡,東海"
32615,%e7%a9%80%e8%8f%9c%e3%82%ab%e3%83%95%e3%82%a7%e3%80%80%e3%82%bd%e3%83%a9%e3%83%95%e3%83%8d,shop,publish,穀菜カフェ　ソラフネ,"関東,神奈川,鎌倉・長谷"
32619,vegetus,shop,publish,vegetus,"関東,神奈川,鎌倉・長谷"
32624,vegan-cafe-monkey-magic-%e6%b5%85%e8%8d%89,shop,publish,"Vegan Cafe Monkey Magic 浅草","東京,関東,上野・御徒町・浅草"
32626,%e3%82%b4%e3%83%94%e3%83%8a%e3%83%bc%e3%82%bf,shop,publish,ゴピナータ,"東京,関東,中野・高円寺・阿佐ヶ谷"
32629,universal-bakes-and-cafe,shop,publish,"UNIVERSAL BAKES and CAFE","東京,関東,下北沢・代々木上原"
32636,%e3%83%ab%e3%83%bb%e3%83%91%e3%83%b3%e3%83%bb%e3%82%b3%e3%83%86%e3%82%a3%e3%83%87%e3%82%a3%e3%82%a2%e3%83%b3-%e8%8a%9d%e5%85%ac%e5%9c%92%e5%ba%97,shop,publish,"ル・パン・コティディアン 芝公園店","東京,関東,東京タワー・神谷町・赤羽橋"
32658,kuppila,shop,publish,Kuppila,"奈良市,関西,奈良"
32663,8ablish,shop,publish,8ablish,"東京,原宿・青山・表参道,関東"
32665,blu-jam-cafe%ef%bc%88%e3%83%96%e3%83%ab%e3%83%bc%e3%82%b8%e3%83%a3%e3%83%a0%e3%82%ab%e3%83%95%e3%82%a7%ef%bc%89,shop,publish,"BLU JAM CAFE（ブルージャムカフェ）","東京,関東,渋谷・恵比寿・代官山・中目黒"
32793,%e3%83%95%e3%82%a1%e3%83%bc%e3%83%9e%e3%83%bc%e3%82%ba%e3%82%b8%e3%83%a5%e3%83%bc%e3%82%b9%e3%83%88%e3%83%bc%e3%82%ad%e3%83%a7%e3%83%bc,shop,publish,ファーマーズジューストーキョー,"東京,関東,東京タワー・神谷町・赤羽橋"
32808,farmers-juice-tokyo%e9%8a%80%e5%ba%a7%e6%9c%89%e6%a5%bd%e7%94%ba%e5%ba%97,shop,publish,"FARMERS' JUICE TOKYO銀座有楽町店","東京,関東,銀座・有楽町・新橋"
32810,farmers-juice-tokyo-%e9%a7%92%e6%b2%a2%e5%ba%97,shop,publish,"FARMERS' JUICE TOKYO 駒沢店","東京,関東,駒沢大学・三軒茶屋・池尻大橋"
32811,farmers-juice-tokyo-%e6%a8%aa%e6%b5%9c%e3%81%bf%e3%81%aa%e3%81%a8%e3%81%bf%e3%82%89%e3%81%84%e5%ba%97,shop,publish,"FARMERS' JUICE TOKYO 横浜みなとみらい店","関東,神奈川,横浜・桜木町みなとみらい"
32812,bartizan-bread%ef%bc%86pasta,shop,publish,"BARTIZAN Bread＆Pasta","東京,関東,東京タワー・神谷町・赤羽橋"
32823,%e3%83%9b%e3%83%96%e3%82%b4%e3%83%96%e3%83%aa%e3%83%b3-%e5%85%ad%e6%9c%ac%e6%9c%a8,shop,publish,HOBGOBLIN六本木,"東京,関東,赤坂・六本木・麻布"
32828,hobgoblin-%e6%b8%8b%e8%b0%b7%e5%ba%97,shop,publish,"HOBGOBLIN 渋谷店","東京,関東,渋谷・恵比寿・代官山・中目黒"
32837,%e3%81%8a%e9%87%8e%e8%8f%9c%e5%b0%8f%e7%9a%bf%e6%96%99%e7%90%86%e3%81%ae%e3%83%af%e3%82%a4%e3%83%b3%e3%83%90%e3%83%ab-kiboko,shop,publish,"お野菜小皿料理のワインバル KiboKo","東京,関東,新宿・代々木・大久保"
32838,raw,shop,publish,.RAW,"東京,関東,赤坂・六本木・麻布"
32842,%e3%81%8a%e6%8b%9b%e3%81%8d%e5%b1%8b-%e3%83%87%e3%82%a3%e3%83%87%e3%82%a2%e3%83%b3,shop,publish,"お招き屋 ディデアン","東京,関東,門前仲町・東陽町・木場・葛西"
32844,%e5%ae%97%e8%83%a1,shop,publish,宗胡,"東京,関東,赤坂・六本木・麻布"
32850,down-town-bs,shop,publish,"Down Town B's","東京,関東,赤坂・六本木・麻布"
32852,%e3%81%aa%e3%81%8e%e9%a3%9f%e5%a0%82,shop,publish,なぎ食堂,"東京,関東,渋谷・恵比寿・代官山・中目黒"
32856,%e3%81%aa%e3%81%8e%e9%a3%9f%e5%a0%82-%e8%a9%a6%e8%81%b4%e5%ae%a4%e5%89%8d,shop,publish,"なぎ食堂 試聴室前","東京,関東,神田・秋葉原・御茶ノ水"
32858,great-lakes-tokyo,shop,publish,"Great Lakes Tokyo","東京,関東,池袋・高田馬場・早稲田"
32863,cori-%ef%bc%88%e3%82%b3%e3%83%aa%ef%bc%89,shop,publish,"CORI. （コリ）","東京,関東,駒沢大学・三軒茶屋・池尻大橋"
32869,%e8%96%ac%e8%86%b3%e9%a3%9f%e5%a0%82%e3%81%a1%e3%82%83%e3%81%b6%e8%86%b3-%e4%b8%8b%e5%8c%97%e6%b2%a2%e5%ba%97,shop,publish,"薬膳食堂ちゃぶ膳 下北沢店","東京,関東,下北沢・代々木上原"
32871,spize-kitchen-moona,shop,publish,"Spize kitchen Moona","東京,関東,下北沢・代々木上原"
32872,%e8%8f%9c%e9%a3%9f%e5%81%a5%e7%be%8e-%e6%9d%b1%e4%ba%ac%e5%a4%a7%e4%b9%85%e4%bf%9d%e5%ba%97,shop,publish,"菜食健美 東京大久保店","東京,関東,新宿・代々木・大久保"
32875,fluunt-kofu%ef%bc%88%e3%83%95%e3%83%ab%e3%82%a6%e3%83%b3%e3%83%88%e7%94%b2%e5%ba%9c%ef%bc%89,shop,publish,"Fluunt KOFU（フルウント甲府）","山梨,甲府市,甲信越・北陸"
32879,%e3%83%93%e3%83%bc%e3%82%ac%e3%83%b3%e3%83%9e%e3%82%b5%e3%83%a9%e9%a3%9f%e5%a0%82%e3%81%b9%e3%81%98%e5%b1%8b,shop,publish,ビーガンマサラ食堂べじ屋,"山梨,甲信越・北陸"
32880,%e3%81%8a%e3%81%a1%e3%82%83%e3%81%ae%e3%81%98%e3%81%8b%e3%82%93,shop,publish,おちゃのじかん,
32883,cafe-%e3%81%8f%e3%81%98%e3%82%89%e3%81%90%e3%82%82,shop,publish,"cafe くじらぐも","山梨,甲信越・北陸,北杜市"
32884,%e3%82%ad%e3%83%83%e3%83%81%e3%83%b3%e3%82%aa%e3%83%8f%e3%83%8a,shop,publish,キッチンオハナ,"山梨,甲信越・北陸,北杜市"
32888,%e5%a5%8f%e6%a8%b9-cafe-dining,shop,publish,"奏樹 Cafe & Dining","山梨,甲信越・北陸,北杜市"
32890,%e5%b1%b1%e3%81%ae%e3%83%91%e3%83%b3%e5%b1%8b-%e6%a1%91%e3%81%ae%e5%ae%9f,shop,publish,"山のパン屋 桑の実","山梨,甲信越・北陸,北杜市"
32894,cafe-pianissimo,shop,publish,"cafe pianissimo","山梨,甲信越・北陸,北杜市"
32912,modernark-pharm-cafe,shop,publish,"Modernark pharm cafe","三宮・元町・ハーバーランド,兵庫,関西"
32913,vegan-cafe-thallo,shop,publish,"Vegan cafe Thallo","三宮・元町・ハーバーランド,兵庫,関西"
32914,%e3%82%a4%e3%83%b3%e3%83%80%e3%82%b9%e3%83%ac%e3%82%a4,shop,publish,インダスレイ,"三宮・元町・ハーバーランド,兵庫,関西"
32925,%e3%82%a4%e3%83%b3%e3%83%89%e3%83%ac%e3%82%b9%e3%83%88%e3%83%a9%e3%83%b3shama,shop,publish,インドレストランShama,"大阪,関西,心斎橋・なんば・堀江"
32929,base-island-kitchen,shop,publish,"Base Island kitchen","大阪,関西,心斎橋・なんば・堀江"
32930,falafel-sababa,shop,publish,"FALAFEL SABABA",
32934,%e6%b3%95%e8%8f%af%e7%b4%a0%e9%a3%9f-fahua-susie-oriental-sho-jin-kitchen,shop,publish,"法華素食Oriental Sho-jin Kitchen","大阪,関西,心斎橋・なんば・堀江"
33000,%e3%83%9d%e3%82%bf%e3%82%b8%e3%82%a7-%ef%bc%88potager%ef%bc%89,shop,publish,"ポタジェ （potager）","東京,関東,東京駅・大手町・日本橋"
33032,%e3%83%9c%e3%83%ab%e3%83%99%e3%83%bc%e3%83%ab,shop,publish,ボルベール,"高知市,高知,四国"
33035,%e9%9d%99%e3%81%8b%e3%81%aa%e5%96%ab%e8%8c%b6%e5%ba%97,shop,publish,静かな喫茶店,"高知市,高知,四国"
33048,%e3%83%99%e3%82%b8%e3%82%bf%e3%83%aa%e3%82%a2%e3%83%b3%e3%82%ab%e3%83%95%e3%82%a7-%e3%83%a2%e3%83%8b%e3%83%bc%e3%82%af%e3%83%97%e3%83%a9%e3%82%b9,shop,publish,"ベジタリアンカフェ モニークプラス","大阪,関西,堺・和泉"
33053,%e7%be%8a%e3%81%ae%e5%ae%b6jr,shop,publish,羊の家Jr.,"大阪,関西,堺・和泉"
33059,%e3%82%81%e3%81%90%e3%82%8a%e3%82%81%e3%81%97%e6%81%b5,shop,publish,めぐりめし恵,"大阪,京橋・天満・天六・南森町,関西"
33064,babel-cafe,shop,publish,"Babel Cafe","大阪,京橋・天満・天六・南森町,関西"
33077,sushi-roll-double-quotation-iki,shop,publish,"Sushi Roll Double quotation Iki","大阪,京橋・天満・天六・南森町,関西"
33082,%e9%9b%91%e8%b2%a8%e3%81%a8%e9%87%8e%e8%8f%9c%e3%81%ae%e3%82%ab%e3%83%95%e3%82%a7%ef%bc%86%e3%83%90%e3%83%ab-%e3%81%82%e3%81%98%e3%82%85,shop,publish,"雑貨と野菜のカフェ＆バル あじゅ","大阪,京橋・天満・天六・南森町,関西"
33087,mumokuteki-cafe,shop,publish,"mumokuteki cafe","大阪,梅田・北新地,関西"
33095,mumokuteki-cafe-2,shop,publish,"mumokuteki cafe","河原町・木屋町,京都,関西"
33103,natural-kitchen-%e3%82%81%e3%81%a0%e3%81%8b-2%e5%8f%b7%e5%ba%97,shop,publish,"natural kitchen めだか 2号店","大阪,梅田・北新地,関西"
33110,%e8%8f%9c%e9%a3%9f%e3%81%94%e3%81%af%e3%82%93%ef%bd%92%ef%bd%8f%ef%bd%83%ef%bd%83%ef%bd%81,shop,publish,菜食ごはんＲｏｃｃａ,"大阪,中之島・肥後橋,関西"
33135,cafeizm,shop,publish,CAFEIZM,"その他広島市,広島,中国"
33166,%e3%83%81%e3%83%a3%e3%83%a4%e3%83%9e%e3%82%af%e3%83%ad%e3%83%93-%e4%bc%8a%e5%8b%a2%e4%b8%b9%e6%96%b0%e5%ae%bf%e5%ba%97,shop,publish,"チャヤマクロビ 伊勢丹新宿店","東京,関東,新宿・代々木・大久保"
33172,%e3%83%81%e3%83%a3%e3%83%a4%e3%83%9e%e3%82%af%e3%83%ad%e3%83%93-%e3%83%ad%e3%82%a4%e3%83%a4%e3%83%ab%e3%83%91%e3%83%bc%e3%82%af%e3%83%9b%e3%83%86%e3%83%ab-%e3%82%b6-%e6%b1%90%e7%95%99%e5%ba%97,shop,publish,"チャヤマクロビ ロイヤルパークホテル ザ 汐留店","東京,関東,銀座・有楽町・新橋"
33179,%e5%96%ab%e8%8c%b6capela,shop,publish,喫茶Capela,"東京,関東,池袋・高田馬場・早稲田"
33184,vegetarian-beast,shop,publish,"VEGETARIAN  BEAST","東京,関東,池袋・高田馬場・早稲田"
33191,%e3%81%bf%e3%81%8b%e3%82%8f%e3%82%84,shop,publish,みかわや,"東京,関東,池袋・高田馬場・早稲田"
33197,vegan-cafe-and-bar-karons,shop,publish,"Vegan cafe and Bar Karons","東京,関東,自由が丘・学芸大学・都立大学・祐天寺"
33202,plus-veganique-jiyugaoka,shop,publish,"Plus Veganique JIYUGAOKA","関東,自由が丘・学芸大学・都立大学・祐天寺"
33206,hallelu-peacefood,shop,publish,"hallelu peacefood","東京,関東,自由が丘・学芸大学・都立大学・祐天寺"
33211,vegan-burger-nourish,shop,publish,"VEGAN BURGER NOURISH","関東,神奈川,武蔵小杉・元住吉・日吉"
33217,gavy-setagaya%ef%bc%88%e3%82%ae%e3%83%a3%e3%83%93%e3%83%bc%e3%82%bb%e3%82%bf%e3%82%ac%e3%83%a4%ef%bc%89,shop,publish,"Gavy Setagaya（ギャビーセタガヤ）","東京,関東,駒沢大学・三軒茶屋・池尻大橋"
33221,klasina,shop,publish,KLASINA,"東京,関東,下北沢・代々木上原"
33223,ko-so-cafe,shop,publish,"KO-SO CAFE","東京,関東,渋谷・恵比寿・代官山・中目黒"
33231,we-are-the-farm-ebisu,shop,publish,"WE ARE THE FARM EBISU","東京,関東,渋谷・恵比寿・代官山・中目黒"
33233,we-are-the-farm-%e6%b8%8b%e8%b0%b7,shop,publish,"WE ARE THE FARM 渋谷","東京,関東,渋谷・恵比寿・代官山・中目黒"
33235,we-are-the-farm-%e8%b5%a4%e5%9d%82,shop,publish,"WE ARE THE FARM 赤坂","東京,関東,赤坂・六本木・麻布"
33237,we-are-the-farm-%e9%ba%bb%e5%b8%83%e5%8d%81%e7%95%aa,shop,publish,"WE ARE THE FARM 麻布十番","東京,関東,赤坂・六本木・麻布"
33239,we-are-the-farm-%e7%9b%ae%e9%bb%92,shop,publish,"WE ARE THE FARM 目黒","東京,関東,品川・目黒・五反田"
33242,alaska-zwei,shop,publish,"Alaska zwei","東京,関東,駒沢大学・三軒茶屋・池尻大橋"
33247,%e3%83%b4%e3%82%a7%e3%82%b8%e3%83%8f%e3%83%bc%e3%83%96%e3%82%b5%e3%83%bc%e3%82%ac,shop,publish,ヴェジハーブサーガ,"東京,関東,上野・御徒町・浅草"
33252,two-dogs-taproom,shop,publish,"Two Dogs Taproom","東京,関東,赤坂・六本木・麻布"
33270,sincere-garden-cafe,shop,publish,"SINCERE GARDEN CAFE","東京,原宿・青山・表参道,関東"
33276,%e3%83%af%e3%82%a4%e3%83%b3%e3%83%af%e3%83%bc%e3%82%af%e3%82%b9%e5%8d%97%e9%9d%92%e5%b1%b1,shop,publish,ワインワークス南青山,"東京,原宿・青山・表参道,関東"
33284,%e7%9c%9f%e3%81%95%e3%81%8b,shop,publish,真さか,"東京,関東,渋谷・恵比寿・代官山・中目黒"
33286,%e7%82%99%e3%82%8a%e5%91%b3%e5%99%8c%e3%82%89%e3%83%bc%e3%82%81%e3%82%93%e3%80%80%e9%ba%ba%e5%8c%a0%e7%9c%9f%e6%ad%a6%e5%92%b2%e5%bc%a5-%e6%b8%8b%e8%b0%b7%e5%ba%97,shop,publish,"炙り味噌らーめん　麺匠真武咲弥 渋谷店","東京,関東,渋谷・恵比寿・代官山・中目黒"
33290,%e3%83%a9%e3%83%93%e3%83%b3%e3%82%b0%e3%83%8f%e3%83%83%e3%83%88,shop,publish,ラビングハット,"東京,関東,神田・秋葉原・御茶ノ水"
33295,%e5%b0%8f%e6%96%99%e7%90%86%e3%83%90%e3%83%ab-%e8%97%a4%e7%a6%8f-fujifuku,shop,publish,"小料理バル 藤福 FUJIFUKU","東京,関東,上野・御徒町・浅草"
33541,%e9%87%8e%e8%8f%9c%e6%97%a5%e5%92%8c,shop,publish,野菜日和,"愛知,東海,安城・刈谷・岡崎・知立・蒲郡"
33544,%e7%b2%be%e9%80%b2%ef%bd%83%ef%bd%81%ef%bd%86%ef%bd%85%e3%81%b5%e3%81%89%e3%81%84%e6%96%b0%e9%80%9a%e5%ba%97,shop,publish,精進cafeふぉい新通店,"和歌山市,関西,和歌山"
33550,%e7%b2%be%e9%80%b2cafe%e3%81%b5%e3%81%89%e3%81%84-%e5%9f%8e%e5%8c%97%e5%ba%97,shop,publish,"精進cafeふぉい 城北店","和歌山市,関西,和歌山"
33554,patisserie-youpiyoupi,shop,publish,"Patisserie YoupiYoupi","大津市,滋賀,関西"
33558,nature-cafe-ms-nest,shop,publish,"Nature Caf'e M's Nest","和歌山市,関西,和歌山"
33938,monologue%ef%bc%88%e3%83%a2%e3%83%8e%e3%83%ad%e3%83%bc%e3%82%b0%ef%bc%89,shop,publish,monologue（モノローグ）,"愛知,東海,安城・刈谷・岡崎・知立・蒲郡"
33939,peace-cafe-hawaii,shop,publish,"Peace Cafe Hawaii","東京,関東,渋谷・恵比寿・代官山・中目黒"
33942,%e4%b9%9d%e5%b7%9e%e3%81%98%e3%82%83%e3%82%93%e3%81%8c%e3%82%89-%e8%b5%a4%e5%9d%82%e5%ba%97,shop,publish,"九州じゃんがら 赤坂店","東京,関東,赤坂・六本木・麻布"
33949,%e4%b9%9d%e5%b7%9e%e3%81%98%e3%82%83%e3%82%93%e3%81%8c%e3%82%89-%e5%8e%9f%e5%ae%bf%ef%bc%91%e9%9a%8e%e5%ba%97,shop,publish,"九州じゃんがら 原宿１階店","東京,原宿・青山・表参道,関東"
33951,%e4%b9%9d%e5%b7%9e%e3%81%98%e3%82%83%e3%82%93%e3%81%8c%e3%82%89-%e6%97%a5%e6%9c%ac%e6%a9%8b%e5%ba%97,shop,publish,"九州じゃんがら 日本橋店","東京,関東,東京駅・大手町・日本橋"
33946,%e4%b9%9d%e5%b7%9e%e3%81%98%e3%82%83%e3%82%93%e3%81%8c%e3%82%89-%e9%8a%80%e5%ba%a7%e5%ba%97,shop,publish,"九州じゃんがら 銀座店","東京,関東,銀座・有楽町・新橋"
33954,%e4%b9%9d%e5%b7%9e%e3%81%98%e3%82%83%e3%82%93%e3%81%8c%e3%82%89-%e7%a7%8b%e8%91%89%e5%8e%9f%e6%9c%ac%e5%ba%97,shop,publish,"九州じゃんがら 秋葉原本店","東京,関東,神田・秋葉原・御茶ノ水"
33958,%e4%b9%9d%e5%b7%9e%e3%81%98%e3%82%83%e3%82%93%e3%81%8c%e3%82%89-%e8%a5%bf%e6%ad%a6%e6%b1%a0%e8%a2%8b%e5%ba%97,shop,publish,"九州じゃんがら 西武池袋店","東京,関東,池袋・高田馬場・早稲田"
33980,%e9%ba%bacuisine%e9%ba%bb%e5%b8%83%e9%82%b8,shop,publish,麺Cuisine麻布邸,"東京,関東,赤坂・六本木・麻布"
33985,%e3%81%b9%e3%81%98%e3%82%89%e3%83%bc%e3%82%81%e3%82%93%e3%82%86%e3%81%ab%e3%82%8f,shop,publish,べじらーめんゆにわ,"大阪,関西,枚方・寝屋川・門真"
33996,%e8%8f%9c%e9%a3%9f%e3%82%86%e3%81%ab%e3%82%8f,shop,publish,菜食ゆにわ,"東海,三重"
34002,%e3%82%84%e3%81%93%e3%82%8a%e3%82%93%e3%81%94,shop,publish,やこりんご,"福岡,九州・沖縄"
34008,bells-nakameguro,shop,publish,"Bells Nakameguro","東京,関東,渋谷・恵比寿・代官山・中目黒"
34014,hatena,shop,publish,Hatena,"東京,関東,渋谷・恵比寿・代官山・中目黒"
34018,%e3%82%b3%e3%82%b9%e3%83%a1%e3%82%ad%e3%83%83%e3%83%81%e3%83%b3-%e3%82%a2%e3%83%80%e3%83%97%e3%83%86%e3%83%bc%e3%82%b7%e3%83%a7%e3%83%b3-%e3%82%a2%e3%83%88%e3%83%ac%e6%81%b5%e6%af%94%e5%af%bf%e5%ba%97,shop,publish,"コスメキッチン アダプテーション アトレ恵比寿店","東京,関東,渋谷・恵比寿・代官山・中目黒"
34025,%e3%82%b3%e3%82%b9%e3%83%a1%e3%82%ad%e3%83%83%e3%83%81%e3%83%b3-%e3%82%a2%e3%83%80%e3%83%97%e3%83%86%e3%83%bc%e3%82%b7%e3%83%a7%e3%83%b3-%e8%a1%a8%e5%8f%82%e9%81%93%e3%83%92%e3%83%ab%e3%82%ba%e5%ba%97,shop,publish,"コスメキッチン アダプテーション 表参道ヒルズ店","東京,原宿・青山・表参道,関東"
34048,%e4%b8%80%e5%8f%a3%e9%a4%83%e5%ad%90%e9%85%92%e5%a0%b4blg-%e6%96%b0%e5%ae%bf%e8%a5%bf%e5%8f%a3%e5%ba%97,shop,publish,"一口餃子酒場BLG 新宿西口店","東京,関東,新宿・代々木・大久保"
34058,%e3%82%ab%e3%83%95%e3%82%a7-%e3%82%a8%e3%83%a1%e3%83%bb%e3%83%b4%e3%82%a3%e3%83%99%e3%83%bc%e3%83%ab,shop,publish,"カフェ エメ・ヴィベール","東京,関東,東京駅・大手町・日本橋"
34064,%e8%bf%bd%e5%88%86%e3%81%a0%e3%82%93%e3%81%94%e6%9c%ac%e8%88%97-%e6%96%b0%e5%ae%bf%e6%9c%ac%e5%ba%97,shop,publish,"追分だんご本舗 新宿本店","東京,関東,新宿・代々木・大久保"
34096,%e9%9d%92%e5%b1%b1%e3%81%8b%e3%82%89%e3%81%99%e4%ba%ad,shop,publish,青山からす亭,"東京,原宿・青山・表参道,関東"
34100,%e3%83%99%e3%82%b8%e3%82%a3%e3%82%ab%e3%83%83%e3%83%97%e3%82%b9,shop,publish,ベジィカップス,"東京,関東,四ツ谷・麹町・市ヶ谷"
34103,%e3%82%aa%e3%83%8b%e3%83%af%e3%82%ab%e3%83%95%e3%82%a7,shop,publish,オニワカフェ,"東京,関東,四ツ谷・麹町・市ヶ谷"
34110,%e3%82%bd%e3%83%a9%e3%83%8e%e3%82%a4%e3%83%ad%e6%9c%ac%e5%ba%97,shop,publish,ソラノイロ本店,"東京,関東,四ツ谷・麹町・市ヶ谷"
34115,%e3%82%bd%e3%83%a9%e3%83%8e%e3%82%a4%e3%83%adnippon-%e6%9d%b1%e4%ba%ac%e3%83%a9%e3%83%bc%e3%83%a1%e3%83%b3%e3%82%b9%e3%83%88%e3%83%aa%e3%83%bc%e3%83%88,shop,publish,"ソラノイロNIPPON @東京ラーメンストリート","東京,関東,東京駅・大手町・日本橋"
34121,%e3%82%bd%e3%83%a9%e3%83%8e%e3%82%a4%e3%83%adokinawa,shop,publish,ソラノイロOKINAWA,"那覇市,九州・沖縄,沖縄"
34123,kick-back-cafe,shop,publish,"KICK BACK CAFE","東京,関東,調布市・狛江市"
34131,organic-cafe-%e3%81%94%e3%81%b1%e3%82%93,shop,publish,"Organic cafe ごぱん","山梨,甲信越・北陸,北杜市"
34172,rota-cafe-%e5%a4%a7%e5%90%8d%e6%9c%ac%e5%ba%97,shop,publish,"Rota Cafe 大名本店","福岡,大名・今泉・警固,九州・沖縄"
34180,rota-cafe-%e9%95%b7%e5%b4%8e%e5%ba%97,shop,publish,"Rota Cafe 長崎店","長崎市,長崎,九州・沖縄"
34188,%e7%8a%ac%e7%8c%ab%e9%a3%9f%e5%a0%82-%e7%b4%ab%e9%99%bd%e8%8a%b1,shop,publish,"犬猫食堂 紫陽花","東京,関東,自由が丘・学芸大学・都立大学・祐天寺"
34244,vegecafe-lotus,shop,publish,"VEGECAFE LOTUS","愛知,東海,豊橋・豊川"
34253,%e3%83%97%e3%83%97%e3%82%ad%e3%83%83%e3%83%81%e3%83%b3,shop,publish,ププキッチン,"愛知,名古屋駅・西区・中村区,東海"
34260,%e6%97%ac%e8%8f%9c%e3%82%ab%e3%83%95%e3%82%a7%e3%81%8a%e3%81%a6%e3%81%82%e3%81%a6,shop,publish,旬菜カフェおてあて,"愛知,東海,名古屋市その他"
34271,cafe-kitoki,shop,publish,"cafe KITOKI","愛知,東海,豊橋・豊川"
34276,gardens,shop,publish,GARDENS,"愛知,東海,豊橋・豊川"
34282,%e6%98%9f%e6%9c%88%e5%a4%9c,shop,publish,星月夜,"愛知,東海,春日井・小牧・一宮・江南・瀬戸"
34287,%e3%83%a1%e3%82%be%e3%83%b3%e3%83%bb%e3%83%a9%e3%83%b3%e3%83%89%e3%82%a5%e3%83%a1%e3%83%b3%e3%83%8c-%e9%ba%bb%e5%b8%83%e5%8f%b0,shop,publish,"メゾン・ランドゥメンヌ 麻布台","東京,関東,赤坂・六本木・麻布"
34292,%e3%83%a1%e3%82%be%e3%83%b3%e3%83%bb%e3%83%a9%e3%83%b3%e3%83%89%e3%82%a5%e3%83%a1%e3%83%b3%e3%83%8c-%e8%b5%a4%e5%9d%82,shop,publish,"メゾン・ランドゥメンヌ 赤坂","東京,関東,赤坂・六本木・麻布"
34295,new-new-york-club-bagel-sandwich-shop,shop,publish,"NEW NEW YORK CLUB BAGEL & SANDWICH SHOP","東京,関東,赤坂・六本木・麻布"
34300,oribio-cafe-dining-nagoya,shop,publish,"ORIBIO Cafe Dining Nagoya","愛知,東海,名古屋市その他"
34306,%e3%83%94%e3%82%bf%e3%82%b4%e3%83%a9%e3%82%b9%e3%82%a4%e3%83%bc%e3%83%84,shop,publish,ピタゴラスイーツ,"愛知,金山・神宮前・熱田区,東海"
34311,%e8%8f%9c%e9%a3%9f%e5%81%a5%e7%be%8e,shop,publish,菜食健美,"愛知,東海,名古屋市その他"
34314,%e8%87%aa%e7%84%b6%e9%a3%9f%e3%83%ac%e3%82%b9%e3%83%88%e3%83%a9%e3%83%b3-%e8%87%aa%e7%84%b6%e5%ba%b5,shop,publish,"自然食レストラン 自然庵","愛知,東海,名古屋市その他"
34317,oyasai,shop,publish,Oyasai,"愛知,東海,名古屋市その他"
34321,queens-healthy-diner,shop,publish,"Queen’s Healthy Diner","愛知,栄・錦・丸の内・泉・東桜・新栄,東海"
34323,colline-de-tara,shop,publish,"Colline de Tara","愛知,栄・錦・丸の内・泉・東桜・新栄,東海"
34329,%e7%8e%84%e7%b1%b3%e9%a3%9f%e3%81%ae%e5%ba%97-%e3%81%ae%e3%82%89,shop,publish,"玄米食の店 のら","愛知,金山・神宮前・熱田区,東海"
34332,organic-cafedining-%e3%82%b0%e3%83%ac%e3%82%a4%e3%83%b3%e3%82%ba,shop,publish,"ORGANIC Cafe&Dining グレインズ","愛知,東海,名古屋市その他"
34336,vegan-dining-%e6%a7%98-%e6%99%82,shop,publish,"VEGAN DINING 様 時","愛知,東海,春日井・小牧・一宮・江南・瀬戸"
34344,%e3%83%8a%e3%83%81%e3%83%a5%e3%83%a9%e3%83%ab%e3%82%ad%e3%83%83%e3%83%81%e3%83%b3-%e3%81%9b%e3%81%95%e3%81%bf,shop,publish,"ナチュラルキッチン せさみ","愛知,東海,安城・刈谷・岡崎・知立・蒲郡"
34348,%e3%83%93%e3%82%b8%e3%82%bf,shop,publish,ビジタ,"浜松市,静岡,東海"
34354,veg-out-%e3%83%99%e3%82%b0-%e3%82%a2%e3%82%a6%e3%83%88,shop,publish,"Veg Out (ベグ アウト)","京都駅周辺,京都,関西"
34360,vege-deli-%e3%81%8b%e3%82%93%e3%81%aa,shop,publish,"VEGE DELI かんな","京都駅周辺,京都,関西"
34365,%e3%82%ad%e3%83%88%e3%82%a5%e3%83%b3-%e3%82%ab%e3%83%b3%e3%83%91%e3%83%8b%e3%83%bc,shop,publish,"キトゥン カンパニー","京都,関西,烏丸御池・四条烏丸"
34370,%e3%83%9a%e3%83%83%e3%83%86%e3%82%a3%e3%83%ad%e3%83%83%e3%82%bd-%e4%ba%ac%e9%83%bd,shop,publish,"ペッティロッソ 京都","河原町・木屋町,京都,関西"
34375,hale-%ef%bd%9e%e6%99%b4%ef%bd%9e-%ef%bc%88%e3%83%8f%e3%83%ac%ef%bc%89,shop,publish,"hale ～晴～ （ハレ）","河原町・木屋町,京都,関西"
34379,choice%ef%bc%88%e3%83%81%e3%83%a7%e3%82%a4%e3%82%b9%ef%bc%89,shop,publish,CHOICE（チョイス）,"京都,関西,三条・京都市役所前"
34384,%e5%b9%b3%e5%92%8c%e7%9a%84%e3%81%94%e3%81%af%e3%82%93%e3%83%91%e3%83%89%e3%83%9e,shop,publish,平和的ごはんパドマ,"京都,関西,左京区・山科区"
34389,%e3%82%b4%e3%83%9e%e3%82%af%e3%83%ad-%e3%82%b5%e3%83%ad%e3%83%b3-%ef%bc%88gomacro-salon%ef%bc%89,shop,publish,"ゴマクロ サロン （gomacro Salon）","京都,関西,烏丸御池・四条烏丸"
34394,veggie-cafe%ef%bc%88%e3%83%99%e3%82%b8%e3%82%ab%e3%83%95%e3%82%a7-%ef%bc%89,shop,publish,"Veggie Cafe（ベジカフェ ）","京都,四条大宮・西院・右京区・西京区,関西"
34399,%e7%b2%be%e9%80%b2%e3%82%ab%e3%83%95%e3%82%a7-%e5%92%8c%e9%a6%99%ef%bc%88%e3%82%8f%e3%81%8b%ef%bc%89,shop,publish,"精進カフェ 和香（わか）","京都,関西,烏丸御池・四条烏丸"
34404,%e5%8d%83%e4%b8%b8%e5%b1%8b-%e6%9c%ac%e5%ba%97,shop,publish,"千丸屋 本店","京都,関西,烏丸御池・四条烏丸"
34409,little-heaven%ef%bc%88%e3%83%aa%e3%83%88%e3%83%ab%e3%83%98%e3%83%96%e3%83%b3%ef%bc%89,shop,publish,LITTLE-HEAVEN（リトルヘブン）,"京都,四条大宮・西院・右京区・西京区,関西"
34410,%e3%81%84%e3%81%9f%e3%81%a0%e3%81%8d%e7%b9%95-%e4%ba%ac%e9%83%bd%e5%ba%97,shop,publish,"いただき繕 京都店","京都,関西,上京区・北区"
34415,sunny-place%ef%bc%88%e3%82%b5%e3%83%8b%e3%83%bc%e3%83%97%e3%83%ac%e3%82%a4%e3%82%b9%ef%bc%89,shop,publish,"SUNNY PLACE（サニープレイス）","京都,関西,左京区・山科区"
34421,falafel-garden%ef%bc%88%e3%83%95%e3%82%a1%e3%83%a9%e3%83%95%e3%82%a7%e3%83%ab%e3%82%ac%e3%83%bc%e3%83%87%e3%83%b3%ef%bc%89,shop,publish,"Falafel Garden（ファラフェルガーデン）","京都,関西,左京区・山科区"
34431,%e5%b1%b1%e9%a3%9f%e9%9f%b3,shop,publish,山食音,"京都,関西,上京区・北区"
34434,naturalfood-village-%ef%bc%88%e3%83%8a%e3%83%81%e3%83%a5%e3%83%a9%e3%83%ab%e3%83%95%e3%83%bc%e3%83%89-%e3%83%93%e3%83%ac%e3%83%83%e3%82%b8%ef%bc%89,shop,publish,"naturalfood Village （ナチュラルフード ビレッジ）","京都,関西,左京区・山科区"
34270,pono-cafe,shop,publish,"Pono cafe","兵庫,有馬・三田,関西"
34728,%e3%82%84%e3%81%95%e3%81%84%e3%81%a8%e3%81%8a%e9%85%92-%e3%81%b2%e3%81%a0%e3%81%be%e3%82%8a%e3%82%ab%e3%83%95%e3%82%a7,shop,publish,"やさいとお酒 ひだまりカフェ","東京,関東,蒲田・大森・大田区"
34732,%e3%83%9c%e3%82%b8%e3%83%a5%e3%83%b3-%e3%83%88%e3%83%9f%e3%82%ac%e3%83%a4,shop,publish,"ボジュン トミガヤ","東京,関東,新宿・代々木・大久保"
34737,%e3%81%90%e3%82%8b%e3%81%82%e3%81%a4,shop,publish,ぐるあつ,"東京,関東,上野・御徒町・浅草"
34745,%e3%83%8f%e3%83%8a%e3%83%80%ef%bd%a5%e3%83%ad%e3%83%83%e3%82%bd-%ef%bc%88hanada-rosso%ef%bc%89,shop,publish,"ハナダ･ロッソ （HANADA ROSSO）","東京,原宿・青山・表参道,関東"
34750,%e3%82%ab%e3%83%95%e3%82%a7%e3%82%80%e3%81%8e%e3%82%8f%e3%82%89%e3%81%84,shop,publish,カフェむぎわらい,"東京,関東,北千住・日暮里・葛飾・荒川"
34756,%e6%9d%be%e7%ab%b9%e5%9c%93%e3%82%ab%e3%83%95%e3%82%a7,shop,publish,松竹圓カフェ,"東京,関東,上野・御徒町・浅草"
34761,pqs,shop,publish,RYUSEN112,"東京,関東,上野・御徒町・浅草"
34767,the-farm-cafe,shop,publish,"THE FARM CAFE","東京,関東,上野・御徒町・浅草"
34775,sasaya-cafe,shop,publish,"SASAYA CAFE","東京,関東,錦糸町・両国・亀戸"
34783,veggie-house-%ef%bc%88%e3%83%99%e3%82%b8-%e3%83%8f%e3%82%a6%e3%82%b9%ef%bc%89,shop,publish,"Veggie House （ベジ ハウス）","東京,関東,錦糸町・両国・亀戸"
34796,organic-cafe-%e3%82%86%e3%81%8d%e3%81%99%e3%81%8d%e3%81%ae%e3%81%8f%e3%81%ab,shop,publish,"Organic Cafe ゆきすきのくに","東京,関東,吉祥寺・荻窪・三鷹"
34859,%e3%82%84%e3%81%be%e3%81%ad%e3%81%93%e3%82%ab%e3%83%95%e3%82%a7,shop,publish,やまねこカフェ,"広島,尾道市,中国"
34949,%e7%b4%a0%e9%a3%9f%e3%82%ab%e3%83%95%e3%82%a7ren-%e9%8a%80%e9%96%a3%e5%af%ba%e5%ba%97,shop,publish,"素食カフェRen 銀閣寺店","京都,関西,左京区・山科区"
35073,%e3%82%a8%e3%83%b4%e3%82%a1%e3%83%80%e3%82%a4%e3%83%8b%e3%83%b3%e3%82%b0-%e5%8d%9a%e5%a4%9a%e3%81%84%e3%81%a3%e3%81%b4%e3%82%93%e9%80%9a%e3%82%8a%e5%ba%97,shop,publish,"エヴァダイニング 博多いっぴん通り店","福岡,博多駅周辺,九州・沖縄"
35228,cafe-space-link-%ef%bc%88%e3%82%ab%e3%83%95%e3%82%a7%ef%bc%86%e3%82%b9%e3%83%9a%e3%83%bc%e3%82%b9%e3%80%80%e3%83%aa%e3%83%b3%e3%82%af%ef%bc%89,shop,publish,"Cafe & Space Link （カフェ＆スペース　リンク）","広島,福山市,中国"
35382,%e3%81%ab%e3%81%97%e3%81%be%e3%81%8d%e3%81%94%e3%81%af%e3%82%93,shop,publish,にしまきごはん,"東京,関東,吉祥寺・荻窪・三鷹"
35513,%e5%8f%a4%e6%b0%91%e5%ae%b6%e3%83%ac%e3%82%b9%e3%83%88%e3%83%a9%e3%83%b3haze,shop,publish,古民家レストランHaze,"福岡,九州・沖縄,久留米"
35530,veggie%e9%a3%9f%e5%a0%82%e3%80%80%e8%88%b9%e5%87%ba%e5%b1%8b,shop,publish,Veggie食堂　船出屋,"福岡,九州・沖縄,古賀"
35533,%e7%8e%84%e7%b1%b3%e9%a3%9f%e3%81%8a%e3%81%b2%e3%81%95%e3%81%be,shop,publish,玄米食おひさま,"佐賀市,佐賀,九州・沖縄"
35536,%e9%80%b1%e6%9c%ab%e3%83%9e%e3%82%af%e3%83%ad%e3%83%93cafe-%e4%b8%89%e8%aa%bf%e5%ae%b6,shop,publish,"週末マクロビcafe 三調家","佐賀市,佐賀,九州・沖縄"
35537,imakoko-kitchen-merrymomo-%ef%bc%88%e3%82%a4%e3%83%9e%e3%82%b3%e3%82%b3%e3%82%ad%e3%83%83%e3%83%81%e3%83%b3-%e3%83%a1%e3%83%aa%e3%83%bc%e3%83%a2%e3%83%a2%ef%bc%89,shop,publish,"Imakoko Kitchen Merrymomo （イマココキッチン メリーモモ）","大阪,関西,江坂・新大阪・十三"
35541,%e8%87%aa%e7%84%b6%e8%8f%9c%e9%a3%9f%e3%80%80%e3%82%8a%e3%82%93%e3%81%a9%e3%81%86,shop,publish,自然菜食　りんどう,"大阪,関西,東大阪市"
35544,seren-table%ef%bc%88%e3%82%bb%e3%83%ac%e3%83%b3%e3%83%86%e3%83%bc%e3%83%96%e3%83%ab%ef%bc%89,shop,publish,seren-table（セレンテーブル）,"大阪,関西,茨城・高槻"
35548,stance-dot%ef%bc%88%e3%82%b9%e3%82%bf%e3%83%b3%e3%82%b9%e3%83%89%e3%83%83%e3%83%88%ef%bc%89,shop,publish,"stance dot（スタンスドット）","大阪,関西,枚方・寝屋川・門真"
35551,%e5%96%9c%e8%8f%9c%e4%ba%ad,shop,publish,喜菜亭,"奈良市,関西,奈良"
35556,%e3%82%a4%e3%83%bc%e3%82%b8%e3%83%bc%e3%83%a9%e3%82%a4%e3%83%95%e3%82%ab%e3%83%95%e3%82%a7-%ef%bc%88easy-life-cafe%ef%bc%89,shop,publish,"イージーライフカフェ （EASY LIFE CAFE）","関東,成田市,千葉"
35561,%e5%af%ba%e5%ad%90%e5%b1%8b%e3%82%aa%e3%83%bc%e3%82%ac%e3%83%8b%e3%83%83%e3%82%af%e3%82%ab%e3%83%95%e3%82%a7-eden,shop,publish,"寺子屋オーガニックカフェ EDEN","関東,千葉,佐倉市"
35564,%e8%8f%9c%e9%a3%9f%e3%83%99%e3%82%b8%e3%82%ab%e3%83%95%e3%82%a7%e3%81%af%e3%81%a3%e3%81%a1%e3%81%a8%e3%81%bf%e3%81%a4,shop,publish,菜食ベジカフェはっちとみつ,"関東,船橋市・市川市・習志野市,千葉"
35567,foos-cafe-hinoki-%e6%aa%9c%e6%b0%a3-%ef%bc%88%e3%83%92%e3%83%8e%e3%82%ad%ef%bc%89,shop,publish,"foo's cafe HINOKI 檜氣 （ヒノキ）","関東,船橋市・市川市・習志野市,千葉"
35571,veggy-glace%ef%bc%88%e3%83%99%e3%82%b8%e3%83%bc%e3%82%b0%e3%83%a9%e3%83%83%e3%82%bb%ef%bc%89,shop,publish,"Veggy Glace（ベジーグラッセ）","関東,船橋市・市川市・習志野市,千葉"
35573,%e3%81%93%e3%81%b2%e3%81%a4%e3%81%98%e3%82%84by%e3%83%8f%e3%83%ac%e3%83%ab%e3%83%a4%e3%82%ab%e3%83%95%e3%82%a7,shop,publish,こひつじやbyハレルヤカフェ,"関東,千葉,松戸市・柏市"
35577,matoi-%ef%bc%88%e3%83%9e%e3%83%88%e3%82%a4%ef%bc%89,shop,publish,"matoi （マトイ）","関東,船橋市・市川市・習志野市,千葉"
35578,vegetable-fruit-%e5%8f%a4%e6%b0%91%e5%ae%b6%e3%82%ab%e3%83%95%e3%82%a7conaya,shop,publish,"Vegetable &fruit 古民家カフェConaya","関東,千葉,松戸市・柏市"
35582,%e7%8e%84%e7%b1%b3%e8%8f%9c%e9%a3%9f%e3%82%ab%e3%83%95%e3%82%a7-%e3%83%9f%e3%83%ab%e3%83%88%e3%82%b9%e3%81%ae%e6%9c%a8,shop,publish,"玄米菜食カフェ ミルトスの木","関東,千葉,木更津市"
35585,cafe369,shop,publish,cafe369,"千葉市,関東,千葉"
35593,sweetpeace-%ef%bc%88%e3%82%b9%e3%82%a4%e3%83%bc%e3%83%88%e3%83%94%e3%83%bc%e3%82%b9%ef%bc%89,shop,publish,"Sweet&Peace （スイート&ピース）","関東,千葉,茂原市"
35597,%e3%83%8b%e3%82%b3%e3%83%8b%e3%82%b3%e3%83%ac%e3%82%b9%e3%83%88%e3%83%a9%e3%83%b3,shop,publish,ニコニコレストラン,"関東,千葉,茂原市"
35607,%e3%82%b7%e3%83%b3%e3%83%91-%e3%82%ab%e3%83%95%e3%82%a7,shop,publish,"シンパ カフェ","関東,千葉,茂原市"
35611,%e3%83%a9%e3%82%a4%e3%82%b9%e3%83%86%e3%83%a9%e3%82%b9%e3%82%ab%e3%83%95%e3%82%a7,shop,publish,ライステラスカフェ,"関東,千葉,茂原市"
35613,%e8%94%b5%e7%b2%be,shop,publish,蔵精,"関東,千葉,茂原市"
35617,current-cafe-%ef%bc%88%e3%82%ab%e3%83%ac%e3%83%b3%e3%83%88%e3%82%ab%e3%83%95%e3%82%a7%ef%bc%89,shop,publish,"current cafe  （カレントカフェ）","関東,千葉"
35670,citta-cafe%ef%bc%88%e3%83%81%e3%83%83%e3%82%bf%e3%82%ab%e3%83%95%e3%82%a7%ef%bc%89,shop,publish,"citta cafe（チッタカフェ）","草津市・守山市,滋賀,関西"
35675,jahpal-live-%e3%82%b8%e3%83%a3%e3%83%bc%e3%83%91%e3%83%ab%e3%83%a9%e3%82%a4%e3%83%96,shop,publish,"JahpaL Live (ジャーパルライブ)","京都,関西"
35677,ruwam,shop,publish,Ruwam,"滋賀,関西"
35823,gluten-free-ts-kitchen,shop,publish,"Gluten Free T's Kitchen","東京,関東,赤坂・六本木・麻布"
35827,%e3%81%84%e3%81%a8%e6%ad%a3-%ef%bc%88%e3%81%84%e3%81%a8%e3%81%97%e3%82%87%e3%81%86%ef%bc%89,shop,publish,"いと正 （いとしょう）","東京,関東,赤坂・六本木・麻布"
35832,eat-more-greens%e3%82%a4%e3%83%bc%e3%83%88%e3%83%a2%e3%82%a2%e3%82%b0%e3%83%aa%e3%83%bc%e3%83%b3%e3%82%ba%ef%bc%89,shop,publish,"Eat more greens(イートモアグリーンズ）","東京,関東,赤坂・六本木・麻布"
35835,sunshine-juice%ef%bc%88%e3%82%b5%e3%83%b3%e3%82%b7%e3%83%a3%e3%82%a4%e3%83%b3%e3%82%b8%e3%83%a5%e3%83%bc%e3%82%b9%ef%bc%89%e6%81%b5%e6%af%94%e5%af%bf%e5%ba%97,shop,publish,"Sunshine Juice（サンシャインジュース）恵比寿店","東京,関東,渋谷・恵比寿・代官山・中目黒"
35839,plein-de-vie,shop,publish,"PLEIN DE VIE","東京,関東,赤坂・六本木・麻布"
35841,%e3%83%8a%e3%83%97%e3%83%ac-%e6%9d%b1%e4%ba%ac%e3%83%9f%e3%83%83%e3%83%89%e3%82%bf%e3%82%a6%e3%83%b3%e5%ba%97,shop,publish,"ナプレ 東京ミッドタウン店","東京,関東,赤坂・六本木・麻布"
35846,%e3%82%af%e3%83%aa%e3%82%b9%e3%83%97-%e3%82%b5%e3%83%a9%e3%83%80-%e3%83%af%e3%83%bc%e3%82%af%e3%82%b9%e9%ba%bb%e5%b8%83%e5%8d%81%e7%95%aa%e5%ba%97,shop,publish,"クリスプ サラダ ワークス麻布十番店","東京,関東,赤坂・六本木・麻布"
35850,%e3%82%af%e3%83%aa%e3%82%b9%e3%83%97%e3%83%bb%e3%82%b5%e3%83%a9%e3%83%80%e3%83%af%e3%83%bc%e3%82%af%e3%82%b9-%e5%85%ad%e6%9c%ac%e6%9c%a8%e3%83%92%e3%83%ab%e3%82%ba%e5%ba%97,shop,publish,"クリスプ・サラダワークス 六本木ヒルズ店","東京,関東,赤坂・六本木・麻布"
35855,%e5%93%81%e5%b7%9d%e8%96%ac%e8%86%b3%e3%83%ac%e3%82%b9%e3%83%88%e3%83%a9%e3%83%b310zen,shop,publish,品川薬膳レストラン10ZEN,"東京,関東,品川・目黒・五反田"
35858,gentle-italian-sushi-bar,shop,publish,"GENTLE Italian & Sushi Bar","東京,関東,渋谷・恵比寿・代官山・中目黒"
35880,healthy-monster,shop,publish,"HEALTHY MONSTER","東京,原宿・青山・表参道,関東"
35884,%e3%82%b3%e3%82%b3%e3%83%8a%e3%83%83%e3%83%84%e3%82%b0%e3%83%ac%e3%83%b3%ef%bc%88coconut-glens%ef%bc%89-%e8%a1%a8%e5%8f%82%e9%81%93%e5%ba%97,shop,publish,"ココナッツグレン（COCONUT GLEN’S） 表参道店","東京,原宿・青山・表参道,関東"
35890,bareburger%ef%bc%88%e3%83%99%e3%82%a2%e3%83%90%e3%83%bc%e3%82%ac%e3%83%bc%ef%bc%89-%e9%8a%80%e5%ba%a7%e5%ba%97,shop,publish,"BAREBURGER（ベアバーガー） 銀座店","東京,関東,銀座・有楽町・新橋"
35895,bareburger%ef%bc%88%e3%83%99%e3%82%a2%e3%83%90%e3%83%bc%e3%82%ac%e3%83%bc%ef%bc%89-%e8%87%aa%e7%94%b1%e3%81%8c%e4%b8%98%e5%ba%97,shop,publish,"BAREBURGER（ベアバーガー） 自由が丘店","東京,関東,自由が丘・学芸大学・都立大学・祐天寺"
35898,%e6%9c%a8%e3%81%a8%e6%b0%b4%e3%81%a8%e5%9c%9f%e3%81%a8-%e8%a1%a8%e5%8f%82%e9%81%93%e5%ba%97,shop,publish,"木と水と土と 表参道店","東京,原宿・青山・表参道,関東"
35903,chipoon%ef%bc%88%e3%83%81%e3%83%97%e3%83%bc%e3%83%b3%ef%bc%89,shop,publish,Chipoon（チプーン）,"東京,原宿・青山・表参道,関東"
35919,brooks-me-byo-cafe%ef%bc%88%e3%83%96%e3%83%ab%e3%83%83%e3%82%af%e3%82%b9%e3%83%9f%e3%83%93%e3%83%a7%e3%82%a6%e3%82%ab%e3%83%95%e3%82%a7%ef%bc%89,shop,publish,"BROOK’S ME-BYO café（ブルックスミビョウカフェ）","東京,原宿・青山・表参道,関東"
35924,botanist-cafe%ef%bc%88%e3%83%9c%e3%82%bf%e3%83%8b%e3%82%b9%e3%83%88%e3%82%ab%e3%83%95%e3%82%a7%ef%bc%89,shop,publish,"BOTANIST cafe（ボタニストカフェ）","東京,原宿・青山・表参道,関東"
35933,elle-cafe%ef%bc%88-%e3%82%a8%e3%83%ab%e3%82%ab%e3%83%95%e3%82%a7%ef%bc%89%e9%9d%92%e5%b1%b1%e5%ba%97,shop,publish,"ELLE café（ エルカフェ）青山店","東京,原宿・青山・表参道,関東"
35953,royal-garden-cafe%ef%bc%88%e3%83%ad%e3%82%a4%e3%83%a4%e3%83%ab%e3%82%ac%e3%83%bc%e3%83%87%e3%83%b3%e3%82%ab%e3%83%95%e3%82%a7%ef%bc%89%e9%9d%92%e5%b1%b1,shop,publish,"Royal Garden Cafe（ロイヤルガーデンカフェ）青山","東京,原宿・青山・表参道,関東"
35956,revive-kitchen-three-aoyama,shop,publish,"REVIVE KITCHEN THREE AOYAMA","東京,原宿・青山・表参道,関東"
35964,%e9%87%8e%e8%8f%9c%e3%81%8c%e3%81%8a%e3%81%84%e3%81%97%e3%81%84%e3%83%80%e3%82%a4%e3%83%8b%e3%83%b3%e3%82%b0-longing-house-%e5%8c%97%e9%9d%92%e5%b1%b1,shop,publish,"野菜がおいしいダイニング LONGING HOUSE 北青山","東京,原宿・青山・表参道,関東"
35968,noodle-stand-tokyo,shop,publish,"Noodle Stand Tokyo","東京,原宿・青山・表参道,関東"
35970,superiority-burger-japan%ef%bc%88%e3%82%b9%e3%83%9a%e3%82%b7%e3%83%a3%e3%83%aa%e3%83%86%e3%82%a3%e3%83%bc%e3%83%90%e3%83%bc%e3%82%ac%e3%83%bc%e3%82%b8%e3%83%a3%e3%83%91%e3%83%b3%ef%bc%89,shop,publish,"SUPERIORITY BURGER JAPAN（スペシャリティーバーガージャパン）","東京,原宿・青山・表参道,関東"
35994,aloha-salads-cafe%e5%85%ad%e6%9c%ac%e6%9c%a8%e4%b8%80%e4%b8%81%e7%9b%ae%e5%ba%97,shop,publish,"ALOHA SALADS cafe六本木一丁目店","東京,関東,赤坂・六本木・麻布"
36053,royal-garden-cafe%ef%bc%88%e3%83%ad%e3%82%a4%e3%83%a4%e3%83%ab%e3%82%ac%e3%83%bc%e3%83%87%e3%83%b3%e3%82%ab%e3%83%95%e3%82%a7%ef%bc%89-%e6%b8%8b%e8%b0%b7%e5%ba%97,shop,publish,"Royal Garden Cafe（ロイヤルガーデンカフェ） 渋谷店","東京,関東,渋谷・恵比寿・代官山・中目黒"
36062,royal-garden-cafe%ef%bc%88%e3%83%ad%e3%82%a4%e3%83%a4%e3%83%ab%e3%82%ac%e3%83%bc%e3%83%87%e3%83%b3-%e3%82%ab%e3%83%95%e3%82%a7%ef%bc%89-%e9%a3%af%e7%94%b0%e6%a9%8b,shop,publish,"Royal Garden Cafe（ロイヤルガーデン カフェ） 飯田橋","東京,関東,水道橋・飯田橋・神楽坂"
36066,royal-garden-cafe%ef%bc%88%e3%83%ad%e3%82%a4%e3%83%a4%e3%83%ab%e3%82%ac%e3%83%bc%e3%83%87%e3%83%b3-%e3%82%ab%e3%83%95%e3%82%a7%ef%bc%89-%e5%a4%a7%e6%bf%a0%e5%85%ac%e5%9c%92,shop,publish,"Royal Garden Cafe（ロイヤルガーデン カフェ） 大濠公園","福岡,天神,九州・沖縄"
36069,cafe-kukuru,shop,publish,"cafe KuKuRu","関東,神奈川,井土ヶ谷・東戸塚"
36073,753%e3%80%80cafe-shop-gallery,shop,publish,753　Cafe/Shop/Gallery,"関東,神奈川"
36075,%e6%b5%b7%e5%85%89%e5%ba%b5,shop,publish,海光庵,"関東,神奈川,鎌倉・長谷"
36083,%e8%88%b5%e5%b1%8b,shop,publish,舵屋,"関東,神奈川,鎌倉・長谷"
36086,%e6%9c%a8%e3%81%a8%e5%ad%a3,shop,publish,木と季,"関東,神奈川,鎌倉・長谷"
36089,qk-cafe%ef%bc%88%e3%82%ad%e3%83%a5%e3%82%a6%e3%82%b1%e3%82%a4%e3%82%ab%e3%83%95%e3%82%a7%ef%bc%89,shop,publish,"QK CAFE（キュウケイカフェ）","関東,神奈川,鎌倉・長谷"
36093,kamakura-24sekki,shop,publish,"kamakura 24sekki","関東,神奈川,鎌倉・長谷"
36097,%e9%a6%99%e8%8f%9c%e8%bb%92-%e5%af%93%ef%bc%88%e3%82%b3%e3%82%a6%e3%82%b5%e3%82%a4%e3%82%b1%e3%83%b3-%e3%82%b0%e3%82%a6%ef%bc%89,shop,publish,"香菜軒 寓（コウサイケン グウ）","関東,神奈川,鎌倉・長谷"
36100,%e9%8e%8c%e5%80%89%e3%83%91%e3%83%af%e3%83%b3,shop,publish,鎌倉パワン,"関東,神奈川,鎌倉・長谷"
36104,%e9%8e%8c%e5%80%89%e4%b8%8d%e8%ad%98%e5%ba%b5,shop,publish,鎌倉不識庵,"関東,神奈川,鎌倉・長谷"
36279,85bal-teppen,shop,publish,"85BAL TEPPEN","東京,関東,駒沢大学・三軒茶屋・池尻大橋"
36284,%e9%a7%92%e6%b2%a2vegebon-%ef%bc%88%e3%83%99%e3%82%b8%e3%81%bc%e3%82%93%ef%bc%89,shop,publish,"駒沢vegebon （ベジぼん）","東京,関東,駒沢大学・三軒茶屋・池尻大橋"
36287,cafe-cure-natura%ef%bc%88%e3%82%ab%e3%83%95%e3%82%a7-%e3%82%ad%e3%83%a5%e3%82%a2-%e3%83%8a%e3%83%81%e3%83%a5%e3%83%a9%ef%bc%89,shop,publish,"CAFE CURE NATURA（カフェ キュア ナチュラ）","東京,関東,駒沢大学・三軒茶屋・池尻大橋"
36293,%e6%b1%a0%e5%b0%bb%e9%a4%83%e5%ad%90,shop,publish,池尻餃子,"東京,関東,駒沢大学・三軒茶屋・池尻大橋"
36296,%e7%be%8e%e9%a3%9f%e5%90%8c%e6%ba%90cafe-keats%ef%bc%88%e3%82%ad%e3%83%bc%e3%83%84%ef%bc%89,shop,publish,"美食同源CAFE KEATS（キーツ）","東京,関東,自由が丘・学芸大学・都立大学・祐天寺"
36303,premarche-gelateria-%e4%b8%ad%e7%9b%ae%e9%bb%92%ef%bc%88%e3%83%97%e3%83%ac%e3%83%9e%e3%83%ab%e3%82%b7%e3%82%a7%e3%83%bb%e3%82%b8%e3%82%a7%e3%83%a9%e3%83%86%e3%83%aa%e3%82%a2%ef%bc%89,shop,publish,"Premarché Gelateria 中目黒（プレマルシェ・ジェラテリア）","東京,関東,渋谷・恵比寿・代官山・中目黒"
36312,premarche-gelateria%ef%bc%88%e3%83%97%e3%83%ac%e3%83%9e%e3%83%ab%e3%82%b7%e3%82%a7%e3%83%bb%e3%82%b8%e3%82%a7%e3%83%a9%e3%83%86%e3%83%aa%e3%82%a2%ef%bc%89%e4%ba%ac%e9%83%bd%e4%b8%89%e6%9d%a1%e6%9c%ac,shop,publish,"Premarché Gelateria（プレマルシェ・ジェラテリア）京都三条本店","京都,関西,烏丸御池・四条烏丸"
36315,%e3%83%ac%e3%82%a4%e3%83%b3%e3%83%9c%e3%83%bc%e3%83%90%e3%83%bc%e3%83%89%e3%83%a9%e3%83%b3%e3%83%87%e3%83%b4%e3%83%bc%ef%bc%88rainbow-bird-rendezvous%ef%bc%89,shop,publish,"レインボーバードランデヴー（RAINBOW BIRD RENDEZVOUS）","東京,関東,自由が丘・学芸大学・都立大学・祐天寺"
36321,%e9%87%8e%e8%8f%9c%e5%b1%85%e9%85%92%e5%b1%8b-%e3%81%af%e3%81%aa%e8%b1%86,shop,publish,"野菜居酒屋 はな豆","東京,関東,渋谷・恵比寿・代官山・中目黒"
36326,meu-nota-%ef%bc%88%e3%83%a1%e3%82%a6%e3%83%8e%e3%83%bc%e3%82%bf%ef%bc%89,shop,publish,"meu nota （メウノータ）","東京,関東,中野・高円寺・阿佐ヶ谷"
36330,loca-kitchen%ef%bc%88%e3%83%ad%e3%82%ab%e3%82%ad%e3%83%83%e3%83%81%e3%83%b3%ef%bc%89,shop,publish,"Loca Kitchen（ロカキッチン）","東京,関東,中野・高円寺・阿佐ヶ谷"
36334,%e3%83%ac%e3%82%af%e3%83%88%e3%82%b5%e3%83%b3%e3%83%89%e3%82%ab%e3%83%95%e3%82%a7,shop,publish,レクトサンドカフェ,"東京,関東,中野・高円寺・阿佐ヶ谷"
36336,%e8%8a%b1%e8%8f%9c%ef%bc%88%e3%81%8b%e3%83%bc%e3%81%aa%ef%bc%89,shop,publish,花菜（かーな）,"東京,関東,中野・高円寺・阿佐ヶ谷"
36339,ny%e3%83%9e%e3%83%95%e3%82%a3%e3%83%b3,shop,publish,NYマフィン,"東京,関東,中野・高円寺・阿佐ヶ谷"
36349,%e9%ab%98%e6%9c%a8%e5%b1%8b%e8%80%81%e8%88%97,shop,publish,高木屋老舗,"東京,関東,柴又・亀有"
36457,have-more-curry%ef%bc%88%e3%83%8f%e3%83%96%e3%83%a2%e3%82%a2%e3%82%ab%e3%83%ac%e3%83%bc-%ef%bc%89,shop,publish,"have more curry（ハブモアカレー ）","東京,原宿・青山・表参道,関東"
36460,shibuya-hideout%ef%bc%88%e6%b8%8b%e8%b0%b7%e3%83%8f%e3%82%a4%e3%83%89%e3%82%a2%e3%82%a6%e3%83%88%ef%bc%89,shop,publish,"SHIBUYA HIDEOUT（渋谷ハイドアウト）","東京,関東,渋谷・恵比寿・代官山・中目黒"
36465,noki-shibuya,shop,publish,"noki shibuya","東京,関東,渋谷・恵比寿・代官山・中目黒"
36476,%e3%83%9e%e3%83%ac%e3%83%bc%e3%83%81%e3%83%a3%e3%83%b3,shop,publish,マレーチャン,"東京,関東,池袋・高田馬場・早稲田"
36481,mominoki-haouse%ef%bc%88%e3%83%a2%e3%83%9f%e3%83%8e%e3%82%ad%e3%83%8f%e3%82%a6%e3%82%b9%ef%bc%89,shop,publish,"MOMINOKI HAOUSE（モミノキハウス）","東京,関東,渋谷・恵比寿・代官山・中目黒"
36484,ones-%e3%83%af%e3%83%b3%e3%82%ba,shop,publish,"Ones (ワンズ)","東京,関東,渋谷・恵比寿・代官山・中目黒"
36486,%e4%b8%ad%e5%9b%bd%e5%ae%b6%e5%ba%ad%e6%96%99%e7%90%86-%e5%8c%97%e6%96%97,shop,publish,"中国家庭料理 北斗","東京,原宿・青山・表参道,関東"
36488,wired-bonbon-%e3%83%ab%e3%83%9f%e3%83%8d%e6%96%b0%e5%ae%bf%e5%ba%97,shop,publish,"wired bonbon ルミネ新宿店","東京,関東,新宿・代々木・大久保"
36537,%e6%96%b0%e5%ae%bf%e5%be%a1%e8%8b%91%e3%82%89%e3%83%bc%e3%82%81%e3%82%93%e6%a1%9c%e8%8a%b1,shop,publish,新宿御苑らーめん桜花,"東京,関東,新宿・代々木・大久保"
36540,%e7%b2%be%e9%80%b2%e8%95%8e%e9%ba%a6-%e3%81%82%e3%81%95%e3%81%b2,shop,publish,"精進蕎麦 あさひ","東京,関東,新宿・代々木・大久保"
36544,bharati-indian-restaurant,shop,publish,"BHARATI INDIAN RESTAURANT","東京,関東,新宿・代々木・大久保"
36546,%e3%82%b0%e3%83%ab%e3%83%86%e3%83%b3%e3%83%95%e3%83%aa%e3%83%bc%e3%82%ab%e3%83%95%e3%82%a7%e3%80%80%e3%83%aa%e3%83%88%e3%83%ab%e3%83%90%e3%83%bc%e3%83%89,shop,publish,グルテンフリーカフェ　リトルバード,"東京,関東,新宿・代々木・大久保"
36549,%e6%96%b0%e5%ae%bf%e3%83%80%e3%82%a4%e3%82%a2%e3%83%ad%e3%82%b0,shop,publish,新宿ダイアログ,"東京,関東,新宿・代々木・大久保"
36723,%e5%92%8c%e3%81%ae%e3%81%8b%e3%81%97-%e5%b7%a1,shop,publish,"和のかし 巡","東京,関東,代々木公園・代々木上原・代々木八幡"
36727,aux%ef%bc%88%e3%82%aa%e3%82%b0%e3%82%b8%e3%83%a5%e3%82%a2%e3%83%aa%e3%83%bc%ef%bc%89,shop,publish,aux（オグジュアリー）,"東京,関東,代々木公園・代々木上原・代々木八幡"
36729,la-petite-patisserie-de-mirayne%ef%bc%88%e3%83%9f%e3%83%ac%e3%82%a4%e3%83%8d%ef%bc%89,shop,publish,"La Petite Pâtisserie de Mirayné（ミレイネ）","東京,関東,代々木公園・代々木上原・代々木八幡"
36735,%e3%82%a4%e3%82%bf%e3%83%aa%e3%82%a2%e3%83%b3%e9%a3%9f%e5%a0%82-%e4%ba%94%e5%8f%8d%e7%94%b0%e5%ba%97,shop,publish,"イタリアン食堂 五反田店","東京,関東,品川・目黒・五反田"
36739,%e6%98%8e%e5%a4%a9%e5%a5%bd%e5%a5%bd%ef%bc%88%e3%83%9f%e3%83%b3%e3%83%86%e3%83%b3%e3%83%8f%e3%82%aa%e3%83%8f%e3%82%aa-%ef%bc%89,shop,publish,"明天好好（ミンテンハオハオ ）","東京,関東,渋谷・恵比寿・代官山・中目黒"
36742,pain-de-brun%ef%bc%88%e3%83%91%e3%83%b3%e3%83%89%e3%83%96%e3%83%a9%e3%83%b3%ef%bc%89,shop,publish,"Pain de BRUN（パンドブラン）","東京,関東,中野・高円寺・阿佐ヶ谷"
36746,%e3%82%b0%e3%83%ab%e3%83%86%e3%83%b3%e3%83%95%e3%83%aa%e3%83%bc%e3%82%ab%e3%83%95%e3%82%a7%e3%83%bb%e3%82%bf%e3%83%9e%e3%82%af%e3%83%bc%e3%83%98%e3%83%b3,shop,publish,グルテンフリーカフェ・タマクーヘン,"東京,関東,二子玉川・桜新町・用賀"
36749,%e3%83%81%e3%83%a7%e3%83%83%e3%83%97%e3%83%89%e3%82%b5%e3%83%a9%e3%83%80%e3%83%87%e3%82%a4%e3%82%ba%e4%ba%8c%e5%ad%90%e7%8e%89%e5%b7%9d%e5%ba%97,shop,publish,チョップドサラダデイズ二子玉川店,"東京,関東,二子玉川・桜新町・用賀"
36754,chopped-salad-days%e3%83%81%e3%83%a7%e3%83%83%e3%83%97%e3%83%89%e3%82%b5%e3%83%a9%e3%83%80%e3%83%87%e3%82%a4%e3%82%ba-%e3%82%ab%e3%83%ac%e3%83%83%e3%82%bf%e6%b1%90%e7%95%99%e5%ba%97,shop,publish,"CHOPPED SALAD DAYS(チョップドサラダデイズ ) カレッタ汐留店","東京,関東,銀座・有楽町・新橋"
36758,%e3%83%81%e3%83%a7%e3%83%83%e3%83%97%e3%83%89%e3%82%b5%e3%83%a9%e3%83%80%e3%83%87%e3%82%a4%e3%82%ba-%e6%96%b0%e5%ae%bf%e4%bd%8f%e5%8f%8b%e3%83%93%e3%83%ab%e5%ba%97,shop,publish,"チョップドサラダデイズ 新宿住友ビル店","東京,関東,新宿・代々木・大久保"
36761,%e3%83%81%e3%83%a7%e3%83%83%e3%83%97%e3%83%89%e3%82%b5%e3%83%a9%e3%83%80%e3%83%87%e3%82%a4%e3%82%ba-%e5%90%8d%e5%8f%a4%e5%b1%8b%e3%82%bb%e3%83%b3%e3%83%88%e3%83%a9%e3%83%ab%e3%82%bf%e3%83%af%e3%83%bc,shop,publish,"チョップドサラダデイズ 名古屋セントラルタワーズ店","愛知,名古屋駅・西区・中村区,東海"
36771,%e4%bf%a1%e5%b7%9e%e8%95%8e%e9%ba%a6-%e8%93%bc%e7%a7%91%e5%ba%b5%ef%bc%88%e3%81%9f%e3%81%a6%e3%81%97%e3%81%aa%e3%81%82%e3%82%93%ef%bc%89%e5%8c%97%e5%8d%83%e4%bd%8f%e3%83%9e%e3%83%ab%e3%82%a4%e5%ba%97,shop,publish,"信州蕎麦 蓼科庵（たてしなあん）北千住マルイ店","東京,関東,北千住・日暮里・葛飾・荒川"
36779,seeds%ef%bc%88%e3%82%b7%e3%83%bc%e3%82%ba%ef%bc%89,shop,publish,Seeds（シーズ）,"関東,成田市,千葉"
36783,%e3%82%aa%e3%83%bc%e3%82%ac%e3%83%8b%e3%83%83%e3%82%af%e3%82%ab%e3%83%a0%e3%83%bc,shop,publish,オーガニックカムー,"関東,千葉,松戸市・柏市"
36787,%e5%89%b2%e4%b8%bb%e7%83%b9%e5%be%93%e9%a3%9b%e7%ab%9c%ef%bc%88%e3%81%b2%e3%82%8a%e3%82%85%e3%81%86%ef%bc%89,shop,publish,割主烹従飛竜（ひりゅう）,"関東,千葉,松戸市・柏市"
36801,%e3%83%89%e3%83%83%e3%82%b0%ef%bc%86%e3%83%99%e3%82%b8%e3%83%ac%e3%82%b9%e3%83%88%e3%83%a9%e3%83%b3-%e3%83%88%e3%82%a5%e3%83%ab%e3%82%b7%e3%83%bc,shop,publish,"ドッグ＆ベジレストラン トゥルシー","関東,千葉,館山市"
36806,earth-tree-cafe,shop,publish,"earth tree cafe","関東,千葉,鴨川市"
36866,%e5%b7%9d%e8%b6%8a%e5%b9%b8%e3%81%99%e3%81%97,shop,publish,川越幸すし,"関東,埼玉,川越市"
36870,%e3%82%ab%e3%83%95%e3%82%a7%e6%97%a5%e6%9c%88%e5%a0%82,shop,publish,カフェ日月堂,"関東,埼玉,日高市"
36874,%e3%83%a9%e3%83%91%e3%83%b3%e3%83%8e%e3%83%af%e3%83%bc%e3%83%ab%e3%81%8f%e3%82%8d%e3%81%86%e3%81%95%e3%81%8e%ef%bc%88lapin-noir%ef%bc%89,shop,publish,"ラパンノワールくろうさぎ（Lapin Noir）","関東,埼玉,秩父市"
36879,%e3%82%b7%e3%83%ad%e3%82%af%e3%83%9e%e9%a3%9f%e5%a0%82,shop,publish,シロクマ食堂,"関東,神奈川,大和市"
36882,%e3%83%95%e3%82%bf%e3%83%90%e3%83%95%e3%83%ab%e3%83%bc%e3%83%84%e3%83%91%e3%83%bc%e3%83%a9%e3%83%bc-%e3%82%a2%e3%83%88%e3%83%ac%e5%b7%9d%e5%b4%8e%e5%ba%97,shop,publish,"フタバフルーツパーラー アトレ川崎店","関東,神奈川,川崎・鶴見"
36889,%e3%83%95%e3%82%bf%e3%83%90%e3%83%95%e3%83%ab%e3%83%bc%e3%83%84%e3%83%91%e3%83%bc%e3%83%a9%e3%83%bc%e9%8a%80%e5%ba%a7%e6%9c%ac%e5%ba%97,shop,publish,フタバフルーツパーラー銀座本店,"東京,関東,銀座・有楽町・新橋"
36893,%e3%83%95%e3%82%bf%e3%83%90%e3%83%95%e3%83%ab%e3%83%bc%e3%83%84%e3%83%91%e3%83%bc%e3%83%a9%e3%83%bc-%e6%96%b0%e5%ae%bf%e3%83%9e%e3%83%ab%e3%82%a4%e6%9c%ac%e9%a4%a8%e5%ba%97,shop,publish,"フタバフルーツパーラー 新宿マルイ本館店","東京,関東,新宿・代々木・大久保"
36898,%e5%8f%a4%e6%b0%91%e5%ae%b6-%e7%b6%b1%e4%ba%94%e9%83%8e,shop,publish,"古民家 綱五郎","関東,神奈川,川崎・鶴見"
36908,%e9%83%bd%e9%87%8e%e8%8f%9c-%e8%b3%80%e8%8c%82-%e4%ba%ac%e9%83%bd%e9%a7%85%e5%89%8d%e5%ba%97,shop,publish,"都野菜 賀茂 京都駅前店","京都駅周辺,京都,関西"
36921,%e9%83%bd%e9%87%8e%e8%8f%9c-%e8%b3%80%e8%8c%82-%e7%83%8f%e4%b8%b8%e5%ba%97,shop,publish,"都野菜 賀茂 烏丸店","京都,関西,烏丸御池・四条烏丸"
36925,%e9%83%bd%e9%87%8e%e8%8f%9c-%e8%b3%80%e8%8c%82-%e6%b2%b3%e5%8e%9f%e7%94%ba%e5%9b%9b%e6%9d%a1%e5%ba%97,shop,publish,"都野菜 賀茂 河原町四条店","河原町・木屋町,京都,関西"
36929,%e5%b5%af%e5%b3%a8%e3%81%a8%e3%81%86%e3%81%b5%e3%80%80%e7%a8%b2,shop,publish,嵯峨とうふ　稲,"京都,四条大宮・西院・右京区・西京区,関西"
36935,%e5%b5%af%e5%b3%a8%e3%81%a8%e3%81%86%e3%81%b5-%e7%a8%b2-%e5%8c%97%e5%ba%97,shop,publish,"嵯峨とうふ 稲 北店","京都,四条大宮・西院・右京区・西京区,関西"
36942,chabuton-%e4%ba%ac%e9%83%bd%e3%83%a8%e3%83%89%e3%83%90%e3%82%b7%e5%ba%97,shop,publish,"CHABUTON 京都ヨドバシ店","京都駅周辺,京都,関西"
36950,chabuton-%e4%b8%8b%e5%8c%97%e6%b2%a2%e9%a7%85%e5%89%8d%e5%ba%97,shop,publish,"CHABUTON 下北沢駅前店","東京,関東,下北沢・代々木上原"
36954,chabuton-%e3%83%a8%e3%83%89%e3%83%90%e3%82%b7%e6%a8%aa%e6%b5%9c%e5%ba%97,shop,publish,"CHABUTON ヨドバシ横浜店","関東,神奈川,横浜・桜木町みなとみらい"
36956,%e3%81%a8%e3%82%93%e3%81%93%e3%81%a4%e3%82%89%e3%81%81%e9%ba%ba%ef%bd%83%ef%bd%88%ef%bd%81%ef%bd%82%ef%bd%95%ef%bd%94%ef%bd%8f%ef%bd%8e%ef%bc%88%e3%81%a1%e3%82%83%e3%81%b6%e3%81%a8%e3%82%93%ef%bc%89li,shop,publish,"とんこつらぁ麺ＣＨＡＢＵＴＯＮ（ちゃぶとん）LINKS UMEDA店","大阪,梅田・北新地,関西"
36980,asian-chample-foods-goya,shop,publish,"asian chample foods goya","京都,関西,左京区・山科区"
36988,%e3%82%ab%e3%82%ab%e3%82%aa%e3%83%9e%e3%82%b8%e3%83%83%e3%82%af,shop,publish,カカオマジック,"京都,関西,左京区・山科区"
36993,%e3%82%a2%e3%83%9a%e3%83%aa%e3%83%a9,shop,publish,アペリラ,"京都,関西,左京区・山科区"
40464,%e5%90%8d%e4%bb%a3%e3%81%9f%e3%81%84%e3%82%84%e3%81%8d%e3%82%8f%e3%81%8b%e3%81%b0,shop,publish,名代たいやきわかば,"東京,関東,四ツ谷・麹町・市ヶ谷"
40467,linio-%e3%83%aa%e3%83%8b%e3%83%bc%e3%82%aa,shop,publish,"Linio (リニーオ)","東京,関東,四ツ谷・麹町・市ヶ谷"
40471,%e3%82%b9%e3%83%91%e3%82%a4%e3%82%b9%e3%82%89%e3%81%81%e3%82%81%e3%82%93%e9%87%88%e8%bf%a6,shop,publish,スパイスらぁめん釈迦,"東京,関東,新宿・代々木・大久保"
40474,%e3%81%82%e3%81%84%e3%81%99%e3%81%aa%e3%81%8a,shop,publish,あいすなお,"香川,四国"
40550,citra-hachioji%ef%bc%88%e3%82%b7%e3%83%88%e3%83%a9%e3%83%8f%e3%83%81%e3%82%aa%e3%82%a6%e3%82%b8%ef%bc%89,shop,publish,"CITRA HACHIOJI（シトラハチオウジ）","東京,関東,八王子・立川"
40553,mor-happiness,shop,publish,"MOR Happiness","東京,関東,吉祥寺・荻窪・三鷹"
40555,balthazar,shop,publish,BALTHAZAR,"東京,関東,吉祥寺・荻窪・三鷹"
40559,kin-mama%ef%bc%88%e3%82%ad%e3%83%b3%e3%83%9e%e3%83%9e%ef%bc%89,shop,publish,"Kin mama（キンママ）","東京,関東,吉祥寺・荻窪・三鷹"
40564,gina-%ef%bc%88%e3%82%b8%e3%83%bc%e3%83%8a%ef%bc%89,shop,publish,"GINA （ジーナ）","東京,関東,吉祥寺・荻窪・三鷹"
40568,%e6%9a%ae%e3%82%89%e3%81%97%e3%81%ae%e3%81%84%e3%82%8d%e3%81%84%e3%82%8d-%e3%81%a6%e3%81%84%e3%81%ad%e3%81%84%e3%81%ab%e3%80%81,shop,publish,"暮らしのいろいろ ていねいに、","東京,関東,吉祥寺・荻窪・三鷹"
40570,%e3%82%ac%e3%83%8d%e3%83%bc%e3%82%b7%e3%83%a3%e3%83%bb%e3%82%ac%e3%83%ab-%e8%a5%bf%e8%8d%bb%e7%aa%aa%e5%ba%97,shop,publish,"ガネーシャ・ガル 西荻窪店","東京,関東,吉祥寺・荻窪・三鷹"
40576,raccoon,shop,publish,raccoon,"東京,関東,吉祥寺・荻窪・三鷹"
40580,%e3%82%a4%e3%83%b3%e3%82%b6%e3%83%a9%e3%83%95%ef%bc%88in-the-rough%ef%bc%89,shop,publish,"インザラフ（In the Rough）","東京,関東,吉祥寺・荻窪・三鷹"
40583,%e3%82%ab%e3%83%8a%e3%83%a0-%ef%bc%88khanam%ef%bc%89,shop,publish,"カナム （Khanam）","東京,関東,吉祥寺・荻窪・三鷹"
40587,cafe-bask,shop,publish,"cafe bask","東京,関東,吉祥寺・荻窪・三鷹"
40590,%e5%bf%83%e6%b3%89%e8%8c%b6%e8%8b%91,shop,publish,心泉茶苑,"東京,関東,吉祥寺・荻窪・三鷹"
42380,%e8%8f%9c%e9%81%93,shop,publish,菜道,"東京,関東,自由が丘・学芸大学・都立大学・祐天寺"
42385,faro%ef%bc%88%e3%83%95%e3%82%a1%e3%83%ad%ef%bc%89,shop,publish,FARO（ファロ）,"東京,関東,銀座・有楽町・新橋"
42391,kunitachi-pasta-factory,shop,publish,"Kunitachi Pasta Factory","東京,関東,八王子・立川"
42393,komeda-is-%e2%96%a1%ef%bc%88%e3%82%b3%e3%83%a1%e3%83%80%e3%82%a4%e3%82%ba%ef%bc%89,shop,publish,"KOMEDA is □（コメダイズ）","東京,関東,銀座・有楽町・新橋"
42398,tenzo,shop,publish,TENZO,"東京,関東,銀座・有楽町・新橋"
43767,%e3%80%8c%e3%81%ab%e3%81%98%e3%81%ae%e3%81%af%e3%81%97cafe-market%e3%80%8d%e3%81%a8%e3%80%8c%e3%83%8f%e3%82%b8%e3%83%9e%e3%83%aa%e3%83%8b%e3%80%8d,shop,publish,"「にじのはしcafe & market」と「ハジマリニ」","岡山,井原市,中国"
